﻿<?xml version="1.0" encoding="utf-8"?>
<!DOCTYPE svg PUBLIC "-//W3C//DTD SVG 1.0//EN" "http://www.w3.org/TR/2001/REC-SVG-20010904/DTD/svg10.dtd"[
	<!ENTITY ns_flows "http://ns.adobe.com/Flows/1.0/">
	<!ENTITY ns_svg "http://www.w3.org/2000/svg">
	<!ENTITY ns_xlink "http://www.w3.org/1999/xlink">
	<!ENTITY st0 "font-size:7px;font-family:'MS-PGothic';adobe-font-script:japanese;">
	<!ENTITY st1 "font-size:6px;font-family:'ArialMT';">
	<!-- White fill  -->
	<!ENTITY st2 "fill:#FFFFFF;stroke:#000000; stroke-width:1.41;stroke-linecap:round;stroke-linejoin:round;">
	<!-- Yellow fill  -->
	<!ENTITY st3 "fill:#FFFFCC;stroke:#FFFFCC; stroke-width:0.1;stroke-linecap:round;stroke-linejoin:round;">
	<!-- Gray fill  -->
	<!ENTITY st4 "fill:#CCCCCC;stroke:#CCCCCC; stroke-width:0.1;stroke-linecap:round;stroke-linejoin:round;">
	<!-- Light-blue fill -->
	<!ENTITY st5 "fill:#CCECF4;stroke:#000000; stroke-width:1.133;stroke-linecap:round;stroke-linejoin:round;">
	<!ENTITY st6 "fill:none;stroke-linecap:butt; stroke-linejoin:round;">
	<!ENTITY st7 "fill:none;stroke:#000000;stroke-linecap:round;stroke-linejoin:round;">
	<!ENTITY st8 "enable-background:new    ;">
	<!-- Black fill -->
	<!ENTITY st9 "fill:#000000;stroke:#000000; stroke-linecap:round;stroke-linejoin:round;">
	<!-- SRS note   -->
	<!ENTITY st10 "font-size:9px;font-family:'ArialMT';">
	<!ENTITY st11 "font-size:9px;font-family:'Svg Symbol';">
	<!ENTITY st12 "font-size:6px;font-family:'Svg Symbol';">
	<!ENTITY st13 "fill:none;stroke:#ff0000;stroke-linecap:round;stroke-linejoin:round;">
	<!-- Yellow fill  -->
	<!ENTITY st14 "fill:#FFFF00;stroke:#FFFF00; stroke-width:0.1;stroke-linecap:round;stroke-linejoin:round;">
	<!ENTITY st15 "font-size:6px;font-family:'MS-PGothic';adobe-font-script:japanese;">
	<!ENTITY st16 "1.00 0.00 0.00 1.00">
	<!ENTITY st17 "0.00 -1.00 1.00 0.00">
	<!ENTITY st18 "font-size:6px;font-family:'Arial';">
	<!ENTITY st19 "font-size:9px;font-family:'Arial';">
	<!ENTITY st20 "font-size:6px;font-family:'MS-PGothic','MS PGothic';adobe-font-script:japanese;">
	<!ENTITY st21 "font-size:7px;font-family:'MS-PGothic','MS PGothic';adobe-font-script:japanese;">
	<!ATTLIST svg
		xmlns:ewd CDATA #FIXED "http://shcl.co.jp/ewd"
		xmlns:a CDATA #FIXED "http://ns.adobe.com/AdobeSVGViewerExtensions/3.0/"
		ewd:ver CDATA #IMPLIED
	>
	<!ATTLIST a
		ewd:lineID CDATA #IMPLIED
		ewd:groupID CDATA #IMPLIED
		ewd:figtype CDATA #IMPLIED
		ewd:code CDATA #IMPLIED
		ewd:figID CDATA #IMPLIED
		ewd:pinNo CDATA #IMPLIED
		ewd:comment CDATA #IMPLIED >
	<!ATTLIST g
		ewd:lineID CDATA #IMPLIED
		ewd:groupID CDATA #IMPLIED
		ewd:figtype CDATA #IMPLIED
		ewd:code CDATA #IMPLIED
		ewd:figID CDATA #IMPLIED
		ewd:pinNo CDATA #IMPLIED
		ewd:comment CDATA #IMPLIED >
	<!ATTLIST text
		ewd:textID CDATA #IMPLIED
		ewd:horAlign CDATA #IMPLIED >
	<!ATTLIST title
		ewd:textID CDATA #IMPLIED >
]>
<!-- Generator: Shintec Hozumi YS   -->
<svg onload="call_execInitLoadProc_svg('system')" style="overflow:visible;  enable-background:new 0 0 1461.756 710.000" viewBox="0 0 1470.264 710.000" height="710.000" width="1470.264" xml:space="preserve" ewd:ver="L2.1.2.6" xmlns="&ns_svg;" xmlns:ewd="http://shcl.co.jp/ewd" xmlns:a="http://ns.adobe.com/AdobeSVGViewerExtensions/3.0/" xmlns:xlink="&ns_xlink;">
<path d=" M  943.34,  154.76  L  849.86,  154.76  L  849.86,  120.77  L  943.34,  120.77  L  943.34,  265.24 " style="stroke:#000000;stroke-width: 0.85 ;&st7;stroke-dasharray:3, 1.5;" /><path d=" M  781.87,  235.50  L  784.70,  236.91 " style="stroke-width: 0.85 ;&st7; " /><path d=" M  784.70,  236.91  L  779.04,  239.75 " style="stroke-width: 0.85 ;&st7; " /><path d=" M  779.04,  239.75  L  784.70,  242.58 " style="stroke-width: 0.85 ;&st7; " /><path d=" M  784.70,  242.58  L  779.04,  245.41 " style="stroke-width: 0.85 ;&st7; " /><path d=" M  779.04,  245.41  L  784.70,  248.24 " style="stroke-width: 0.85 ;&st7; " /><path d=" M  784.70,  248.24  L  779.04,  251.08 " style="stroke-width: 0.85 ;&st7; " /><path d=" M  781.87,  273.74  L  781.87,  252.49 " style="stroke-width: 0.85 ;&st7; " /><path d=" M  866.86,  231.25  L  866.86,  239.75 " style="stroke-width: 1.42 ;&st7; " /><path d=" M  883.85,  231.25  L  883.85,  239.75 " style="stroke-width: 1.42 ;&st7; " /><path d=" M  866.86,  248.24  L  866.86,  239.75 " style="stroke-width: 1.42 ;&st7; " /><path d=" M  883.85,  248.24  L  883.85,  239.75 " style="stroke-width: 1.42 ;&st7; " /><path d=" M  875.35,  222.75  L  875.35,  231.25 " style="stroke-width: 0.85 ;&st7; " /><path d=" M  875.35,  248.24  L  875.35,  256.74 " style="stroke-width: 0.85 ;&st7; " /><path d=" M  705.38,  180.26  L  713.88,  180.26 " style="stroke-width: 1.42 ;&st7; " /><path d=" M  662.89,  180.26  L  671.39,  180.26 " style="stroke-width: 1.42 ;&st7; " /><path d=" M  722.38,  460.71  L  713.88,  460.71 " style="stroke-width: 1.42 ;&st7; " /><path d=" M  679.89,  460.71  L  671.39,  460.71 " style="stroke-width: 1.42 ;&st7; " /><path d=" M  951.84,  270.21  L  946.87,  265.24 " style="stroke-width: 1.42 ;&st7; " /><path d=" M  934.84,  277.27  L  939.81,  282.24 " style="stroke-width: 1.42 ;&st7; " /><path d=" M  946.87,  282.24  L  951.84,  277.27 " style="stroke-width: 1.42 ;&st7; " /><path d=" M  939.81,  265.24  L  934.84,  270.21 " style="stroke-width: 1.42 ;&st7; " /><path d=" M  781.87,  656.18  L  776.81,  644.81 " style="stroke-width: 1.42 ;&st7; " /><path d=" M  781.87,  656.18  L  786.93,  644.81 " style="stroke-width: 1.42 ;&st7; " /><path d=" M  849.86,  656.18  L  844.80,  644.81 " style="stroke-width: 1.42 ;&st7; " /><path d=" M  849.86,  656.18  L  854.92,  644.81 " style="stroke-width: 1.42 ;&st7; " /><path d=" M  815.86,  639.18  L  820.92,  650.54 " style="stroke-width: 1.42 ;&st7; " /><path d=" M  815.86,  639.18  L  810.80,  650.54 " style="stroke-width: 1.42 ;&st7; " /><path d=" M  747.88,  639.18  L  752.93,  650.54 " style="stroke-width: 1.42 ;&st7; " /><path d=" M  747.88,  639.18  L  742.82,  650.54 " style="stroke-width: 1.42 ;&st7; " /><path d=" M  849.86,  503.20  L  854.92,  514.56 " style="stroke-width: 1.42 ;&st7; " /><path d=" M  849.86,  503.20  L  844.80,  514.56 " style="stroke-width: 1.42 ;&st7; " /><path d=" M  781.87,  503.20  L  786.93,  514.56 " style="stroke-width: 1.42 ;&st7; " /><path d=" M  781.87,  503.20  L  776.81,  514.56 " style="stroke-width: 1.42 ;&st7; " /><path d=" M  747.88,  520.20  L  742.82,  508.84 " style="stroke-width: 1.42 ;&st7; " /><path d=" M  747.88,  520.20  L  752.93,  508.84 " style="stroke-width: 1.42 ;&st7; " /><path d=" M  815.86,  520.20  L  810.80,  508.84 " style="stroke-width: 1.42 ;&st7; " /><path d=" M  815.86,  520.20  L  820.92,  508.84 " style="stroke-width: 1.42 ;&st7; " /><path d=" M  790.37,  235.50  L  790.37,  252.49 " style="stroke-width: 0.85 ;&st7; " /><path d=" M  773.37,  235.50  L  773.37,  252.49 " style="stroke-width: 0.85 ;&st7; " /><path d=" M  781.87,  235.50  L  781.87,  214.25 " style="stroke-width: 0.85 ;&st7; " /><path d=" M  779.04,  251.08  L  781.87,  252.49 " style="stroke-width: 0.85 ;&st7; " /><path d=" M  712.69,  281.24  L  712.42,  281.71  L  712.32,  282.24  L  712.42,  282.77  L  712.69,  283.24  L  713.10,  283.59  L  713.61,  283.77  L  714.15,  283.77  L  714.66,  283.59  L  715.07,  283.24  L  715.35,  282.77  L  715.44,  282.24  L  715.35,  281.71  L  715.07,  281.24  L  714.66,  280.89  L  714.15,  280.70  L  713.61,  280.70  L  713.10,  280.89  L  712.69,  281.24  L  713.08,  281.95  L  713.08,  282.53  L  713.46,  282.97  L  714.03,  283.07  L  714.53,  282.79  L  714.73,  282.24  L  714.53,  281.69  L  714.03,  281.40  L  713.46,  281.50  L  713.88,  282.24 " style="stroke-width: 0.85 ;&st7; " /><path d=" M  670.19,  272.74  L  669.92,  273.21  L  669.83,  273.74  L  669.92,  274.27  L  670.19,  274.74  L  670.61,  275.09  L  671.12,  275.28  L  671.66,  275.28  L  672.17,  275.09  L  672.58,  274.74  L  672.85,  274.27  L  672.95,  273.74  L  672.85,  273.21  L  672.58,  272.74  L  672.17,  272.39  L  671.66,  272.20  L  671.12,  272.20  L  670.61,  272.39  L  670.19,  272.74  L  670.59,  273.45  L  670.59,  274.03  L  670.96,  274.48  L  671.53,  274.58  L  672.04,  274.29  L  672.24,  273.74  L  672.04,  273.19  L  671.53,  272.90  L  670.96,  273.00  L  671.39,  273.74 " style="stroke-width: 0.85 ;&st7; " /><path d=" M  671.39,  290.74  L  671.39,  265.24 " style="stroke-width: 0.85 ;&st7; " /><path d=" M  713.88,  265.24  L  713.88,  290.74 " style="stroke-width: 0.85 ;&st7; " /><path d=" M  854.11,  498.95  L  849.86,  494.70  L  800.99,  494.70  L  798.87,  490.45  L  796.74,  494.70  L  747.87,  494.70  L  743.63,  498.95 " style="stroke-width: 0.85 ;&st7; " /><path d=" M  854.11,  660.42  L  849.86,  664.67  L  800.99,  664.67  L  798.87,  668.92  L  796.74,  664.67  L  747.87,  664.67  L  743.63,  660.42 " style="stroke-width: 0.85 ;&st7; " /><path d=" M  943.34,  375.72  L  943.34,  392.72 " style="stroke-width: 0.85 ;&st7; " /><path d=" M  934.84,  375.72  L  934.84,  392.72  L  951.84,  392.72  L  951.84,  375.72  L  934.84,  375.72 " style="stroke-width: 1.42 ;&st7; " /><path d=" M  942.15,  153.76  L  941.88,  154.23  L  941.78,  154.76  L  941.88,  155.29  L  942.15,  155.76  L  942.56,  156.11  L  943.07,  156.30  L  943.61,  156.30  L  944.12,  156.11  L  944.53,  155.76  L  944.81,  155.29  L  944.90,  154.76  L  944.81,  154.23  L  944.53,  153.76  L  944.12,  153.41  L  943.61,  153.22  L  943.07,  153.22  L  942.56,  153.41  L  942.15,  153.76  L  942.54,  154.47  L  942.54,  155.05  L  942.92,  155.50  L  943.49,  155.60  L  943.99,  155.31  L  944.19,  154.76  L  943.99,  154.21  L  943.49,  153.92  L  942.92,  154.02  L  943.34,  154.76 " style="stroke-width: 0.85 ;&st7; " /><path d=" M  941.93,  710.00  L  944.76,  710.00 " style="stroke-width: 0.85 ;&st7; " /><path d=" M  940.51,  707.17  L  946.17,  707.17 " style="stroke-width: 0.85 ;&st7; " /><path d=" M  939.09,  704.33  L  947.59,  704.33 " style="stroke-width: 0.85 ;&st7; " /><path d=" M  934.84,  701.50  L  951.84,  701.50 " style="stroke-width: 0.85 ;&st7; " /><path d=" M  943.34,  697.25  L  943.34,  701.50 " style="stroke-width: 0.85 ;&st7; " /><path d=" M  654.39,  596.69  L  866.85,  596.69  L  866.85,  562.69  L  654.39,  562.69  L  654.39,  596.69 " style="stroke-width: 1.42 ;&st7; " /><path d=" M  675.64,  469.77  L  671.39,  465.52  L  667.14,  469.77 " style="stroke-width: 1.42 ;&st7; " /><path d=" M  675.64,  466.37  L  671.39,  462.12  L  667.14,  466.37 " style="stroke-width: 1.42 ;&st7; " /><path d=" M  718.13,  469.77  L  713.88,  465.52  L  709.63,  469.77 " style="stroke-width: 1.42 ;&st7; " /><path d=" M  718.13,  466.37  L  713.88,  462.12  L  709.63,  466.37 " style="stroke-width: 1.42 ;&st7; " /><path d=" M  543.91,  290.74  L  722.38,  290.74  L  722.38,  265.24  L  543.91,  265.24  L  543.91,  290.74 " style="stroke-width: 1.42 ;&st7; " /><path d=" M  675.64,  174.59  L  671.39,  178.84  L  667.14,  174.59 " style="stroke-width: 1.42 ;&st7; " /><path d=" M  667.14,  171.19  L  671.39,  175.44  L  675.64,  171.19 " style="stroke-width: 1.42 ;&st7; " /><path d=" M  718.13,  174.59  L  713.88,  178.84  L  709.63,  174.59 " style="stroke-width: 1.42 ;&st7; " /><path d=" M  709.63,  171.19  L  713.88,  175.44  L  718.13,  171.19 " style="stroke-width: 1.42 ;&st7; " /><path d=" M  654.39,   44.28  L  654.39,   78.27  L 1002.83,   78.27  L 1002.83,   44.28  L  654.39,   44.28 " style="stroke-width: 1.42 ;&st7; " /><path d=" M  552.41,  265.24  L  552.41,  282.24  L  713.88,  282.24 " style="stroke-width: 0.85 ;&st7; " /><path d=" M  594.90,  265.24  L  594.90,  273.74  L  671.39,  273.74 " style="stroke-width: 0.85 ;&st7; " /><path d=" M  764.87,  273.74  L  764.87,  214.25  L  807.36,  214.25  L  807.36,  273.74  L  764.87,  273.74 " style="stroke-width: 1.42 ;&st7; " /><path d=" M  790.37,  235.50  C  790.37   230.80   786.56   227.00   781.87   227.00 " style="stroke-width: 0.85 ;&st7; " /><path d=" M  781.87,  227.00  C  777.18   227.00   773.37   230.80   773.37   235.50 " style="stroke-width: 0.85 ;&st7; " /><path d=" M  883.85,  231.25  C  883.85   226.55   880.05   222.75   875.35   222.75 " style="stroke-width: 1.42 ;&st7; " /><path d=" M  875.35,  222.75  C  870.66   222.75   866.86   226.55   866.86   231.25 " style="stroke-width: 1.42 ;&st7; " /><path d=" M  866.86,  248.24  C  866.86   252.94   870.66   256.74   875.35   256.74 " style="stroke-width: 1.42 ;&st7; " /><path d=" M  875.35,  256.74  C  880.05   256.74   883.85   252.94   883.85   248.24 " style="stroke-width: 1.42 ;&st7; " /><path d=" M  872.82,  237.27  C  874.19   238.66   876.44   238.69   877.83   237.32 " style="stroke-width: 0.85 ;&st7; " /><path d=" M  877.83,  237.32  C  879.23   235.95   879.25   233.71   877.88   232.31 " style="stroke-width: 0.85 ;&st7; " /><path d=" M  877.88,  232.31  C  877.19   231.60   876.34   231.25   875.35   231.25 " style="stroke-width: 0.85 ;&st7; " /><path d=" M  872.82,  242.22  C  874.19   243.62   876.44   243.64   877.83   242.27 " style="stroke-width: 0.85 ;&st7; " /><path d=" M  877.83,  242.27  C  879.23   240.91   879.25   238.66   877.88   237.27 " style="stroke-width: 0.85 ;&st7; " /><path d=" M  877.88,  237.27  C  876.51   235.87   874.27   235.85   872.87   237.22 " style="stroke-width: 0.85 ;&st7; " /><path d=" M  872.87,  237.22  C  872.86   237.23   872.84   237.25   872.82   237.27 " style="stroke-width: 0.85 ;&st7; " /><path d=" M  875.35,  248.24  C  877.31   248.24   878.89   246.66   878.89   244.70 " style="stroke-width: 0.85 ;&st7; " /><path d=" M  878.89,  244.70  C  878.89   242.75   877.31   241.16   875.35   241.16 " style="stroke-width: 0.85 ;&st7; " /><path d=" M  875.35,  241.16  C  874.36   241.16   873.52   241.52   872.82   242.22 " style="stroke-width: 0.85 ;&st7; " /><path d=" M  718.41,  260.71  C  718.41   258.21   716.38   256.18   713.88   256.18 " style="stroke-width: 1.42 ;&st7; " /><path d=" M  713.88,  256.18  C  711.38   256.18   709.35   258.21   709.35   260.71 " style="stroke-width: 1.42 ;&st7; " /><path d=" M  709.35,  260.71  C  709.35   263.21   711.38   265.24   713.88   265.24 " style="stroke-width: 1.42 ;&st7; " /><path d=" M  713.88,  265.24  C  716.38   265.24   718.41   263.21   718.41   260.71 " style="stroke-width: 1.42 ;&st7; " /><path d=" M  675.92,  260.71  C  675.92   258.21   673.89   256.18   671.39   256.18 " style="stroke-width: 1.42 ;&st7; " /><path d=" M  671.39,  256.18  C  668.88   256.18   666.86   258.21   666.86   260.71 " style="stroke-width: 1.42 ;&st7; " /><path d=" M  666.86,  260.71  C  666.86   263.21   668.88   265.24   671.39   265.24 " style="stroke-width: 1.42 ;&st7; " /><path d=" M  671.39,  265.24  C  673.89   265.24   675.92   263.21   675.92   260.71 " style="stroke-width: 1.42 ;&st7; " /><path d=" M  718.41,  295.27  C  718.41   292.77   716.38   290.74   713.88   290.74 " style="stroke-width: 1.42 ;&st7; " /><path d=" M  713.88,  290.74  C  711.38   290.74   709.35   292.77   709.35   295.27 " style="stroke-width: 1.42 ;&st7; " /><path d=" M  709.35,  295.27  C  709.35   297.77   711.38   299.80   713.88   299.80 " style="stroke-width: 1.42 ;&st7; " /><path d=" M  713.88,  299.80  C  716.38   299.80   718.41   297.77   718.41   295.27 " style="stroke-width: 1.42 ;&st7; " /><path d=" M  675.92,  295.27  C  675.92   292.77   673.89   290.74   671.39   290.74 " style="stroke-width: 1.42 ;&st7; " /><path d=" M  671.39,  290.74  C  668.88   290.74   666.86   292.77   666.86   295.27 " style="stroke-width: 1.42 ;&st7; " /><path d=" M  666.86,  295.27  C  666.86   297.77   668.88   299.80   671.39   299.80 " style="stroke-width: 1.42 ;&st7; " /><path d=" M  671.39,  299.80  C  673.89   299.80   675.92   297.77   675.92   295.27 " style="stroke-width: 1.42 ;&st7; " /><path d=" M  947.87,  371.19  C  947.87   368.69   945.85   366.66   943.34   366.66 " style="stroke-width: 1.42 ;&st7; " /><path d=" M  943.34,  366.66  C  940.84   366.66   938.81   368.69   938.81   371.19 " style="stroke-width: 1.42 ;&st7; " /><path d=" M  938.81,  371.19  C  938.81   373.69   940.84   375.72   943.34   375.72 " style="stroke-width: 1.42 ;&st7; " /><path d=" M  943.34,  375.72  C  945.85   375.72   947.87   373.69   947.87   371.19 " style="stroke-width: 1.42 ;&st7; " /><path d=" M  947.87,  397.25  C  947.87   394.75   945.85   392.72   943.34   392.72 " style="stroke-width: 1.42 ;&st7; " /><path d=" M  943.34,  392.72  C  940.84   392.72   938.81   394.75   938.81   397.25 " style="stroke-width: 1.42 ;&st7; " /><path d=" M  938.81,  397.25  C  938.81   399.76   940.84   401.78   943.34   401.78 " style="stroke-width: 1.42 ;&st7; " /><path d=" M  943.34,  401.78  C  945.85   401.78   947.87   399.76   947.87   397.25 " style="stroke-width: 1.42 ;&st7; " /><path d=" M  879.89,   82.80  C  879.89    80.30   877.86    78.27   875.35    78.27 " style="stroke-width: 1.42 ;&st7; " /><path d=" M  875.35,   78.27  C  872.85    78.27   870.82    80.30   870.82    82.80 " style="stroke-width: 1.42 ;&st7; " /><path d=" M  870.82,   82.80  C  870.82    85.31   872.85    87.34   875.35    87.34 " style="stroke-width: 1.42 ;&st7; " /><path d=" M  875.35,   87.34  C  877.86    87.34   879.89    85.31   879.89    82.80 " style="stroke-width: 1.42 ;&st7; " /><path d=" M  828.89,   82.80  C  828.89    80.30   826.87    78.27   824.36    78.27 " style="stroke-width: 1.42 ;&st7; " /><path d=" M  824.36,   78.27  C  821.86    78.27   819.83    80.30   819.83    82.80 " style="stroke-width: 1.42 ;&st7; " /><path d=" M  819.83,   82.80  C  819.83    85.31   821.86    87.34   824.36    87.34 " style="stroke-width: 1.42 ;&st7; " /><path d=" M  824.36,   87.34  C  826.87    87.34   828.89    85.31   828.89    82.80 " style="stroke-width: 1.42 ;&st7; " /><path d=" M  786.40,   82.80  C  786.40    80.30   784.37    78.27   781.87    78.27 " style="stroke-width: 1.42 ;&st7; " /><path d=" M  781.87,   78.27  C  779.37    78.27   777.34    80.30   777.34    82.80 " style="stroke-width: 1.42 ;&st7; " /><path d=" M  777.34,   82.80  C  777.34    85.31   779.37    87.34   781.87    87.34 " style="stroke-width: 1.42 ;&st7; " /><path d=" M  781.87,   87.34  C  784.37    87.34   786.40    85.31   786.40    82.80 " style="stroke-width: 1.42 ;&st7; " /><path d=" M  990.37,   82.80  C  990.37    80.30   988.34    78.27   985.84    78.27 " style="stroke-width: 1.42 ;&st7; " /><path d=" M  985.84,   78.27  C  983.33    78.27   981.30    80.30   981.30    82.80 " style="stroke-width: 1.42 ;&st7; " /><path d=" M  981.30,   82.80  C  981.30    85.31   983.33    87.34   985.84    87.34 " style="stroke-width: 1.42 ;&st7; " /><path d=" M  985.84,   87.34  C  988.34    87.34   990.37    85.31   990.37    82.80 " style="stroke-width: 1.42 ;&st7; " /><path d=" M  718.41,   82.80  C  718.41    80.30   716.38    78.27   713.88    78.27 " style="stroke-width: 1.42 ;&st7; " /><path d=" M  713.88,   78.27  C  711.38    78.27   709.35    80.30   709.35    82.80 " style="stroke-width: 1.42 ;&st7; " /><path d=" M  709.35,   82.80  C  709.35    85.31   711.38    87.34   713.88    87.34 " style="stroke-width: 1.42 ;&st7; " /><path d=" M  713.88,   87.34  C  716.38    87.34   718.41    85.31   718.41    82.80 " style="stroke-width: 1.42 ;&st7; " /><path d=" M  675.92,   82.80  C  675.92    80.30   673.89    78.27   671.39    78.27 " style="stroke-width: 1.42 ;&st7; " /><path d=" M  671.39,   78.27  C  668.88    78.27   666.86    80.30   666.86    82.80 " style="stroke-width: 1.42 ;&st7; " /><path d=" M  666.86,   82.80  C  666.86    85.31   668.88    87.34   671.39    87.34 " style="stroke-width: 1.42 ;&st7; " /><path d=" M  671.39,   87.34  C  673.89    87.34   675.92    85.31   675.92    82.80 " style="stroke-width: 1.42 ;&st7; " /><path d=" M  913.88,   82.80  C  913.88    80.30   911.85    78.27   909.35    78.27 " style="stroke-width: 1.42 ;&st7; " /><path d=" M  909.35,   78.27  C  906.84    78.27   904.82    80.30   904.82    82.80 " style="stroke-width: 1.42 ;&st7; " /><path d=" M  904.82,   82.80  C  904.82    85.31   906.84    87.34   909.35    87.34 " style="stroke-width: 1.42 ;&st7; " /><path d=" M  909.35,   87.34  C  911.85    87.34   913.88    85.31   913.88    82.80 " style="stroke-width: 1.42 ;&st7; " /><path d=" M  599.43,  260.71  C  599.43   258.21   597.40   256.18   594.90   256.18 " style="stroke-width: 1.42 ;&st7; " /><path d=" M  594.90,  256.18  C  592.40   256.18   590.37   258.21   590.37   260.71 " style="stroke-width: 1.42 ;&st7; " /><path d=" M  590.37,  260.71  C  590.37   263.21   592.40   265.24   594.90   265.24 " style="stroke-width: 1.42 ;&st7; " /><path d=" M  594.90,  265.24  C  597.40   265.24   599.43   263.21   599.43   260.71 " style="stroke-width: 1.42 ;&st7; " /><path d=" M  556.94,  260.71  C  556.94   258.21   554.91   256.18   552.41   256.18 " style="stroke-width: 1.42 ;&st7; " /><path d=" M  552.41,  256.18  C  549.90   256.18   547.88   258.21   547.88   260.71 " style="stroke-width: 1.42 ;&st7; " /><path d=" M  547.88,  260.71  C  547.88   263.21   549.90   265.24   552.41   265.24 " style="stroke-width: 1.42 ;&st7; " /><path d=" M  552.41,  265.24  C  554.91   265.24   556.94   263.21   556.94   260.71 " style="stroke-width: 1.42 ;&st7; " /><path d=" M  773.37,  252.49  C  773.37   257.19   777.18   260.99   781.87   260.99 " style="stroke-width: 0.85 ;&st7; " /><path d=" M  781.87,  260.99  C  786.56   260.99   790.37   257.19   790.37   252.49 " style="stroke-width: 0.85 ;&st7; " /><text style="&st18;" transform="matrix(&st16;  704.63  74.58 )">CANL</text><text style="&st18;" transform="matrix(&st16;  695.89  186.47 )">14</text><text style="&st18;" transform="matrix(&st16;  653.39  186.47 )">15</text><text style="&st18;" transform="matrix(&st17;  710.18  141.12 )">W</text><text style="&st18;" transform="matrix(&st17;  667.69  140.09 )">B</text><text style="&st18;" transform="matrix(&st17;  667.69  233.58 )">P</text><text style="&st18;" transform="matrix(&st17;  710.18  234.6 )">W</text><text style="&st18;" transform="matrix(&st16;  711.76  262.68 )">F</text><text style="&st18;" transform="matrix(&st16;  703.0  262.68 )">2</text><text style="&st18;" transform="matrix(&st16;  669.27  262.68 )">F</text><text style="&st18;" transform="matrix(&st16;  661.29  262.68 )">1</text><text style="&st18;" transform="matrix(&st16;  711.13  297.24 )">G</text><text style="&st18;" transform="matrix(&st16;  703.0  297.24 )">2</text><text style="&st18;" transform="matrix(&st16;  668.63  297.24 )">G</text><text style="&st18;" transform="matrix(&st16;  661.29  297.24 )">1</text><text style="&st18;" transform="matrix(&st17;  667.69  327.06 )">Y</text><text style="&st18;" transform="matrix(&st17;  710.18  328.09 )">W</text><text style="&st18;" transform="matrix(&st16;  699.07  458.43 )">8</text><text style="&st18;" transform="matrix(&st16;  656.57  458.43 )">7</text><text style="&st18;" transform="matrix(&st17;  667.69  499.93 )">GR</text><text style="&st18;" transform="matrix(&st17;  710.18  498.06 )">W</text><text ewd:textID="10" style="&st18;" transform="matrix(&st17;  881.57  599.21 )">Conjunto del actuador del freno</text><text style="&st18;" transform="matrix(&st17;  874.47  599.21 )">A49</text><text style="&st18;" transform="matrix(&st16;  703.91  559.0 )">14</text><text style="&st18;" transform="matrix(&st16;  660.64  559.0 )">26</text><text style="&st18;" transform="matrix(&st16;  661.64  570.33 )">CANH</text><text style="&st18;" transform="matrix(&st16;  704.63  570.33 )">CANL</text><text style="&st18;" transform="matrix(&st16;  978.77  74.58 )">RFC</text><text style="&st18;" transform="matrix(&st16;  868.54  74.58 )">NE+</text><text style="&st18;" transform="matrix(&st17;  871.66  140.52 )">G</text><text style="&st18;" transform="matrix(&st17;  905.65  140.23 )">R</text><text style="&st18;" transform="matrix(&st16;  814.08  74.58 )">ETHW</text><text style="&st18;" transform="matrix(&st16;  773.92  74.58 )">THW</text><text style="&st18;" transform="matrix(&st17;  778.17  140.09 )">B</text><text style="&st18;" transform="matrix(&st17;  820.67  140.09 )">P</text><text style="&st18;" transform="matrix(&st16;  941.01  373.16 )">B</text><text style="&st18;" transform="matrix(&st16;  932.47  373.16 )">6</text><text style="&st18;" transform="matrix(&st16;  941.01  399.22 )">B</text><text style="&st18;" transform="matrix(&st16;  932.47  399.22 )">7</text><text ewd:textID="20" style="&st18;" transform="matrix(&st17;  966.56  395.24 )">Conector de unión</text><text style="&st18;" transform="matrix(&st17;  959.45  395.24 )">E76(B)</text><text style="&st18;" transform="matrix(&st17;  939.65  329.53 )">BR</text><text style="&st18;" transform="matrix(&st17;  939.65  499.51 )">BR</text><text ewd:textID="1" style="&st18;" transform="matrix(&st17;  846.16  153.76 )">(Protegido)</text><text style="&st18;" transform="matrix(&st16;  809.26  570.33 )">FR-</text><text style="&st18;" transform="matrix(&st16;  843.25  570.33 )">FR+</text><text style="&st18;" transform="matrix(&st16;  839.89  559.0 )">16</text><text style="&st18;" transform="matrix(&st16;  809.07  559.0 )">4</text><text style="&st18;" transform="matrix(&st17;  846.16  539.95 )">G</text><text style="&st18;" transform="matrix(&st17;  812.17  539.17 )">L</text><text style="&st18;" transform="matrix(&st16;  741.76  570.33 )">FL-</text><text style="&st18;" transform="matrix(&st16;  775.76  570.33 )">FL+</text><text style="&st18;" transform="matrix(&st16;  771.9  559.0 )">19</text><text style="&st18;" transform="matrix(&st16;  741.09  559.0 )">8</text><text style="&st18;" transform="matrix(&st17;  778.17  539.53 )">B</text><text style="&st18;" transform="matrix(&st17;  744.18  540.55 )">W</text><text style="&st18;" transform="matrix(&st16;  842.9  592.99 )">RR+</text><text style="&st18;" transform="matrix(&st16;  808.91  592.99 )">RR-</text><text style="&st18;" transform="matrix(&st16;  775.41  592.99 )">RL+</text><text style="&st18;" transform="matrix(&st16;  741.41  592.99 )">RL-</text><text style="&st18;" transform="matrix(&st16;  839.89  604.88 )">17</text><text style="&st18;" transform="matrix(&st16;  805.12  604.88 )">29</text><text style="&st18;" transform="matrix(&st16;  771.9  604.88 )">31</text><text style="&st18;" transform="matrix(&st16;  737.91  604.88 )">18</text><text style="&st18;" transform="matrix(&st17;  846.16  624.51 )">B</text><text style="&st18;" transform="matrix(&st17;  812.17  625.54 )">W</text><text style="&st18;" transform="matrix(&st17;  778.17  624.65 )">R</text><text style="&st18;" transform="matrix(&st17;  744.18  624.94 )">G</text><text ewd:textID="22" style="&st18;" transform="matrix(&st16; 758.66 676.56)">Sensores de velocidad traseros</text><text ewd:textID="19" style="&st18;" transform="matrix(&st16; 754.03 487.04)">Sensores de velocidad delanteros</text><text style="&st18;" transform="matrix(&st16;  542.44  86.47 )">12</text><text style="&st18;" transform="matrix(&st16;  543.15  74.58 )">CANL</text><text style="&st18;" transform="matrix(&st16;  585.71  86.47 )">11</text><text style="&st18;" transform="matrix(&st16;  585.15  74.58 )">CANH</text><text style="&st18;" transform="matrix(&st17;  548.71  234.6 )">W</text><text style="&st18;" transform="matrix(&st17;  591.2  233.58 )">V</text><text ewd:textID="20" style="&st18;" transform="matrix(&st17;  540.21  293.26 )">Conector de unión</text><text style="&st18;" transform="matrix(&st17;  533.11  293.26 )">I102(E),I104(F),I105(G)</text><text style="&st18;" transform="matrix(&st16;  902.53  74.58 )">NE-</text><text style="&st18;" transform="matrix(&st16;  873.02  84.77 )">B</text><text style="&st18;" transform="matrix(&st16;  532.89  33.47 )">I77</text><text ewd:textID="7" style="&st18;" transform="matrix(&st16;  532.89  40.58 )">Conjunto del amplificador del A/C</text><text style="&st18;" transform="matrix(&st17;  982.14  140.52 )">G</text><text style="&st18;" transform="matrix(&st16;  860.52  84.77 )">76</text><text style="&st18;" transform="matrix(&st16;  822.03  84.77 )">B</text><text style="&st18;" transform="matrix(&st16;  807.13  84.77 )">117</text><text style="&st18;" transform="matrix(&st16;  779.54  84.77 )">B</text><text style="&st18;" transform="matrix(&st16;  764.63  84.77 )">114</text><text style="&st18;" transform="matrix(&st16;  983.5  84.77 )">A</text><text style="&st18;" transform="matrix(&st16;  974.96  84.77 )">5</text><text style="&st18;" transform="matrix(&st16;  711.55  84.77 )">A</text><text style="&st18;" transform="matrix(&st16;  699.05  84.77 )">26</text><text style="&st18;" transform="matrix(&st16;  669.06  84.77 )">A</text><text style="&st18;" transform="matrix(&st16;  657.33  84.77 )">13</text><text style="&st18;" transform="matrix(&st16;  907.02  84.77 )">B</text><text style="&st18;" transform="matrix(&st16;  891.34  84.77 )">109</text><text style="&st18;" transform="matrix(&st16;  592.57  262.68 )">E</text><text style="&st18;" transform="matrix(&st16;  584.8  262.68 )">1</text><text style="&st18;" transform="matrix(&st16;  550.08  262.68 )">E</text><text style="&st18;" transform="matrix(&st16;  541.53  262.68 )">2</text><text style="&st18;" transform="matrix(&st16;  775.08  210.56 )">2</text><text style="&st18;" transform="matrix(&st16;  775.86  281.93 )">1</text><text style="&st18;" transform="matrix(&st16;  784.7  222.44 )">THW</text><text style="&st18;" transform="matrix(&st16;  784.7  270.05 )">E2</text><text style="&st18;" transform="matrix(&st16;  869.34  219.06 )">1</text><text style="&st18;" transform="matrix(&st16;  868.56  264.94 )">2</text><text style="&st18;" transform="matrix(&st17;  748.12  276.26 )">E47</text><text ewd:textID="16" style="&st18;" transform="matrix(&st17;  863.16  259.27 )">Sensor de la posición del cigüeñal</text><text style="&st18;" transform="matrix(&st17;  856.05  259.27 )">E72</text><text ewd:textID="17" style="&st18;" transform="matrix(&st17;  755.23  276.26 )">Sensor de la temperatura del refrigerante<tspan dy="6" x="0"> del motor E.F.I.</tspan></text><text style="&st18;" transform="matrix(&st16;  661.64  74.58 )">CANH</text><text style="&st18;" transform="matrix(&st16;  651.87  33.47 )">A25(A),E26(B)</text><text style="&st18;" transform="matrix(&st16;  651.87  40.58 )">ECM</text></svg>