﻿<?xml version="1.0" encoding="utf-8"?>
<!DOCTYPE svg PUBLIC "-//W3C//DTD SVG 1.0//EN" "http://www.w3.org/TR/2001/REC-SVG-20010904/DTD/svg10.dtd"[
	<!ENTITY ns_flows "http://ns.adobe.com/Flows/1.0/">
	<!ENTITY ns_svg "http://www.w3.org/2000/svg">
	<!ENTITY ns_xlink "http://www.w3.org/1999/xlink">
	<!ENTITY st0 "font-size:7px;font-family:'MS-PGothic';adobe-font-script:japanese;">
	<!ENTITY st1 "font-size:6px;font-family:'ArialMT';">
	<!-- White fill  -->
	<!ENTITY st2 "fill:#FFFFFF;stroke:#000000; stroke-width:1.41;stroke-linecap:round;stroke-linejoin:round;">
	<!-- Yellow fill  -->
	<!ENTITY st3 "fill:#FFFFCC;stroke:#FFFFCC; stroke-width:0.1;stroke-linecap:round;stroke-linejoin:round;">
	<!-- Gray fill  -->
	<!ENTITY st4 "fill:#CCCCCC;stroke:#CCCCCC; stroke-width:0.1;stroke-linecap:round;stroke-linejoin:round;">
	<!-- Light-blue fill -->
	<!ENTITY st5 "fill:#CCECF4;stroke:#000000; stroke-width:1.133;stroke-linecap:round;stroke-linejoin:round;">
	<!ENTITY st6 "fill:none;stroke-linecap:butt; stroke-linejoin:round;">
	<!ENTITY st7 "fill:none;stroke:#000000;stroke-linecap:round;stroke-linejoin:round;">
	<!ENTITY st8 "enable-background:new    ;">
	<!-- Black fill -->
	<!ENTITY st9 "fill:#000000;stroke:#000000; stroke-linecap:round;stroke-linejoin:round;">
	<!-- SRS note   -->
	<!ENTITY st10 "font-size:9px;font-family:'ArialMT';">
	<!ENTITY st11 "font-size:9px;font-family:'Svg Symbol';">
	<!ENTITY st12 "font-size:6px;font-family:'Svg Symbol';">
	<!ENTITY st13 "fill:none;stroke:#ff0000;stroke-linecap:round;stroke-linejoin:round;">
	<!-- Yellow fill  -->
	<!ENTITY st14 "fill:#FFFF00;stroke:#FFFF00; stroke-width:0.1;stroke-linecap:round;stroke-linejoin:round;">
	<!ENTITY st15 "font-size:6px;font-family:'MS-PGothic';adobe-font-script:japanese;">
	<!ENTITY st16 "1.00 0.00 0.00 1.00">
	<!ENTITY st17 "0.00 -1.00 1.00 0.00">
	<!ENTITY st18 "font-size:6px;font-family:'Arial';">
	<!ENTITY st19 "font-size:9px;font-family:'Arial';">
	<!ENTITY st20 "font-size:6px;font-family:'MS-PGothic','MS PGothic';adobe-font-script:japanese;">
	<!ENTITY st21 "font-size:7px;font-family:'MS-PGothic','MS PGothic';adobe-font-script:japanese;">
	<!ATTLIST svg
		xmlns:ewd CDATA #FIXED "http://shcl.co.jp/ewd"
		xmlns:a CDATA #FIXED "http://ns.adobe.com/AdobeSVGViewerExtensions/3.0/"
		ewd:ver CDATA #IMPLIED
	>
	<!ATTLIST a
		ewd:lineID CDATA #IMPLIED
		ewd:groupID CDATA #IMPLIED
		ewd:figtype CDATA #IMPLIED
		ewd:code CDATA #IMPLIED
		ewd:figID CDATA #IMPLIED
		ewd:pinNo CDATA #IMPLIED
		ewd:comment CDATA #IMPLIED >
	<!ATTLIST g
		ewd:lineID CDATA #IMPLIED
		ewd:groupID CDATA #IMPLIED
		ewd:figtype CDATA #IMPLIED
		ewd:code CDATA #IMPLIED
		ewd:figID CDATA #IMPLIED
		ewd:pinNo CDATA #IMPLIED
		ewd:comment CDATA #IMPLIED >
	<!ATTLIST text
		ewd:textID CDATA #IMPLIED
		ewd:horAlign CDATA #IMPLIED >
	<!ATTLIST title
		ewd:textID CDATA #IMPLIED >
]>
<!-- Generator: Shintec Hozumi YS   -->
<svg onload="call_execInitLoadProc_svg('system')" style="overflow:visible;  enable-background:new 0 0 4640.933 710.000" viewBox="0 0 4648.724 710.000" height="710.000" width="4648.724" xml:space="preserve" ewd:ver="L2.1.2.6" xmlns="&ns_svg;" xmlns:ewd="http://shcl.co.jp/ewd" xmlns:a="http://ns.adobe.com/AdobeSVGViewerExtensions/3.0/" xmlns:xlink="&ns_xlink;">
<path d=" M 2510.61,  460.71  L 2515.58,  455.74 " style="stroke-width: 1.42 ;&st7; " /><path d=" M 2515.58,  448.68  L 2510.61,  443.71 " style="stroke-width: 1.42 ;&st7; " /><path d=" M 3002.12,  120.77  L 2997.87,  120.77 " style="stroke-width: 1.42 ;&st7; " /><path d=" M 3002.12,  129.26  L 2997.87,  129.26 " style="stroke-width: 1.42 ;&st7; " /><path d=" M 2677.05,  205.75  L 2685.55,  205.75 " style="stroke-width: 1.42 ;&st7; " /><path d=" M 2685.55,  120.77  L 2685.55,  146.26 " style="stroke-width: 0.85 ;&st7; " /><path d=" M 2687.68,  146.26  L 2683.43,  146.26 " style="stroke-width: 1.42 ;&st7; " /><path d=" M 2687.68,  154.76  L 2683.43,  154.76 " style="stroke-width: 1.42 ;&st7; " /><path d=" M 2991.50,  256.74  L 3000.00,  256.74 " style="stroke-width: 1.42 ;&st7; " /><path d=" M 2507.08,  368.64  L 2512.75,  345.98 " style="stroke-width: 1.42 ;&st7; " /><path d=" M 2507.08,  375.72  L 2507.08,  371.47 " style="stroke-width: 0.85 ;&st7; " /><path d=" M 2507.08,  345.98  L 2507.08,  341.73 " style="stroke-width: 0.85 ;&st7; " /><path d=" M 2855.52,  299.24  L 2847.02,  293.57 " style="stroke-width: 0.85 ;&st7; " /><path d=" M 2847.02,  282.24  L 2847.02,  299.24 " style="stroke-width: 1.42 ;&st7; " /><path d=" M 2862.90,  246.30  L 2870.26,  242.05 " style="stroke-width: 0.85 ;&st7; " /><path d=" M 2868.26,  238.58  L 2860.89,  242.83 " style="stroke-width: 0.85 ;&st7; " /><path d=" M 2774.79,  452.21  L 2783.28,  452.21 " style="stroke-width: 0.85 ;&st7; " /><path d=" M 2859.77,  248.24  L 2851.27,  248.24 " style="stroke-width: 0.85 ;&st7; " /><path d=" M 2889.52,  379.97  L 2889.52,  375.72 " style="stroke-width: 0.85 ;&st7; " /><path d=" M 2889.52,  409.72  L 2889.52,  405.47 " style="stroke-width: 0.85 ;&st7; " /><path d=" M 2889.52,  402.63  L 2895.18,  379.97 " style="stroke-width: 1.42 ;&st7; " /><path d=" M 2906.51,  379.97  L 2906.51,  375.72 " style="stroke-width: 0.85 ;&st7; " /><path d=" M 2906.51,  409.72  L 2906.51,  405.47 " style="stroke-width: 0.85 ;&st7; " /><path d=" M 2906.51,  402.63  L 2912.18,  379.97 " style="stroke-width: 1.42 ;&st7; " /><path d=" M 2787.53,  401.22  L 2787.53,  384.22 " style="stroke-width: 1.42 ;&st7; " /><path d=" M 2787.53,  392.72  L 2793.20,  392.72 " style="stroke-width: 0.85 ;&st7; " /><path d=" M 2786.97,  395.93  L 2779.04,  401.22 " style="stroke-width: 0.85 ;&st7; " /><path d=" M 2779.04,  384.22  L 2787.53,  389.89 " style="stroke-width: 0.85 ;&st7; " /><path d=" M 2821.53,  542.17  L 2816.56,  537.20 " style="stroke-width: 1.42 ;&st7; " /><path d=" M 2804.53,  549.22  L 2809.50,  554.19 " style="stroke-width: 1.42 ;&st7; " /><path d=" M 2816.56,  554.19  L 2821.53,  549.22 " style="stroke-width: 1.42 ;&st7; " /><path d=" M 2809.50,  537.20  L 2804.53,  542.17 " style="stroke-width: 1.42 ;&st7; " /><path d=" M 2821.53,  605.18  L 2813.03,  605.18 " style="stroke-width: 1.42 ;&st7; " /><path d=" M 2507.08,  697.25  L 2507.08,  701.50 " style="stroke-width: 0.85 ;&st7; " /><path d=" M 2502.83,  704.33  L 2511.33,  704.33 " style="stroke-width: 0.85 ;&st7; " /><path d=" M 2504.25,  707.17  L 2509.91,  707.17 " style="stroke-width: 0.85 ;&st7; " /><path d=" M 2505.66,  710.00  L 2508.50,  710.00 " style="stroke-width: 0.85 ;&st7; " /><path d=" M 2553.82,  704.33  L 2562.32,  704.33 " style="stroke-width: 0.85 ;&st7; " /><path d=" M 2558.07,  697.25  L 2558.07,  701.50 " style="stroke-width: 0.85 ;&st7; " /><path d=" M 2549.57,  701.50  L 2566.57,  701.50 " style="stroke-width: 0.85 ;&st7; " /><path d=" M 2556.66,  710.00  L 2559.49,  710.00 " style="stroke-width: 0.85 ;&st7; " /><path d=" M 2555.24,  707.17  L 2560.90,  707.17 " style="stroke-width: 0.85 ;&st7; " /><path d=" M 2507.08,  214.25  L 2507.08,  231.25 " style="stroke-width: 0.85 ;&st7; " /><path d=" M 3000.00,  115.87  L 2997.16,  113.04  L 2997.16,  117.29  L 3000.00,  120.12  L 3002.83,  117.29  L 3002.83,  113.04  L 3000.00,  115.87 " style="stroke-width: 0.28 ;&st9;" /><path d=" M 2991.50,  188.75  L 3067.99,  188.75  L 3067.99,  205.75  L 2991.50,  205.75  L 2991.50,  188.75 " style="stroke-width: 1.42 ;&st7; " /><path d=" M 2736.54,  205.75  L 2736.54,  486.20  L 2957.50,  486.20  L 2957.50,  205.75  L 2736.54,  205.75 " style="stroke-width: 1.42 ;&st7; " /><path d=" M 2779.03,  452.21  L 2784.70,  460.71  L 2773.37,  460.71  L 2779.03,  452.21 " style="stroke-width: 0.28 ;&st9;" /><path d=" M 2779.03,  486.20  L 2779.03,  426.71  L 2776.20,  425.30  L 2781.87,  422.46  L 2776.20,  419.63  L 2781.87,  416.80  L 2776.20,  413.97  L 2781.87,  411.13  L 2779.03,  409.72  L 2779.03,  401.22 " style="stroke-width: 0.85 ;&st7; " /><path d=" M 2779.03,  469.21  L 2753.54,  469.21  L 2753.54,  452.21 " style="stroke-width: 0.85 ;&st7; " /><path d=" M 2762.04,  324.73  L 2762.04,  350.23  L 2940.51,  350.23  L 2940.51,  324.73  L 2762.04,  324.73 " style="stroke-width: 1.42 ;&st7; " /><path d=" M 2779.03,  384.22  L 2779.03,  350.23 " style="stroke-width: 0.85 ;&st7; " /><path d=" M 2804.53,  350.23  L 2804.53,  392.72  L 2787.53,  392.72 " style="stroke-width: 0.85 ;&st7; " /><path d=" M 2779.03,  435.21  L 2753.54,  435.21  L 2753.54,  418.22 " style="stroke-width: 0.85 ;&st7; " /><path d=" M 2752.35,  451.21  L 2752.07,  451.68  L 2751.98,  452.21  L 2752.07,  452.74  L 2752.35,  453.21  L 2752.76,  453.56  L 2753.27,  453.75  L 2753.81,  453.75  L 2754.32,  453.56  L 2754.73,  453.21  L 2755.00,  452.74  L 2755.10,  452.21  L 2755.00,  451.68  L 2754.73,  451.21  L 2754.32,  450.86  L 2753.81,  450.67  L 2753.27,  450.67  L 2752.76,  450.86  L 2752.35,  451.21  L 2752.74,  451.92  L 2752.74,  452.50  L 2753.11,  452.95  L 2753.69,  453.05  L 2754.19,  452.76  L 2754.39,  452.21  L 2754.19,  451.66  L 2753.69,  451.37  L 2753.11,  451.47  L 2753.54,  452.21 " style="stroke-width: 0.85 ;&st7; " /><path d=" M 2932.01,  486.20  L 2932.01,  350.23 " style="stroke-width: 0.85 ;&st7; " /><path d=" M 2813.03,  486.20  L 2813.03,  443.71  L 2838.52,  443.71  L 2838.52,  463.54 " style="stroke-width: 0.85 ;&st7; " /><path d=" M 2830.03,  463.54  L 2847.02,  463.54 " style="stroke-width: 0.85 ;&st7; " /><path d=" M 2834.28,  466.37  L 2842.77,  466.37 " style="stroke-width: 0.85 ;&st7; " /><path d=" M 2835.69,  469.21  L 2841.36,  469.21 " style="stroke-width: 0.85 ;&st7; " /><path d=" M 2837.11,  472.04  L 2839.94,  472.04 " style="stroke-width: 0.85 ;&st7; " /><path d=" M 2752.35,  417.21  L 2752.07,  417.68  L 2751.98,  418.22  L 2752.07,  418.75  L 2752.35,  419.22  L 2752.76,  419.56  L 2753.27,  419.75  L 2753.81,  419.75  L 2754.32,  419.56  L 2754.73,  419.22  L 2755.00,  418.75  L 2755.10,  418.22  L 2755.00,  417.68  L 2754.73,  417.21  L 2754.32,  416.87  L 2753.81,  416.68  L 2753.27,  416.68  L 2752.76,  416.87  L 2752.35,  417.21  L 2752.74,  417.92  L 2752.74,  418.51  L 2753.11,  418.95  L 2753.69,  419.05  L 2754.19,  418.76  L 2754.39,  418.22  L 2754.19,  417.67  L 2753.69,  417.38  L 2753.11,  417.48  L 2753.54,  418.22 " style="stroke-width: 0.85 ;&st7; " /><path d=" M 2750.22,  418.22  L 2757.02,  418.22 " style="stroke-width: 0.85 ;&st7; " /><path d=" M 2750.22,  452.21  L 2757.02,  452.21 " style="stroke-width: 0.85 ;&st7; " /><path d=" M 2685.55,  141.37  L 2682.72,  138.53  L 2682.72,  142.78  L 2685.55,  145.62  L 2688.38,  142.78  L 2688.38,  138.53  L 2685.55,  141.37 " style="stroke-width: 0.28 ;&st9;" /><path d=" M 2672.80,   86.77  L 2672.80,  129.26  L 2698.30,  129.26  L 2698.30,   86.77  L 2672.80,   86.77 " style="stroke-width: 1.42 ;&st7; " /><path d=" M 2681.30,  196.69  L 2685.55,  200.94  L 2689.80,  196.69 " style="stroke-width: 1.42 ;&st7; " /><path d=" M 2689.80,  200.09  L 2685.55,  204.33  L 2681.30,  200.09 " style="stroke-width: 1.42 ;&st7; " /><path d=" M 2777.84,  434.21  L 2777.57,  434.68  L 2777.48,  435.21  L 2777.57,  435.75  L 2777.84,  436.22  L 2778.26,  436.56  L 2778.76,  436.75  L 2779.31,  436.75  L 2779.81,  436.56  L 2780.23,  436.22  L 2780.50,  435.75  L 2780.59,  435.21  L 2780.50,  434.68  L 2780.23,  434.21  L 2779.81,  433.86  L 2779.31,  433.68  L 2778.76,  433.68  L 2778.26,  433.86  L 2777.84,  434.21  L 2778.24,  434.92  L 2778.24,  435.50  L 2778.61,  435.95  L 2779.18,  436.05  L 2779.69,  435.76  L 2779.88,  435.21  L 2779.69,  434.67  L 2779.18,  434.38  L 2778.61,  434.48  L 2779.03,  435.21 " style="stroke-width: 0.85 ;&st7; " /><path d=" M 2777.84,  468.20  L 2777.57,  468.67  L 2777.48,  469.21  L 2777.57,  469.74  L 2777.84,  470.21  L 2778.26,  470.56  L 2778.76,  470.74  L 2779.31,  470.74  L 2779.81,  470.56  L 2780.23,  470.21  L 2780.50,  469.74  L 2780.59,  469.21  L 2780.50,  468.67  L 2780.23,  468.20  L 2779.81,  467.86  L 2779.31,  467.67  L 2778.76,  467.67  L 2778.26,  467.86  L 2777.84,  468.20  L 2778.24,  468.92  L 2778.24,  469.50  L 2778.61,  469.94  L 2779.18,  470.04  L 2779.69,  469.75  L 2779.88,  469.21  L 2779.69,  468.66  L 2779.18,  468.37  L 2778.61,  468.47  L 2779.03,  469.21 " style="stroke-width: 0.85 ;&st7; " /><path d=" M 2855.52,  248.24  L 2849.86,  239.75  L 2861.19,  239.75  L 2855.52,  248.24 " style="stroke-width: 0.28 ;&st9;" /><path d=" M 2868.26,  238.58  L 2865.92,  241.62  L 2864.45,  239.08  L 2868.26,  238.58  L 2866.97,  239.32  L 2865.99,  240.60  L 2865.37,  239.53  L 2866.97,  239.32  L 2866.33,  239.69  L 2866.02,  240.09  L 2865.82,  239.76  L 2866.33,  239.69 " style="stroke-width: 0.85 ;&st7; " /><path d=" M 2870.26,  242.05  L 2867.92,  245.09  L 2866.46,  242.55  L 2870.26,  242.05  L 2868.97,  242.79  L 2867.99,  244.07  L 2867.37,  243.00  L 2868.97,  242.79  L 2868.33,  243.16  L 2868.02,  243.56  L 2867.83,  243.23  L 2868.33,  243.16 " style="stroke-width: 0.85 ;&st7; " /><path d=" M 2855.52,  282.24  L 2855.52,  273.74  L 2852.69,  272.32  L 2858.35,  269.49  L 2852.69,  266.66  L 2858.35,  263.82  L 2852.69,  260.99  L 2858.35,  258.16  L 2855.52,  256.74  L 2855.52,  222.75 " style="stroke-width: 0.85 ;&st7; " /><path d=" M 2855.52,  282.24  L 2847.02,  287.90 " style="stroke-width: 0.85 ;&st7; " /><path d=" M 2855.52,  299.24  L 2853.39,  296.05  L 2851.76,  298.49  L 2855.52,  299.24  L 2854.29,  298.41  L 2853.39,  297.07  L 2852.70,  298.10  L 2854.29,  298.41  L 2853.67,  298.00  L 2853.39,  297.58  L 2853.17,  297.90  L 2853.67,  298.00 " style="stroke-width: 0.85 ;&st7; " /><path d=" M 2855.52,  299.24  L 2855.52,  310.57 " style="stroke-width: 0.85 ;&st7; " /><path d=" M 2847.02,  310.57  L 2864.02,  310.57 " style="stroke-width: 0.85 ;&st7; " /><path d=" M 2995.75,  247.68  L 3000.00,  251.93  L 3004.25,  247.68 " style="stroke-width: 1.42 ;&st7; " /><path d=" M 3004.25,  251.08  L 3000.00,  255.33  L 2995.75,  251.08 " style="stroke-width: 1.42 ;&st7; " /><path d=" M 2851.27,  313.40  L 2859.77,  313.40 " style="stroke-width: 0.85 ;&st7; " /><path d=" M 2998.80,  196.25  L 2998.53,  196.72  L 2998.44,  197.25  L 2998.53,  197.79  L 2998.80,  198.26  L 2999.22,  198.60  L 2999.73,  198.79  L 3000.27,  198.79  L 3000.78,  198.60  L 3001.19,  198.26  L 3001.46,  197.79  L 3001.56,  197.25  L 3001.46,  196.72  L 3001.19,  196.25  L 3000.78,  195.90  L 3000.27,  195.72  L 2999.73,  195.72  L 2999.22,  195.90  L 2998.80,  196.25  L 2999.20,  196.96  L 2999.20,  197.54  L 2999.57,  197.99  L 3000.14,  198.09  L 3000.65,  197.80  L 3000.85,  197.25  L 3000.65,  196.71  L 3000.14,  196.42  L 2999.57,  196.52  L 3000.00,  197.25 " style="stroke-width: 0.85 ;&st7; " /><path d=" M 2852.69,  316.23  L 2858.35,  316.23 " style="stroke-width: 0.85 ;&st7; " /><path d=" M 2854.11,  319.07  L 2856.94,  319.07 " style="stroke-width: 0.85 ;&st7; " /><path d=" M 2852.20,  222.75  L 2859.00,  222.75 " style="stroke-width: 0.85 ;&st7; " /><path d=" M 2854.33,  221.75  L 2854.06,  222.22  L 2853.96,  222.75  L 2854.06,  223.28  L 2854.33,  223.75  L 2854.74,  224.10  L 2855.25,  224.28  L 2855.79,  224.28  L 2856.30,  224.10  L 2856.71,  223.75  L 2856.99,  223.28  L 2857.08,  222.75  L 2856.99,  222.22  L 2856.71,  221.75  L 2856.30,  221.40  L 2855.79,  221.21  L 2855.25,  221.21  L 2854.74,  221.40  L 2854.33,  221.75  L 2854.72,  222.46  L 2854.72,  223.04  L 2855.10,  223.48  L 2855.67,  223.58  L 2856.17,  223.30  L 2856.37,  222.75  L 2856.17,  222.20  L 2855.67,  221.91  L 2855.10,  222.01  L 2855.52,  222.75 " style="stroke-width: 0.85 ;&st7; " /><path d=" M 2779.03,  367.22  L 2753.54,  367.22  L 2753.54,  350.23 " style="stroke-width: 0.85 ;&st7; " /><path d=" M 2752.35,  349.22  L 2752.07,  349.69  L 2751.98,  350.23  L 2752.07,  350.76  L 2752.35,  351.23  L 2752.76,  351.58  L 2753.27,  351.76  L 2753.81,  351.76  L 2754.32,  351.58  L 2754.73,  351.23  L 2755.00,  350.76  L 2755.10,  350.23  L 2755.00,  349.69  L 2754.73,  349.22  L 2754.32,  348.88  L 2753.81,  348.69  L 2753.27,  348.69  L 2752.76,  348.88  L 2752.35,  349.22  L 2752.74,  349.94  L 2752.74,  350.52  L 2753.11,  350.96  L 2753.69,  351.06  L 2754.19,  350.77  L 2754.39,  350.23  L 2754.19,  349.68  L 2753.69,  349.39  L 2753.11,  349.49  L 2753.54,  350.23 " style="stroke-width: 0.85 ;&st7; " /><path d=" M 2750.22,  350.23  L 2757.02,  350.23 " style="stroke-width: 0.85 ;&st7; " /><path d=" M 2777.84,  366.22  L 2777.57,  366.69  L 2777.48,  367.22  L 2777.57,  367.76  L 2777.84,  368.23  L 2778.26,  368.57  L 2778.76,  368.76  L 2779.31,  368.76  L 2779.81,  368.57  L 2780.23,  368.23  L 2780.50,  367.76  L 2780.59,  367.22  L 2780.50,  366.69  L 2780.23,  366.22  L 2779.81,  365.88  L 2779.31,  365.69  L 2778.76,  365.69  L 2778.26,  365.88  L 2777.84,  366.22  L 2778.24,  366.93  L 2778.24,  367.52  L 2778.61,  367.96  L 2779.18,  368.06  L 2779.69,  367.77  L 2779.88,  367.22  L 2779.69,  366.68  L 2779.18,  366.39  L 2778.61,  366.49  L 2779.03,  367.22 " style="stroke-width: 0.85 ;&st7; " /><path d=" M 2786.97,  395.93  L 2784.83,  399.11  L 2783.21,  396.67  L 2786.97,  395.93  L 2785.73,  396.75  L 2784.84,  398.09  L 2784.15,  397.07  L 2785.73,  396.75  L 2785.12,  397.16  L 2784.84,  397.58  L 2784.62,  397.26  L 2785.12,  397.16 " style="stroke-width: 0.85 ;&st7; " /><path d=" M 2906.51,  409.72  L 2906.51,  418.22  L 2889.52,  418.22 " style="stroke-width: 0.85 ;&st7; " /><path d=" M 2888.32,  417.21  L 2888.05,  417.68  L 2887.96,  418.22  L 2888.05,  418.75  L 2888.32,  419.22  L 2888.74,  419.56  L 2889.24,  419.75  L 2889.79,  419.75  L 2890.30,  419.56  L 2890.71,  419.22  L 2890.98,  418.75  L 2891.07,  418.22  L 2890.98,  417.68  L 2890.71,  417.21  L 2890.30,  416.87  L 2889.79,  416.68  L 2889.24,  416.68  L 2888.74,  416.87  L 2888.32,  417.21  L 2888.72,  417.92  L 2888.72,  418.51  L 2889.09,  418.95  L 2889.66,  419.05  L 2890.17,  418.76  L 2890.37,  418.22  L 2890.17,  417.67  L 2889.66,  417.38  L 2889.09,  417.48  L 2889.52,  418.22 " style="stroke-width: 0.85 ;&st7; " /><path d=" M 2906.51,  375.72  L 2906.51,  350.23 " style="stroke-width: 0.85 ;&st7; " /><path d=" M 2915.01,  409.72  L 2915.01,  375.72  L 2881.02,  375.72  L 2881.02,  409.72  L 2915.01,  409.72 " style="stroke-width: 1.42 ;&st7; " /><path d=" M 2881.02,  429.55  L 2898.01,  429.55 " style="stroke-width: 0.85 ;&st7; " /><path d=" M 2885.27,  432.38  L 2893.77,  432.38 " style="stroke-width: 0.85 ;&st7; " /><path d=" M 2886.68,  435.21  L 2892.35,  435.21 " style="stroke-width: 0.85 ;&st7; " /><path d=" M 2888.10,  438.05  L 2890.93,  438.05 " style="stroke-width: 0.85 ;&st7; " /><path d=" M 2889.52,  409.72  L 2889.52,  429.55 " style="stroke-width: 0.85 ;&st7; " /><path d=" M 2889.52,  375.72  L 2889.52,  350.23 " style="stroke-width: 0.85 ;&st7; " /><path d=" M 2808.78,  704.33  L 2817.28,  704.33 " style="stroke-width: 0.85 ;&st7; " /><path d=" M 2813.03,  697.25  L 2813.03,  701.50 " style="stroke-width: 0.85 ;&st7; " /><path d=" M 2804.53,  701.50  L 2821.53,  701.50 " style="stroke-width: 0.85 ;&st7; " /><path d=" M 2811.61,  710.00  L 2814.45,  710.00 " style="stroke-width: 0.85 ;&st7; " /><path d=" M 2810.20,  707.17  L 2815.86,  707.17 " style="stroke-width: 0.85 ;&st7; " /><path d=" M 2817.28,  614.25  L 2813.03,  610.00  L 2808.78,  614.25 " style="stroke-width: 1.42 ;&st7; " /><path d=" M 2817.28,  610.85  L 2813.03,  606.60  L 2808.78,  610.85 " style="stroke-width: 1.42 ;&st7; " /><path d=" M 2847.02,  290.74  L 2830.03,  290.74  L 2830.03,  324.73 " style="stroke-width: 0.85 ;&st7; " /><path d=" M 2511.61,   74.31  C 2511.61    71.80  2509.58    69.77  2507.08    69.77 " style="stroke-width: 1.42 ;&st7; " /><path d=" M 2507.08,   69.77  C 2504.58    69.77  2502.55    71.80  2502.55    74.31 " style="stroke-width: 1.42 ;&st7; " /><path d=" M 2502.55,   74.31  C 2502.55    76.81  2504.58    78.84  2507.08    78.84 " style="stroke-width: 1.42 ;&st7; " /><path d=" M 2507.08,   78.84  C 2509.58    78.84  2511.61    76.81  2511.61    74.31 " style="stroke-width: 1.42 ;&st7; " /><path d=" M 2997.87,  120.77  C 2995.53   120.77  2993.62   122.67  2993.62   125.01 " style="stroke-width: 1.42 ;&st7; " /><path d=" M 2993.62,  125.01  C 2993.62   127.36  2995.53   129.26  2997.87   129.26 " style="stroke-width: 1.42 ;&st7; " /><path d=" M 2685.55,   98.10  C 2682.81    99.72  2681.90   103.24  2683.51   105.98 " style="stroke-width: 1.42 ;&st7; " /><path d=" M 2683.51,  105.98  C 2684.03   106.86  2684.67   107.50  2685.55   108.02 " style="stroke-width: 1.42 ;&st7; " /><path d=" M 2685.55,  117.93  C 2688.29   116.32  2689.20   112.79  2687.59   110.05 " style="stroke-width: 1.42 ;&st7; " /><path d=" M 2687.59,  110.05  C 2687.07   109.17  2686.43   108.54  2685.55   108.02 " style="stroke-width: 1.42 ;&st7; " /><path d=" M 2686.97,   96.69  C 2686.97    95.90  2686.33    95.27  2685.55    95.27 " style="stroke-width: 0.85 ;&st7; " /><path d=" M 2685.55,   95.27  C 2684.77    95.27  2684.13    95.90  2684.13    96.69 " style="stroke-width: 0.85 ;&st7; " /><path d=" M 2684.13,   96.69  C 2684.13    97.47  2684.77    98.10  2685.55    98.10 " style="stroke-width: 0.85 ;&st7; " /><path d=" M 2685.55,   98.10  C 2686.33    98.10  2686.97    97.47  2686.97    96.69 " style="stroke-width: 0.85 ;&st7; " /><path d=" M 2686.97,  119.35  C 2686.97   118.57  2686.33   117.93  2685.55   117.93 " style="stroke-width: 0.85 ;&st7; " /><path d=" M 2685.55,  117.93  C 2684.77   117.93  2684.13   118.57  2684.13   119.35 " style="stroke-width: 0.85 ;&st7; " /><path d=" M 2684.13,  119.35  C 2684.13   120.13  2684.77   120.77  2685.55   120.77 " style="stroke-width: 0.85 ;&st7; " /><path d=" M 2685.55,  120.77  C 2686.33   120.77  2686.97   120.13  2686.97   119.35 " style="stroke-width: 0.85 ;&st7; " /><path d=" M 2683.43,  146.26  C 2681.08   146.26  2679.18   148.16  2679.18   150.51 " style="stroke-width: 1.42 ;&st7; " /><path d=" M 2679.18,  150.51  C 2679.18   152.86  2681.08   154.76  2683.43   154.76 " style="stroke-width: 1.42 ;&st7; " /><path d=" M 2687.68,  154.76  C 2690.02   154.76  2691.93   152.86  2691.93   150.51 " style="stroke-width: 1.42 ;&st7; " /><path d=" M 2691.93,  150.51  C 2691.93   148.16  2690.02   146.26  2687.68   146.26 " style="stroke-width: 1.42 ;&st7; " /><path d=" M 2508.50,  370.06  C 2508.50   369.27  2507.86   368.64  2507.08   368.64 " style="stroke-width: 0.85 ;&st7; " /><path d=" M 2507.08,  368.64  C 2506.30   368.64  2505.66   369.27  2505.66   370.06 " style="stroke-width: 0.85 ;&st7; " /><path d=" M 2505.66,  370.06  C 2505.66   370.84  2506.30   371.47  2507.08   371.47 " style="stroke-width: 0.85 ;&st7; " /><path d=" M 2507.08,  371.47  C 2507.86   371.47  2508.50   370.84  2508.50   370.06 " style="stroke-width: 0.85 ;&st7; " /><path d=" M 2508.50,  347.39  C 2508.50   346.61  2507.86   345.98  2507.08   345.98 " style="stroke-width: 0.85 ;&st7; " /><path d=" M 2507.08,  345.98  C 2506.30   345.98  2505.66   346.61  2505.66   347.39 " style="stroke-width: 0.85 ;&st7; " /><path d=" M 2505.66,  347.39  C 2505.66   348.18  2506.30   348.81  2507.08   348.81 " style="stroke-width: 0.85 ;&st7; " /><path d=" M 2507.08,  348.81  C 2507.86   348.81  2508.50   348.18  2508.50   347.39 " style="stroke-width: 0.85 ;&st7; " /><path d=" M 2890.93,  381.39  C 2890.93   380.61  2890.30   379.97  2889.52   379.97 " style="stroke-width: 0.85 ;&st7; " /><path d=" M 2889.52,  379.97  C 2888.73   379.97  2888.10   380.61  2888.10   381.39 " style="stroke-width: 0.85 ;&st7; " /><path d=" M 2888.10,  381.39  C 2888.10   382.17  2888.73   382.80  2889.52   382.80 " style="stroke-width: 0.85 ;&st7; " /><path d=" M 2889.52,  382.80  C 2890.30   382.80  2890.93   382.17  2890.93   381.39 " style="stroke-width: 0.85 ;&st7; " /><path d=" M 2890.93,  404.05  C 2890.93   403.27  2890.30   402.63  2889.52   402.63 " style="stroke-width: 0.85 ;&st7; " /><path d=" M 2889.52,  402.63  C 2888.73   402.63  2888.10   403.27  2888.10   404.05 " style="stroke-width: 0.85 ;&st7; " /><path d=" M 2888.10,  404.05  C 2888.10   404.83  2888.73   405.47  2889.52   405.47 " style="stroke-width: 0.85 ;&st7; " /><path d=" M 2889.52,  405.47  C 2890.30   405.47  2890.93   404.83  2890.93   404.05 " style="stroke-width: 0.85 ;&st7; " /><path d=" M 2907.93,  381.39  C 2907.93   380.61  2907.30   379.97  2906.51   379.97 " style="stroke-width: 0.85 ;&st7; " /><path d=" M 2906.51,  379.97  C 2905.73   379.97  2905.10   380.61  2905.10   381.39 " style="stroke-width: 0.85 ;&st7; " /><path d=" M 2905.10,  381.39  C 2905.10   382.17  2905.73   382.80  2906.51   382.80 " style="stroke-width: 0.85 ;&st7; " /><path d=" M 2906.51,  382.80  C 2907.30   382.80  2907.93   382.17  2907.93   381.39 " style="stroke-width: 0.85 ;&st7; " /><path d=" M 2907.93,  404.05  C 2907.93   403.27  2907.30   402.63  2906.51   402.63 " style="stroke-width: 0.85 ;&st7; " /><path d=" M 2906.51,  402.63  C 2905.73   402.63  2905.10   403.27  2905.10   404.05 " style="stroke-width: 0.85 ;&st7; " /><path d=" M 2905.10,  404.05  C 2905.10   404.83  2905.73   405.47  2906.51   405.47 " style="stroke-width: 0.85 ;&st7; " /><path d=" M 2906.51,  405.47  C 2907.30   405.47  2907.93   404.83  2907.93   404.05 " style="stroke-width: 0.85 ;&st7; " /><text style="&st18;" transform="matrix(&st16;  2623.54  16.48 )">I12(A),I13(B)</text><text ewd:textID="28" style="&st18;" transform="matrix(&st16;  2623.54  23.58 )">ECU de la carrocería principal</text><text style="&st18;" transform="matrix(&st16;  2742.52  194.95 )">K3</text><text ewd:textID="29" style="&st18;" transform="matrix(&st16;  2742.52  202.05 )">Conjunto del interruptor principal de la red con multiplexación LH</text><text ewd:textID="13" style="&st18;" transform="matrix(&st16;  2824.63  339.45 )">Circuito de control</text><text style="&st18;" transform="matrix(&st16;  2749.23  346.53 )">5V</text><text style="&st18;" transform="matrix(&st16;  2849.62  219.33 )">12V</text><text style="&st18;" transform="matrix(&st16;  2747.64  414.52 )">12V</text><text style="&st18;" transform="matrix(&st16;  2749.2  448.51 )">+B</text><text style="&st18;" transform="matrix(&st16;  2771.54  482.51 )">B</text><text style="&st18;" transform="matrix(&st16;  2915.12  482.51 )">LIN1</text><text style="&st18;" transform="matrix(&st16;  2794.8  482.51 )">GND</text><text style="&st18;" transform="matrix(&st16;  2769.84  494.4 )">11</text><text style="&st18;" transform="matrix(&st16;  2803.06  494.4 )">12</text><text style="&st18;" transform="matrix(&st16;  2922.04  494.4 )">17</text><text ewd:textID="16" style="&st18;" transform="matrix(&st17; 2865.39 409.04)">Interruptor de <tspan dy="6" x="0">bloqueo de </tspan><tspan x="0" dy="6" style="&st18;">la puerta</tspan></text><text style="&st18;" transform="matrix(&st17;  2809.33  525.0 )">BR</text><text style="&st18;" transform="matrix(&st16;  2795.04  602.9 )">13</text><text style="&st18;" transform="matrix(&st17;  2809.34  638.38 )">W-B</text><text style="&st18;" transform="matrix(&st17;  2809.34  578.89 )">W-B</text><text style="&st18;" transform="matrix(&st17;  2820.67  580.44 )">(LHD)</text><text style="&st18;" transform="matrix(&st17;  2820.67  529.45 )">(LHD)</text><text style="&st18;" transform="matrix(&st17;  2820.67  639.93 )">(LHD)</text><text style="&st18;" transform="matrix(&st16;  2724.69  525.0 )">W</text><text style="&st18;" transform="matrix(&st16;  2718.79  536.33 )">(LHD)</text><text style="&st18;" transform="matrix(&st16;  2963.67  525.0 )">P</text><text style="&st18;" transform="matrix(&st16;  2956.75  536.33 )">(LHD)</text><text style="&st18;" transform="matrix(&st17;  2514.72  293.05 )">(*1 *7)</text><text style="&st18;" transform="matrix(&st17;  2514.72  415.51 )">(*1)</text><text style="&st18;" transform="matrix(&st17;  2514.72  165.57 )">(*1 *7)</text><text ewd:textID="37" style="&st18;" transform="matrix(&st17;  2530.3  378.25 )">Conjunto del interruptor de advertencia de desbloqueo</text><text style="&st18;" transform="matrix(&st17;  2523.19  378.25 )">I33</text><text style="&st18;" transform="matrix(&st17;  2503.39  284.99 )">G</text><text style="&st18;" transform="matrix(&st17;  2503.39  414.52 )">BR</text><text style="&st18;" transform="matrix(&st16;  2501.07  338.04 )">1</text><text style="&st18;" transform="matrix(&st16;  2500.29  383.92 )">2</text><text style="&st18;" transform="matrix(&st17;  2514.72  568.57 )">(RHD *1)</text><text style="&st18;" transform="matrix(&st17;  2503.39  561.89 )">W-B</text><text style="&st18;" transform="matrix(&st17;  2554.38  561.89 )">W-B</text><text style="&st18;" transform="matrix(&st17;  2565.71  568.07 )">(LHD *1)</text><text style="&st18;" transform="matrix(&st16;  2504.75  76.28 )">B</text><text style="&st18;" transform="matrix(&st16;  2500.29  239.44 )">3</text><text style="&st18;" transform="matrix(&st16;  2500.29  210.56 )">2</text><text style="&st18;" transform="matrix(&st17;  2503.39  157.51 )">G</text><text ewd:textID="24" style="&st18;" transform="matrix(&st17;  2530.3  233.77 )">Conector de unión</text><text style="&st18;" transform="matrix(&st17;  2523.19  233.77 )">I124</text><text style="&st18;" transform="matrix(&st16;  2990.03  77.97 )">16</text><text style="&st18;" transform="matrix(&st16;  2992.58  66.08 )">LIN2</text><text style="&st18;" transform="matrix(&st16;  2995.69  126.98 )">3B</text><text style="&st18;" transform="matrix(&st16;  2983.35  126.98 )">30</text><text style="&st18;" transform="matrix(&st17;  2996.3  169.84 )">P</text><text style="&st18;" transform="matrix(&st16;  2993.21  213.94 )">9</text><text style="&st18;" transform="matrix(&st16;  2993.21  185.06 )">7</text><text style="&st18;" transform="matrix(&st16;  2702.86  104.33 )">10A <tspan dy="6" x="0">ECU-B </tspan><tspan dy="6" x="0">NO.2</tspan></text><text style="&st18;" transform="matrix(&st16;  2681.24  152.48 )">3B</text><text style="&st18;" transform="matrix(&st16;  2668.91  152.48 )">29</text><text style="&st18;" transform="matrix(&st16;  2676.44  83.07 )">(BAT)</text><text style="&st18;" transform="matrix(&st17;  2681.86  182.59 )">V</text><text style="&st18;" transform="matrix(&st16;  2667.56  211.97 )">10</text><text style="&st18;" transform="matrix(&st16;  2678.76  137.46 )">2</text><text style="&st18;" transform="matrix(&st16;  2982.01  262.96 )">14</text><text style="&st18;" transform="matrix(&st17;  2681.86  294.09 )">W</text><text style="&st18;" transform="matrix(&st17;  2996.3  233.58 )">P</text><text style="&st18;" transform="matrix(&st17;  2996.3  293.07 )">P</text><text style="&st18;" transform="matrix(&st17;  2693.19  299.99 )">(LHD)</text><text style="&st18;" transform="matrix(&st17;  2693.19  189.51 )">(LHD)</text></svg>