﻿<?xml version="1.0" encoding="utf-8"?>
<!DOCTYPE svg PUBLIC "-//W3C//DTD SVG 1.0//EN" "http://www.w3.org/TR/2001/REC-SVG-20010904/DTD/svg10.dtd"[
	<!ENTITY ns_flows "http://ns.adobe.com/Flows/1.0/">
	<!ENTITY ns_svg "http://www.w3.org/2000/svg">
	<!ENTITY ns_xlink "http://www.w3.org/1999/xlink">
	<!ENTITY st0 "font-size:7px;font-family:'MS-PGothic';adobe-font-script:japanese;">
	<!ENTITY st1 "font-size:6px;font-family:'ArialMT';">
	<!-- White fill  -->
	<!ENTITY st2 "fill:#FFFFFF;stroke:#000000; stroke-width:1.41;stroke-linecap:round;stroke-linejoin:round;">
	<!-- Yellow fill  -->
	<!ENTITY st3 "fill:#FFFFCC;stroke:#FFFFCC; stroke-width:0.1;stroke-linecap:round;stroke-linejoin:round;">
	<!-- Gray fill  -->
	<!ENTITY st4 "fill:#CCCCCC;stroke:#CCCCCC; stroke-width:0.1;stroke-linecap:round;stroke-linejoin:round;">
	<!-- Light-blue fill -->
	<!ENTITY st5 "fill:#CCECF4;stroke:#000000; stroke-width:1.133;stroke-linecap:round;stroke-linejoin:round;">
	<!ENTITY st6 "fill:none;stroke-linecap:butt; stroke-linejoin:round;">
	<!ENTITY st7 "fill:none;stroke:#000000;stroke-linecap:round;stroke-linejoin:round;">
	<!ENTITY st8 "enable-background:new    ;">
	<!-- Black fill -->
	<!ENTITY st9 "fill:#000000;stroke:#000000; stroke-linecap:round;stroke-linejoin:round;">
	<!-- SRS note   -->
	<!ENTITY st10 "font-size:9px;font-family:'ArialMT';">
	<!ENTITY st11 "font-size:9px;font-family:'Svg Symbol';">
	<!ENTITY st12 "font-size:6px;font-family:'Svg Symbol';">
	<!ENTITY st13 "fill:none;stroke:#ff0000;stroke-linecap:round;stroke-linejoin:round;">
	<!-- Yellow fill  -->
	<!ENTITY st14 "fill:#FFFF00;stroke:#FFFF00; stroke-width:0.1;stroke-linecap:round;stroke-linejoin:round;">
	<!ENTITY st15 "font-size:6px;font-family:'MS-PGothic';adobe-font-script:japanese;">
	<!ENTITY st16 "1.00 0.00 0.00 1.00">
	<!ENTITY st17 "0.00 -1.00 1.00 0.00">
	<!ENTITY st18 "font-size:6px;font-family:'Arial';">
	<!ENTITY st19 "font-size:9px;font-family:'Arial';">
	<!ENTITY st20 "font-size:6px;font-family:'MS-PGothic','MS PGothic';adobe-font-script:japanese;">
	<!ENTITY st21 "font-size:7px;font-family:'MS-PGothic','MS PGothic';adobe-font-script:japanese;">
	<!ATTLIST svg
		xmlns:ewd CDATA #FIXED "http://shcl.co.jp/ewd"
		xmlns:a CDATA #FIXED "http://ns.adobe.com/AdobeSVGViewerExtensions/3.0/"
		ewd:ver CDATA #IMPLIED
	>
	<!ATTLIST a
		ewd:lineID CDATA #IMPLIED
		ewd:groupID CDATA #IMPLIED
		ewd:figtype CDATA #IMPLIED
		ewd:code CDATA #IMPLIED
		ewd:figID CDATA #IMPLIED
		ewd:pinNo CDATA #IMPLIED
		ewd:comment CDATA #IMPLIED >
	<!ATTLIST g
		ewd:lineID CDATA #IMPLIED
		ewd:groupID CDATA #IMPLIED
		ewd:figtype CDATA #IMPLIED
		ewd:code CDATA #IMPLIED
		ewd:figID CDATA #IMPLIED
		ewd:pinNo CDATA #IMPLIED
		ewd:comment CDATA #IMPLIED >
	<!ATTLIST text
		ewd:textID CDATA #IMPLIED
		ewd:horAlign CDATA #IMPLIED >
	<!ATTLIST title
		ewd:textID CDATA #IMPLIED >
]>
<!-- Generator: Shintec Hozumi YS   -->
<svg onload="call_execInitLoadProc_svg('system')" style="overflow:visible;  enable-background:new 0 0 9315.152 710.000" viewBox="0 0 9322.944 710.000" height="710.000" width="9322.944" xml:space="preserve" ewd:ver="L2.1.2.6" xmlns="&ns_svg;" xmlns:ewd="http://shcl.co.jp/ewd" xmlns:a="http://ns.adobe.com/AdobeSVGViewerExtensions/3.0/" xmlns:xlink="&ns_xlink;">
<path d=" M 9076.48,  375.72  L 9076.48,  503.20 " style="stroke-width: 0.85 ;&st7; " /><path d=" M 9042.49,  392.72  L 9042.49,  375.72 " style="stroke-width: 0.85 ;&st7; " /><path d=" M 9025.49,  409.72  L 9059.48,  409.72  L 9059.48,  392.72  L 9025.49,  392.72  L 9025.49,  409.72 " style="stroke-width: 1.42 ;&st7; " /><path d=" M 9008.49,  350.23  L 9025.49,  350.23 " style="stroke-width: 0.85 ;&st7; " /><path d=" M 9025.49,  358.73  L 9008.49,  358.73 " style="stroke-width: 0.85 ;&st7; " /><path d=" M 9008.49,  367.22  L 9025.49,  367.22 " style="stroke-width: 0.85 ;&st7; " /><path d=" M 9130.30,  324.73  L 9198.29,  324.73  L 9198.29,  290.74  L 9130.30,  290.74  L 9130.30,  324.73 " style="stroke-width: 1.42 ;&st7; " /><path d=" M 9138.80,  324.73  L 9138.80,  341.73 " style="stroke-width: 0.85 ;&st7; " /><path d=" M 9147.30,  324.73  L 9147.30,  341.73 " style="stroke-width: 0.85 ;&st7; " /><path d=" M 9155.80,  324.73  L 9155.80,  341.73 " style="stroke-width: 0.85 ;&st7; " /><path d=" M 9164.30,  324.73  L 9164.30,  341.73 " style="stroke-width: 0.85 ;&st7; " /><path d=" M 9172.80,  324.73  L 9172.80,  341.73 " style="stroke-width: 0.85 ;&st7; " /><path d=" M 9181.30,  324.73  L 9181.30,  341.73 " style="stroke-width: 0.85 ;&st7; " /><path d=" M 9189.79,  324.73  L 9189.79,  341.73 " style="stroke-width: 0.85 ;&st7; " /><path d=" M 9271.95,  256.74  L 9271.95,  239.75  L 9229.45,  239.75  L 9229.45,  272.32 " style="stroke-width: 0.85 ;&st7; " /><path d=" M 9228.04,  285.07  L 9230.87,  285.07 " style="stroke-width: 0.85 ;&st7; " /><path d=" M 9226.62,  282.24  L 9232.29,  282.24 " style="stroke-width: 0.85 ;&st7; " /><path d=" M 9225.20,  279.41  L 9233.70,  279.41 " style="stroke-width: 0.85 ;&st7; " /><path d=" M 9220.96,  276.57  L 9237.95,  276.57 " style="stroke-width: 0.85 ;&st7; " /><path d=" M 9229.45,  272.32  L 9229.45,  276.57 " style="stroke-width: 0.85 ;&st7; " /><path d=" M 9271.95,  307.73  L 9271.95,  290.74 " style="stroke-width: 0.85 ;&st7; " /><path d=" M 9254.95,  324.73  L 9288.94,  324.73  L 9288.94,  307.73  L 9254.95,  307.73  L 9254.95,  324.73 " style="stroke-width: 1.42 ;&st7; " /><path d=" M 9271.95,  324.73  L 9271.95,  341.73 " style="stroke-width: 0.85 ;&st7; " /><path d=" M 9025.49,  375.72  L 9288.94,  375.72  L 9288.94,  341.73  L 9025.49,  341.73  L 9025.49,  375.72 " style="stroke-width: 1.42 ;&st7; " /><path d=" M 9127.47,  477.71  L 9178.46,  477.71  L 9178.46,  460.71  L 9127.47,  460.71  L 9127.47,  477.71 " style="stroke-width: 1.42 ;&st7; " /><path d=" M 9135.97,  375.72  L 9135.97,  460.71 " style="stroke-width: 0.85 ;&st7; " /><path d=" M 9169.96,  375.72  L 9169.96,  460.71 " style="stroke-width: 0.85 ;&st7; " /><path d=" M 9135.97,  477.71  L 9135.97,  520.20 " style="stroke-width: 0.85 ;&st7; " /><path d=" M 9169.96,  477.71  L 9169.96,  520.20 " style="stroke-width: 0.85 ;&st7; " /><path d=" M 9101.98,  375.72  L 9101.98,  469.21 " style="stroke-width: 0.85 ;&st7; " /><path d=" M 9100.78,  468.20  L 9100.51,  468.67  L 9100.42,  469.21  L 9100.51,  469.74  L 9100.78,  470.21  L 9101.20,  470.56  L 9101.71,  470.74  L 9102.24,  470.74  L 9102.75,  470.56  L 9103.17,  470.21  L 9103.44,  469.74  L 9103.53,  469.21  L 9103.44,  468.67  L 9103.17,  468.20  L 9102.75,  467.86  L 9102.24,  467.67  L 9101.71,  467.67  L 9101.20,  467.86  L 9100.78,  468.20  L 9101.18,  468.92  L 9101.18,  469.50  L 9101.55,  469.94  L 9102.12,  470.04  L 9102.63,  469.75  L 9102.83,  469.21  L 9102.63,  468.66  L 9102.12,  468.37  L 9101.55,  468.47  L 9101.98,  469.21 " style="stroke-width: 0.85 ;&st7; " /><path d=" M 9288.95,  273.74  C 9288.95   264.35  9281.34   256.74  9271.95   256.74 " style="stroke-width: 1.42 ;&st7; " /><path d=" M 9271.95,  256.74  C 9262.56   256.74  9254.95   264.35  9254.95   273.74 " style="stroke-width: 1.42 ;&st7; " /><path d=" M 9254.95,  273.74  C 9254.95   283.13  9262.56   290.74  9271.95   290.74 " style="stroke-width: 1.42 ;&st7; " /><path d=" M 9271.95,  290.74  C 9281.34   290.74  9288.95   283.13  9288.95   273.74 " style="stroke-width: 1.42 ;&st7; " /><path d=" M 9140.51,  524.73  C 9140.51   522.23  9138.48   520.20  9135.97   520.20 " style="stroke-width: 1.42 ;&st7; " /><path d=" M 9135.97,  520.20  C 9133.47   520.20  9131.44   522.23  9131.44   524.73 " style="stroke-width: 1.42 ;&st7; " /><path d=" M 9131.44,  524.73  C 9131.44   527.23  9133.47   529.26  9135.97   529.26 " style="stroke-width: 1.42 ;&st7; " /><path d=" M 9135.97,  529.26  C 9138.48   529.26  9140.51   527.23  9140.51   524.73 " style="stroke-width: 1.42 ;&st7; " /><path d=" M 9174.50,  524.73  C 9174.50   522.23  9172.47   520.20  9169.97   520.20 " style="stroke-width: 1.42 ;&st7; " /><path d=" M 9169.97,  520.20  C 9167.46   520.20  9165.44   522.23  9165.44   524.73 " style="stroke-width: 1.42 ;&st7; " /><path d=" M 9165.44,  524.73  C 9165.44   527.23  9167.46   529.26  9169.97   529.26 " style="stroke-width: 1.42 ;&st7; " /><path d=" M 9169.97,  529.26  C 9172.47   529.26  9174.50   527.23  9174.50   524.73 " style="stroke-width: 1.42 ;&st7; " /><text style="&st18;" transform="matrix(&st17;  9132.28  573.66 )">R</text><text style="&st18;" transform="matrix(&st17;  9166.27  574.55 )">W</text><text style="&st18;" transform="matrix(&st16;  9133.64  526.7 )">B</text><text style="&st18;" transform="matrix(&st16;  9121.92  526.7 )">16</text><text style="&st18;" transform="matrix(&st16;  9138.81  516.51 )">CANH</text><text style="&st18;" transform="matrix(&st16;  9167.64  526.7 )">B</text><text style="&st18;" transform="matrix(&st16;  9155.91  526.7 )">15</text><text style="&st18;" transform="matrix(&st16;  9172.8  516.51 )">CANL</text><text style="&st18;" transform="matrix(&st16;  9056.96  194.95 )">I18(B)</text><text ewd:textID="13" style="&st18;" transform="matrix(&st16;  9056.96  202.05 )">Conjunto del panel de instrumentos</text><text ewd:textID="8" style="&st18;" transform="matrix(&st16; 9258.93 275.71)">Zumbador</text><text style="&st18;" transform="matrix(&st16;  9267.82  318.2 )">I/F</text><text ewd:textID="16" style="&st18;" transform="matrix(&st16; 9148.89 306.88)">Controlador<tspan dy="6" x="0"> de pantalla</tspan></text><text style="&st18;" transform="matrix(&st16;  9038.36  403.19 )">I/F</text><text style="&st18;" transform="matrix(&st16;  9154.19  360.69 )">CPU</text><text style="&st18;" transform="matrix(&st16;  9140.4  471.18 )">CAN I/F</text></svg>