﻿<?xml version="1.0" encoding="utf-8"?>
<!DOCTYPE svg PUBLIC "-//W3C//DTD SVG 1.0//EN" "http://www.w3.org/TR/2001/REC-SVG-20010904/DTD/svg10.dtd"[
	<!ENTITY ns_flows "http://ns.adobe.com/Flows/1.0/">
	<!ENTITY ns_svg "http://www.w3.org/2000/svg">
	<!ENTITY ns_xlink "http://www.w3.org/1999/xlink">
	<!ENTITY st0 "font-size:7px;font-family:'MS-PGothic';adobe-font-script:japanese;">
	<!ENTITY st1 "font-size:6px;font-family:'ArialMT';">
	<!-- White fill  -->
	<!ENTITY st2 "fill:#FFFFFF;stroke:#000000; stroke-width:1.41;stroke-linecap:round;stroke-linejoin:round;">
	<!-- Yellow fill  -->
	<!ENTITY st3 "fill:#FFFFCC;stroke:#FFFFCC; stroke-width:0.1;stroke-linecap:round;stroke-linejoin:round;">
	<!-- Gray fill  -->
	<!ENTITY st4 "fill:#CCCCCC;stroke:#CCCCCC; stroke-width:0.1;stroke-linecap:round;stroke-linejoin:round;">
	<!-- Light-blue fill -->
	<!ENTITY st5 "fill:#CCECF4;stroke:#000000; stroke-width:1.133;stroke-linecap:round;stroke-linejoin:round;">
	<!ENTITY st6 "fill:none;stroke-linecap:butt; stroke-linejoin:round;">
	<!ENTITY st7 "fill:none;stroke:#000000;stroke-linecap:round;stroke-linejoin:round;">
	<!ENTITY st8 "enable-background:new    ;">
	<!-- Black fill -->
	<!ENTITY st9 "fill:#000000;stroke:#000000; stroke-linecap:round;stroke-linejoin:round;">
	<!-- SRS note   -->
	<!ENTITY st10 "font-size:9px;font-family:'ArialMT';">
	<!ENTITY st11 "font-size:9px;font-family:'Svg Symbol';">
	<!ENTITY st12 "font-size:6px;font-family:'Svg Symbol';">
	<!ENTITY st13 "fill:none;stroke:#ff0000;stroke-linecap:round;stroke-linejoin:round;">
	<!-- Yellow fill  -->
	<!ENTITY st14 "fill:#FFFF00;stroke:#FFFF00; stroke-width:0.1;stroke-linecap:round;stroke-linejoin:round;">
	<!ENTITY st15 "font-size:6px;font-family:'MS-PGothic';adobe-font-script:japanese;">
	<!ENTITY st16 "1.00 0.00 0.00 1.00">
	<!ENTITY st17 "0.00 -1.00 1.00 0.00">
	<!ENTITY st18 "font-size:6px;font-family:'Arial';">
	<!ENTITY st19 "font-size:9px;font-family:'Arial';">
	<!ENTITY st20 "font-size:6px;font-family:'MS-PGothic','MS PGothic';adobe-font-script:japanese;">
	<!ENTITY st21 "font-size:7px;font-family:'MS-PGothic','MS PGothic';adobe-font-script:japanese;">
	<!ATTLIST svg
		xmlns:ewd CDATA #FIXED "http://shcl.co.jp/ewd"
		xmlns:a CDATA #FIXED "http://ns.adobe.com/AdobeSVGViewerExtensions/3.0/"
		ewd:ver CDATA #IMPLIED
	>
	<!ATTLIST a
		ewd:lineID CDATA #IMPLIED
		ewd:groupID CDATA #IMPLIED
		ewd:figtype CDATA #IMPLIED
		ewd:code CDATA #IMPLIED
		ewd:figID CDATA #IMPLIED
		ewd:pinNo CDATA #IMPLIED
		ewd:comment CDATA #IMPLIED >
	<!ATTLIST g
		ewd:lineID CDATA #IMPLIED
		ewd:groupID CDATA #IMPLIED
		ewd:figtype CDATA #IMPLIED
		ewd:code CDATA #IMPLIED
		ewd:figID CDATA #IMPLIED
		ewd:pinNo CDATA #IMPLIED
		ewd:comment CDATA #IMPLIED >
	<!ATTLIST text
		ewd:textID CDATA #IMPLIED
		ewd:horAlign CDATA #IMPLIED >
	<!ATTLIST title
		ewd:textID CDATA #IMPLIED >
]>
<!-- Generator: Shintec Hozumi YS   -->
<svg onload="call_execInitLoadProc_svg('system')" style="overflow:visible;  enable-background:new 0 0 9315.152 710.000" viewBox="0 0 9322.944 710.000" height="710.000" width="9322.944" xml:space="preserve" ewd:ver="L2.1.2.6" xmlns="&ns_svg;" xmlns:ewd="http://shcl.co.jp/ewd" xmlns:a="http://ns.adobe.com/AdobeSVGViewerExtensions/3.0/" xmlns:xlink="&ns_xlink;">
<path d=" M 4606.23,  154.76  L 4504.25,  154.76  L 4504.25,  120.77  L 4606.23,  120.77  L 4606.23,  358.73  L 4793.20,  358.73  L 4804.18,  369.71 " style="stroke:#000000;stroke-width: 0.85 ;&st7;stroke-dasharray:3, 1.5;" /><path d=" M 4810.20,  154.76  L 4810.20,  120.77  L 4716.71,  120.77  L 4716.71,  154.76  L 4810.20,  154.76  L 4810.20,  367.22 " style="stroke:#000000;stroke-width: 0.85 ;&st7;stroke-dasharray:3, 1.5;" /><path d=" M 4861.19,  154.76  L 4971.67,  154.76  L 4971.67,  120.77  L 4861.19,  120.77  L 4861.19,  375.72  L 4818.69,  375.72 " style="stroke:#000000;stroke-width: 0.85 ;&st7;stroke-dasharray:3, 1.5;" /><path d=" M 4521.24,  248.24  L 4521.24,  256.74 " style="stroke-width: 1.42 ;&st7; " /><path d=" M 4538.24,  248.24  L 4538.24,  256.74 " style="stroke-width: 1.42 ;&st7; " /><path d=" M 4521.24,  265.24  L 4521.24,  256.74 " style="stroke-width: 1.42 ;&st7; " /><path d=" M 4538.24,  265.24  L 4538.24,  256.74 " style="stroke-width: 1.42 ;&st7; " /><path d=" M 4529.74,  239.75  L 4529.74,  248.24 " style="stroke-width: 0.85 ;&st7; " /><path d=" M 4529.74,  265.24  L 4529.74,  273.74 " style="stroke-width: 0.85 ;&st7; " /><path d=" M 4725.21,  284.36  L 4725.21,  273.74 " style="stroke-width: 0.85 ;&st7; " /><path d=" M 4729.46,  297.11  L 4720.96,  297.11 " style="stroke-width: 0.85 ;&st7; " /><path d=" M 4729.46,  284.36  L 4720.96,  284.36 " style="stroke-width: 0.85 ;&st7; " /><path d=" M 4725.21,  307.73  L 4725.21,  297.11 " style="stroke-width: 0.85 ;&st7; " /><path d=" M 4997.17,  557.72  L 5002.14,  562.69 " style="stroke-width: 1.42 ;&st7; " /><path d=" M 5002.14,  545.69  L 4997.17,  550.67 " style="stroke-width: 1.42 ;&st7; " /><path d=" M 4806.67,  367.22  L 4801.70,  372.20 " style="stroke-width: 1.42 ;&st7; " /><path d=" M 4813.72,  384.22  L 4818.69,  379.25 " style="stroke-width: 1.42 ;&st7; " /><path d=" M 4801.70,  379.25  L 4806.67,  384.22 " style="stroke-width: 1.42 ;&st7; " /><path d=" M 4818.69,  372.20  L 4813.72,  367.22 " style="stroke-width: 1.42 ;&st7; " /><path d=" M 4801.70,  443.71  L 4801.70,  460.71  L 4818.69,  460.71  L 4818.69,  443.71  L 4801.70,  443.71 " style="stroke-width: 1.42 ;&st7; " /><path d=" M 4810.19,  443.71  L 4810.19,  460.71 " style="stroke-width: 0.85 ;&st7; " /><path d=" M 4809.00,  153.76  L 4808.73,  154.23  L 4808.64,  154.76  L 4808.73,  155.29  L 4809.00,  155.76  L 4809.42,  156.11  L 4809.93,  156.30  L 4810.46,  156.30  L 4810.97,  156.11  L 4811.39,  155.76  L 4811.66,  155.29  L 4811.75,  154.76  L 4811.66,  154.23  L 4811.39,  153.76  L 4810.97,  153.41  L 4810.46,  153.22  L 4809.93,  153.22  L 4809.42,  153.41  L 4809.00,  153.76  L 4809.40,  154.47  L 4809.40,  155.05  L 4809.77,  155.50  L 4810.34,  155.60  L 4810.85,  155.31  L 4811.04,  154.76  L 4810.85,  154.21  L 4810.34,  153.92  L 4809.77,  154.02  L 4810.19,  154.76 " style="stroke-width: 0.85 ;&st7; " /><path d=" M 4742.21,  265.24  L 4742.21,  282.24  L 4745.04,  283.65  L 4739.37,  286.49  L 4745.04,  289.32  L 4739.37,  292.15  L 4745.04,  294.99  L 4739.37,  297.82  L 4742.21,  299.24  L 4742.21,  316.23 " style="stroke-width: 0.85 ;&st7; " /><path d=" M 4605.04,  153.76  L 4604.76,  154.23  L 4604.67,  154.76  L 4604.76,  155.29  L 4605.04,  155.76  L 4605.45,  156.11  L 4605.96,  156.30  L 4606.50,  156.30  L 4607.01,  156.11  L 4607.42,  155.76  L 4607.69,  155.29  L 4607.79,  154.76  L 4607.69,  154.23  L 4607.42,  153.76  L 4607.01,  153.41  L 4606.50,  153.22  L 4605.96,  153.22  L 4605.45,  153.41  L 4605.04,  153.76  L 4605.43,  154.47  L 4605.43,  155.05  L 4605.80,  155.50  L 4606.38,  155.60  L 4606.88,  155.31  L 4607.08,  154.76  L 4606.88,  154.21  L 4606.38,  153.92  L 4605.80,  154.02  L 4606.23,  154.76 " style="stroke-width: 0.85 ;&st7; " /><path d=" M 4716.71,  265.24  L 4716.71,  316.23  L 4750.70,  316.23  L 4750.70,  265.24  L 4716.71,  265.24 " style="stroke-width: 1.42 ;&st7; " /><path d=" M 4741.01,  272.74  L 4740.74,  273.21  L 4740.65,  273.74  L 4740.74,  274.27  L 4741.01,  274.74  L 4741.43,  275.09  L 4741.94,  275.28  L 4742.47,  275.28  L 4742.98,  275.09  L 4743.40,  274.74  L 4743.67,  274.27  L 4743.76,  273.74  L 4743.67,  273.21  L 4743.40,  272.74  L 4742.98,  272.39  L 4742.47,  272.20  L 4741.94,  272.20  L 4741.43,  272.39  L 4741.01,  272.74  L 4741.41,  273.45  L 4741.41,  274.03  L 4741.78,  274.48  L 4742.35,  274.58  L 4742.86,  274.29  L 4743.06,  273.74  L 4742.86,  273.19  L 4742.35,  272.90  L 4741.78,  273.00  L 4742.21,  273.74 " style="stroke-width: 0.85 ;&st7; " /><path d=" M 4729.46,  288.61  L 4720.96,  288.61  L 4720.96,  292.86  L 4729.46,  292.86  L 4729.46,  288.61 " style="stroke-width: 0.85 ;&st7; " /><path d=" M 4725.21,  273.74  L 4742.21,  273.74 " style="stroke-width: 0.85 ;&st7; " /><path d=" M 4725.21,  307.73  L 4742.21,  307.73 " style="stroke-width: 0.85 ;&st7; " /><path d=" M 4741.01,  306.73  L 4740.74,  307.20  L 4740.65,  307.73  L 4740.74,  308.27  L 4741.01,  308.74  L 4741.43,  309.08  L 4741.94,  309.27  L 4742.47,  309.27  L 4742.98,  309.08  L 4743.40,  308.74  L 4743.67,  308.27  L 4743.76,  307.73  L 4743.67,  307.20  L 4743.40,  306.73  L 4742.98,  306.39  L 4742.47,  306.20  L 4741.94,  306.20  L 4741.43,  306.39  L 4741.01,  306.73  L 4741.41,  307.44  L 4741.41,  308.03  L 4741.78,  308.47  L 4742.35,  308.57  L 4742.86,  308.28  L 4743.06,  307.73  L 4742.86,  307.19  L 4742.35,  306.90  L 4741.78,  307.00  L 4742.21,  307.73 " style="stroke-width: 0.85 ;&st7; " /><path d=" M 4859.99,  153.76  L 4859.72,  154.23  L 4859.63,  154.76  L 4859.72,  155.29  L 4859.99,  155.76  L 4860.41,  156.11  L 4860.92,  156.30  L 4861.45,  156.30  L 4861.96,  156.11  L 4862.38,  155.76  L 4862.65,  155.29  L 4862.74,  154.76  L 4862.65,  154.23  L 4862.38,  153.76  L 4861.96,  153.41  L 4861.45,  153.22  L 4860.92,  153.22  L 4860.41,  153.41  L 4859.99,  153.76  L 4860.39,  154.47  L 4860.39,  155.05  L 4860.76,  155.50  L 4861.33,  155.60  L 4861.84,  155.31  L 4862.04,  154.76  L 4861.84,  154.21  L 4861.33,  153.92  L 4860.76,  154.02  L 4861.19,  154.76 " style="stroke-width: 0.85 ;&st7; " /><path d=" M 4886.68,  265.24  L 4920.68,  265.24  L 4920.68,  299.24  L 4886.68,  299.24  L 4886.68,  265.24 " style="stroke-width: 1.42 ;&st7; " /><path d=" M 4568.27,   91.30  C 4568.27    88.80  4566.24    86.77  4563.74    86.77 " style="stroke-width: 1.42 ;&st7; " /><path d=" M 4563.74,   86.77  C 4561.23    86.77  4559.20    88.80  4559.20    91.30 " style="stroke-width: 1.42 ;&st7; " /><path d=" M 4559.20,   91.30  C 4559.20    93.81  4561.23    95.84  4563.74    95.84 " style="stroke-width: 1.42 ;&st7; " /><path d=" M 4563.74,   95.84  C 4566.24    95.84  4568.27    93.81  4568.27    91.30 " style="stroke-width: 1.42 ;&st7; " /><path d=" M 4534.28,   91.30  C 4534.28    88.80  4532.25    86.77  4529.74    86.77 " style="stroke-width: 1.42 ;&st7; " /><path d=" M 4529.74,   86.77  C 4527.24    86.77  4525.21    88.80  4525.21    91.30 " style="stroke-width: 1.42 ;&st7; " /><path d=" M 4525.21,   91.30  C 4525.21    93.81  4527.24    95.84  4529.74    95.84 " style="stroke-width: 1.42 ;&st7; " /><path d=" M 4529.74,   95.84  C 4532.25    95.84  4534.28    93.81  4534.28    91.30 " style="stroke-width: 1.42 ;&st7; " /><path d=" M 4746.74,   91.30  C 4746.74    88.80  4744.71    86.77  4742.21    86.77 " style="stroke-width: 1.42 ;&st7; " /><path d=" M 4742.21,   86.77  C 4739.70    86.77  4737.68    88.80  4737.68    91.30 " style="stroke-width: 1.42 ;&st7; " /><path d=" M 4737.68,   91.30  C 4737.68    93.81  4739.70    95.84  4742.21    95.84 " style="stroke-width: 1.42 ;&st7; " /><path d=" M 4742.21,   95.84  C 4744.71    95.84  4746.74    93.81  4746.74    91.30 " style="stroke-width: 1.42 ;&st7; " /><path d=" M 4814.73,  439.18  C 4814.73   436.68  4812.70   434.65  4810.20   434.65 " style="stroke-width: 1.42 ;&st7; " /><path d=" M 4810.20,  434.65  C 4807.69   434.65  4805.66   436.68  4805.66   439.18 " style="stroke-width: 1.42 ;&st7; " /><path d=" M 4805.66,  439.18  C 4805.66   441.68  4807.69   443.71  4810.20   443.71 " style="stroke-width: 1.42 ;&st7; " /><path d=" M 4810.20,  443.71  C 4812.70   443.71  4814.73   441.68  4814.73   439.18 " style="stroke-width: 1.42 ;&st7; " /><path d=" M 4789.23,   91.30  C 4789.23    88.80  4787.20    86.77  4784.70    86.77 " style="stroke-width: 1.42 ;&st7; " /><path d=" M 4784.70,   86.77  C 4782.20    86.77  4780.17    88.80  4780.17    91.30 " style="stroke-width: 1.42 ;&st7; " /><path d=" M 4780.17,   91.30  C 4780.17    93.81  4782.20    95.84  4784.70    95.84 " style="stroke-width: 1.42 ;&st7; " /><path d=" M 4784.70,   95.84  C 4787.20    95.84  4789.23    93.81  4789.23    91.30 " style="stroke-width: 1.42 ;&st7; " /><path d=" M 4814.73,  465.24  C 4814.73   462.74  4812.70   460.71  4810.20   460.71 " style="stroke-width: 1.42 ;&st7; " /><path d=" M 4810.20,  460.71  C 4807.69   460.71  4805.66   462.74  4805.66   465.24 " style="stroke-width: 1.42 ;&st7; " /><path d=" M 4805.66,  465.24  C 4805.66   467.74  4807.69   469.77  4810.20   469.77 " style="stroke-width: 1.42 ;&st7; " /><path d=" M 4810.20,  469.77  C 4812.70   469.77  4814.73   467.74  4814.73   465.24 " style="stroke-width: 1.42 ;&st7; " /><path d=" M 4538.24,  248.24  C 4538.24   243.55  4534.44   239.75  4529.74   239.75 " style="stroke-width: 1.42 ;&st7; " /><path d=" M 4529.74,  239.75  C 4525.05   239.75  4521.24   243.55  4521.24   248.24 " style="stroke-width: 1.42 ;&st7; " /><path d=" M 4521.24,  265.24  C 4521.24   269.93  4525.05   273.74  4529.74   273.74 " style="stroke-width: 1.42 ;&st7; " /><path d=" M 4529.74,  273.74  C 4534.44   273.74  4538.24   269.93  4538.24   265.24 " style="stroke-width: 1.42 ;&st7; " /><path d=" M 4527.21,  254.26  C 4528.58   255.66  4530.82   255.68  4532.22   254.31 " style="stroke-width: 0.85 ;&st7; " /><path d=" M 4532.22,  254.31  C 4533.62   252.95  4533.64   250.70  4532.27   249.31 " style="stroke-width: 0.85 ;&st7; " /><path d=" M 4532.27,  249.31  C 4531.58   248.60  4530.73   248.24  4529.74   248.24 " style="stroke-width: 0.85 ;&st7; " /><path d=" M 4527.21,  259.22  C 4528.58   260.62  4530.82   260.64  4532.22   259.27 " style="stroke-width: 0.85 ;&st7; " /><path d=" M 4532.22,  259.27  C 4533.62   257.90  4533.64   255.66  4532.27   254.26 " style="stroke-width: 0.85 ;&st7; " /><path d=" M 4532.27,  254.26  C 4530.90   252.87  4528.66   252.84  4527.26   254.21 " style="stroke-width: 0.85 ;&st7; " /><path d=" M 4527.26,  254.21  C 4527.25   254.23  4527.23   254.25  4527.21   254.26 " style="stroke-width: 0.85 ;&st7; " /><path d=" M 4529.74,  265.24  C 4531.70   265.24  4533.28   263.66  4533.28   261.70 " style="stroke-width: 0.85 ;&st7; " /><path d=" M 4533.28,  261.70  C 4533.28   259.74  4531.70   258.16  4529.74   258.16 " style="stroke-width: 0.85 ;&st7; " /><path d=" M 4529.74,  258.16  C 4528.75   258.16  4527.91   258.51  4527.21   259.22 " style="stroke-width: 0.85 ;&st7; " /><path d=" M 4908.21,   91.30  C 4908.21    88.80  4906.18    86.77  4903.68    86.77 " style="stroke-width: 1.42 ;&st7; " /><path d=" M 4903.68,   86.77  C 4901.18    86.77  4899.15    88.80  4899.15    91.30 " style="stroke-width: 1.42 ;&st7; " /><path d=" M 4899.15,   91.30  C 4899.15    93.81  4901.18    95.84  4903.68    95.84 " style="stroke-width: 1.42 ;&st7; " /><path d=" M 4903.68,   95.84  C 4906.18    95.84  4908.21    93.81  4908.21    91.30 " style="stroke-width: 1.42 ;&st7; " /><path d=" M 4959.20,   91.30  C 4959.20    88.80  4957.18    86.77  4954.67    86.77 " style="stroke-width: 1.42 ;&st7; " /><path d=" M 4954.67,   86.77  C 4952.17    86.77  4950.14    88.80  4950.14    91.30 " style="stroke-width: 1.42 ;&st7; " /><path d=" M 4950.14,   91.30  C 4950.14    93.81  4952.17    95.84  4954.67    95.84 " style="stroke-width: 1.42 ;&st7; " /><path d=" M 4954.67,   95.84  C 4957.18    95.84  4959.20    93.81  4959.20    91.30 " style="stroke-width: 1.42 ;&st7; " /><text style="&st18;" transform="matrix(&st16;  4527.41  93.27 )">B</text><text style="&st18;" transform="matrix(&st16;  4511.73  93.27 )">122</text><text style="&st18;" transform="matrix(&st16;  4987.65  93.27 )">104</text><text ewd:textID="1" style="&st18;" transform="matrix(&st17;  4500.55  153.76 )">(Protegido)</text><text style="&st18;" transform="matrix(&st17;  4560.04  141.12 )">W</text><text style="&st18;" transform="matrix(&st17;  4526.05  140.09 )">B</text><text style="&st18;" transform="matrix(&st16;  4556.92  83.07 )">NE-</text><text style="&st18;" transform="matrix(&st16;  4522.93  83.07 )">NE+</text><text ewd:textID="34" style="&st18;" transform="matrix(&st17;  4833.41  463.23 )">Conector<tspan dy="6" x="0"> de unión</tspan></text><text style="&st18;" transform="matrix(&st17;  4826.31  463.23 )">E76(B)</text><text style="&st18;" transform="matrix(&st16;  4807.87  441.15 )">B</text><text style="&st18;" transform="matrix(&st16;  4799.32  441.15 )">6</text><text ewd:textID="1" style="&st18;" transform="matrix(&st17;  4713.02  153.76 )">(Protegido)</text><text style="&st18;" transform="matrix(&st17;  4781.0  140.52 )">G</text><text style="&st18;" transform="matrix(&st17;  4738.51  140.23 )">R</text><text style="&st18;" transform="matrix(&st16;  4733.48  83.07 )">KNK1</text><text style="&st18;" transform="matrix(&st16;  4724.97  93.27 )">110</text><text style="&st18;" transform="matrix(&st16;  4775.23  83.07 )">EKNK</text><text style="&st18;" transform="matrix(&st17;  4806.5  406.02 )">BR</text><text ewd:textID="1" style="&st18;" transform="matrix(&st16; 4678.22 355.03)">(Protegido)</text><text ewd:textID="1" style="&st18;" transform="matrix(&st16; 4678.22 372.03)">(Protegido)</text><text style="&st18;" transform="matrix(&st16;  4561.41  93.27 )">B</text><text style="&st18;" transform="matrix(&st16;  4546.5  93.27 )">121</text><text style="&st18;" transform="matrix(&st16;  4739.88  93.27 )">B</text><text style="&st18;" transform="matrix(&st16;  4782.37  93.27 )">B</text><text style="&st18;" transform="matrix(&st16;  4768.24  93.27 )">111</text><text style="&st18;" transform="matrix(&st16;  4523.73  236.06 )">1</text><text style="&st18;" transform="matrix(&st16;  4807.87  467.21 )">B</text><text style="&st18;" transform="matrix(&st16;  4799.32  467.21 )">7</text><text style="&st18;" transform="matrix(&st17;  4806.5  508.0 )">BR</text><text ewd:textID="1" style="&st18;" transform="matrix(&st16; 4627.22 355.03)">(Protegido)</text><text ewd:textID="1" style="&st18;" transform="matrix(&st16; 4627.22 372.03)">(Protegido)</text><text ewd:textID="10" style="&st18;" transform="matrix(&st17;  4935.4  301.76 )">Sensor de posición del árbol de levas</text><text style="&st18;" transform="matrix(&st17;  4928.29  301.76 )">E82</text><text style="&st18;" transform="matrix(&st16;  4901.35  93.27 )">B</text><text style="&st18;" transform="matrix(&st16;  4888.85  93.27 )">99</text><text style="&st18;" transform="matrix(&st16;  4952.34  93.27 )">B</text><text style="&st18;" transform="matrix(&st16;  4939.84  93.27 )">98</text><text style="&st18;" transform="matrix(&st16;  4892.66  24.98 )">A74(A),E83(B)</text><text style="&st18;" transform="matrix(&st16;  4892.66  32.08 )">ECM</text><text ewd:textID="1" style="&st18;" transform="matrix(&st16; 4678.22 389.02)">(Protegido)</text><text ewd:textID="1" style="&st18;" transform="matrix(&st16; 4627.22 389.02)">(Protegido)</text><text style="&st18;" transform="matrix(&st16;  4522.95  281.93 )">2</text><text ewd:textID="14" style="&st18;" transform="matrix(&st17;  4552.96  276.26 )">Sensor de la posición del cigüeñal</text><text style="&st18;" transform="matrix(&st17;  4545.85  276.26 )">E84</text><text style="&st18;" transform="matrix(&st17;  4758.32  318.76 )">E81</text><text ewd:textID="35" style="&st18;" transform="matrix(&st17;  4765.42  318.76 )">Sensor de control de<tspan dy="6" x="0"> golpeteo (banco 1)</tspan></text><text style="&st18;" transform="matrix(&st16;  4735.42  261.55 )">2</text><text style="&st18;" transform="matrix(&st16;  4736.2  324.43 )">1</text><text ewd:textID="1" style="&st18;" transform="matrix(&st17;  4857.49  153.76 )">(Protegido)</text><text style="&st18;" transform="matrix(&st16;  4896.93  83.07 )">G2+</text><text style="&st18;" transform="matrix(&st16;  4947.93  83.07 )">G2-</text><text style="&st18;" transform="matrix(&st17;  4899.98  140.09 )">Y</text><text style="&st18;" transform="matrix(&st17;  4950.98  139.74 )">L</text><text style="&st18;" transform="matrix(&st16;  4898.95  272.88 )">G2</text><text style="&st18;" transform="matrix(&st16;  4896.89  307.43 )">2</text><text style="&st18;" transform="matrix(&st16;  4897.67  261.55 )">1</text><text style="&st18;" transform="matrix(&st16;  4898.91  295.54 )">G-</text></svg>