﻿<?xml version="1.0" encoding="utf-8"?>
<!DOCTYPE svg PUBLIC "-//W3C//DTD SVG 1.0//EN" "http://www.w3.org/TR/2001/REC-SVG-20010904/DTD/svg10.dtd"[
	<!ENTITY ns_flows "http://ns.adobe.com/Flows/1.0/">
	<!ENTITY ns_svg "http://www.w3.org/2000/svg">
	<!ENTITY ns_xlink "http://www.w3.org/1999/xlink">
	<!ENTITY st0 "font-size:7px;font-family:'MS-PGothic';adobe-font-script:japanese;">
	<!ENTITY st1 "font-size:6px;font-family:'ArialMT';">
	<!-- White fill  -->
	<!ENTITY st2 "fill:#FFFFFF;stroke:#000000; stroke-width:1.41;stroke-linecap:round;stroke-linejoin:round;">
	<!-- Yellow fill  -->
	<!ENTITY st3 "fill:#FFFFCC;stroke:#FFFFCC; stroke-width:0.1;stroke-linecap:round;stroke-linejoin:round;">
	<!-- Gray fill  -->
	<!ENTITY st4 "fill:#CCCCCC;stroke:#CCCCCC; stroke-width:0.1;stroke-linecap:round;stroke-linejoin:round;">
	<!-- Light-blue fill -->
	<!ENTITY st5 "fill:#CCECF4;stroke:#000000; stroke-width:1.133;stroke-linecap:round;stroke-linejoin:round;">
	<!ENTITY st6 "fill:none;stroke-linecap:butt; stroke-linejoin:round;">
	<!ENTITY st7 "fill:none;stroke:#000000;stroke-linecap:round;stroke-linejoin:round;">
	<!ENTITY st8 "enable-background:new    ;">
	<!-- Black fill -->
	<!ENTITY st9 "fill:#000000;stroke:#000000; stroke-linecap:round;stroke-linejoin:round;">
	<!-- SRS note   -->
	<!ENTITY st10 "font-size:9px;font-family:'ArialMT';">
	<!ENTITY st11 "font-size:9px;font-family:'Svg Symbol';">
	<!ENTITY st12 "font-size:6px;font-family:'Svg Symbol';">
	<!ENTITY st13 "fill:none;stroke:#ff0000;stroke-linecap:round;stroke-linejoin:round;">
	<!-- Yellow fill  -->
	<!ENTITY st14 "fill:#FFFF00;stroke:#FFFF00; stroke-width:0.1;stroke-linecap:round;stroke-linejoin:round;">
	<!ENTITY st15 "font-size:6px;font-family:'MS-PGothic';adobe-font-script:japanese;">
	<!ENTITY st16 "1.00 0.00 0.00 1.00">
	<!ENTITY st17 "0.00 -1.00 1.00 0.00">
	<!ENTITY st18 "font-size:6px;font-family:'Arial';">
	<!ENTITY st19 "font-size:9px;font-family:'Arial';">
	<!ENTITY st20 "font-size:6px;font-family:'MS-PGothic','MS PGothic';adobe-font-script:japanese;">
	<!ENTITY st21 "font-size:7px;font-family:'MS-PGothic','MS PGothic';adobe-font-script:japanese;">
	<!ATTLIST svg
		xmlns:ewd CDATA #FIXED "http://shcl.co.jp/ewd"
		xmlns:a CDATA #FIXED "http://ns.adobe.com/AdobeSVGViewerExtensions/3.0/"
		ewd:ver CDATA #IMPLIED
	>
	<!ATTLIST a
		ewd:lineID CDATA #IMPLIED
		ewd:groupID CDATA #IMPLIED
		ewd:figtype CDATA #IMPLIED
		ewd:code CDATA #IMPLIED
		ewd:figID CDATA #IMPLIED
		ewd:pinNo CDATA #IMPLIED
		ewd:comment CDATA #IMPLIED >
	<!ATTLIST g
		ewd:lineID CDATA #IMPLIED
		ewd:groupID CDATA #IMPLIED
		ewd:figtype CDATA #IMPLIED
		ewd:code CDATA #IMPLIED
		ewd:figID CDATA #IMPLIED
		ewd:pinNo CDATA #IMPLIED
		ewd:comment CDATA #IMPLIED >
	<!ATTLIST text
		ewd:textID CDATA #IMPLIED
		ewd:horAlign CDATA #IMPLIED >
	<!ATTLIST title
		ewd:textID CDATA #IMPLIED >
]>
<!-- Generator: Shintec Hozumi YS   -->
<svg onload="call_execInitLoadProc_svg('system')" style="overflow:visible;  enable-background:new 0 0 9315.152 710.000" viewBox="0 0 9322.944 710.000" height="710.000" width="9322.944" xml:space="preserve" ewd:ver="L2.1.2.6" xmlns="&ns_svg;" xmlns:ewd="http://shcl.co.jp/ewd" xmlns:a="http://ns.adobe.com/AdobeSVGViewerExtensions/3.0/" xmlns:xlink="&ns_xlink;">
<path d=" M 1956.80,  418.22  L 1952.55,  418.22 " style="stroke-width: 1.42 ;&st7; " /><path d=" M 1789.67,  180.26  L 1784.70,  185.23 " style="stroke-width: 1.42 ;&st7; " /><path d=" M 1796.73,  197.25  L 1801.70,  192.28 " style="stroke-width: 1.42 ;&st7; " /><path d=" M 1784.70,  192.28  L 1789.67,  197.25 " style="stroke-width: 1.42 ;&st7; " /><path d=" M 1801.70,  185.23  L 1796.73,  180.26 " style="stroke-width: 1.42 ;&st7; " /><path d=" M 1990.79,  426.71  L 1986.54,  426.71 " style="stroke-width: 1.42 ;&st7; " /><path d=" M 1990.79,  418.22  L 1986.54,  418.22 " style="stroke-width: 1.42 ;&st7; " /><path d=" M 1931.30,  426.71  L 1927.05,  426.71 " style="stroke-width: 1.42 ;&st7; " /><path d=" M 1931.30,  418.22  L 1927.05,  418.22 " style="stroke-width: 1.42 ;&st7; " /><path d=" M 1988.67,  358.73  L 1988.67,  367.22 " style="stroke-width: 0.85 ;&st7; " /><path d=" M 1929.18,  358.73  L 1929.18,  367.22 " style="stroke-width: 0.85 ;&st7; " /><path d=" M 1905.81,  426.71  L 1901.56,  426.71 " style="stroke-width: 1.42 ;&st7; " /><path d=" M 1905.81,  418.22  L 1901.56,  418.22 " style="stroke-width: 1.42 ;&st7; " /><path d=" M 1905.81,  214.25  L 1901.56,  214.25 " style="stroke-width: 1.42 ;&st7; " /><path d=" M 1905.81,  205.75  L 1901.56,  205.75 " style="stroke-width: 1.42 ;&st7; " /><path d=" M 1931.30,  214.25  L 1927.05,  214.25 " style="stroke-width: 1.42 ;&st7; " /><path d=" M 1931.30,  205.75  L 1927.05,  205.75 " style="stroke-width: 1.42 ;&st7; " /><path d=" M 1903.68,  273.74  L 1903.68,  282.24 " style="stroke-width: 0.85 ;&st7; " /><path d=" M 1903.68,  248.24  L 1903.68,  256.74 " style="stroke-width: 0.85 ;&st7; " /><path d=" M 1929.18,  248.24  L 1929.18,  252.49 " style="stroke-width: 0.85 ;&st7; " /><path d=" M 1929.18,  282.24  L 1929.18,  277.99 " style="stroke-width: 0.85 ;&st7; " /><path d=" M 1929.18,  275.16  L 1934.84,  252.49 " style="stroke-width: 1.42 ;&st7; " /><path d=" M 1931.30,  171.76  L 1927.05,  171.76 " style="stroke-width: 1.42 ;&st7; " /><path d=" M 1931.30,  163.26  L 1927.05,  163.26 " style="stroke-width: 1.42 ;&st7; " /><path d=" M 1929.18,  137.76  L 1929.18,  163.26 " style="stroke-width: 0.85 ;&st7; " /><path d=" M 1956.80,  426.71  L 1952.55,  426.71 " style="stroke-width: 1.42 ;&st7; " /><path d=" M 1927.98,  400.22  L 1927.71,  400.69  L 1927.62,  401.22  L 1927.71,  401.75  L 1927.98,  402.22  L 1928.40,  402.57  L 1928.90,  402.75  L 1929.45,  402.75  L 1929.96,  402.57  L 1930.37,  402.22  L 1930.64,  401.75  L 1930.73,  401.22  L 1930.64,  400.69  L 1930.37,  400.22  L 1929.96,  399.87  L 1929.45,  399.68  L 1928.90,  399.68  L 1928.40,  399.87  L 1927.98,  400.22  L 1928.38,  400.93  L 1928.38,  401.51  L 1928.75,  401.95  L 1929.32,  402.05  L 1929.83,  401.77  L 1930.03,  401.22  L 1929.83,  400.67  L 1929.32,  400.38  L 1928.75,  400.48  L 1929.18,  401.22 " style="stroke-width: 0.85 ;&st7; " /><path d=" M 1987.47,  306.73  L 1987.20,  307.20  L 1987.11,  307.73  L 1987.20,  308.27  L 1987.47,  308.74  L 1987.89,  309.08  L 1988.39,  309.27  L 1988.94,  309.27  L 1989.45,  309.08  L 1989.86,  308.74  L 1990.13,  308.27  L 1990.22,  307.73  L 1990.13,  307.20  L 1989.86,  306.73  L 1989.45,  306.39  L 1988.94,  306.20  L 1988.39,  306.20  L 1987.89,  306.39  L 1987.47,  306.73  L 1987.87,  307.44  L 1987.87,  308.03  L 1988.24,  308.47  L 1988.81,  308.57  L 1989.32,  308.28  L 1989.52,  307.73  L 1989.32,  307.19  L 1988.81,  306.90  L 1988.24,  307.00  L 1988.67,  307.73 " style="stroke-width: 0.85 ;&st7; " /><path d=" M 1902.49,  230.24  L 1902.22,  230.71  L 1902.12,  231.25  L 1902.22,  231.78  L 1902.49,  232.25  L 1902.90,  232.60  L 1903.41,  232.78  L 1903.95,  232.78  L 1904.46,  232.60  L 1904.87,  232.25  L 1905.15,  231.78  L 1905.24,  231.25  L 1905.15,  230.71  L 1904.87,  230.24  L 1904.46,  229.90  L 1903.95,  229.71  L 1903.41,  229.71  L 1902.90,  229.90  L 1902.49,  230.24  L 1902.88,  230.96  L 1902.88,  231.54  L 1903.26,  231.98  L 1903.83,  232.08  L 1904.33,  231.79  L 1904.53,  231.25  L 1904.33,  230.70  L 1903.83,  230.41  L 1903.26,  230.51  L 1903.68,  231.25 " style="stroke-width: 0.85 ;&st7; " /><path d=" M 1988.67,  367.22  L 1988.67,  418.22 " style="stroke-width: 0.85 ;&st7; " /><path d=" M 1929.18,  367.22  L 1929.18,  418.22 " style="stroke-width: 0.85 ;&st7; " /><path d=" M 1988.67,  413.32  L 1985.83,  410.49  L 1985.83,  414.74  L 1988.67,  417.57  L 1991.50,  414.74  L 1991.50,  410.49  L 1988.67,  413.32 " style="stroke-width: 0.28 ;&st9;" /><path d=" M 1929.18,  413.32  L 1926.34,  410.49  L 1926.34,  414.74  L 1929.18,  417.57  L 1932.01,  414.74  L 1932.01,  410.49  L 1929.18,  413.32 " style="stroke-width: 0.28 ;&st9;" /><path d=" M 1927.98,  306.73  L 1927.71,  307.20  L 1927.62,  307.73  L 1927.71,  308.27  L 1927.98,  308.74  L 1928.40,  309.08  L 1928.90,  309.27  L 1929.45,  309.27  L 1929.96,  309.08  L 1930.37,  308.74  L 1930.64,  308.27  L 1930.73,  307.73  L 1930.64,  307.20  L 1930.37,  306.73  L 1929.96,  306.39  L 1929.45,  306.20  L 1928.90,  306.20  L 1928.40,  306.39  L 1927.98,  306.73  L 1928.38,  307.44  L 1928.38,  308.03  L 1928.75,  308.47  L 1929.32,  308.57  L 1929.83,  308.28  L 1930.03,  307.73  L 1929.83,  307.19  L 1929.32,  306.90  L 1928.75,  307.00  L 1929.18,  307.73 " style="stroke-width: 0.85 ;&st7; " /><path d=" M 1929.18,  307.73  L 1988.67,  307.73  L 1988.67,  324.73 " style="stroke-width: 0.85 ;&st7; " /><path d=" M 1929.18,  282.24  L 1929.18,  324.73 " style="stroke-width: 0.85 ;&st7; " /><path d=" M 1975.92,  324.73  L 1975.92,  367.22  L 2001.41,  367.22  L 2001.41,  324.73  L 1975.92,  324.73 " style="stroke-width: 1.42 ;&st7; " /><path d=" M 1988.67,  324.73  L 1988.67,  333.23 " style="stroke-width: 0.85 ;&st7; " /><path d=" M 1916.43,  324.73  L 1916.43,  367.22  L 1941.92,  367.22  L 1941.92,  324.73  L 1916.43,  324.73 " style="stroke-width: 1.42 ;&st7; " /><path d=" M 1929.18,  324.73  L 1929.18,  333.23 " style="stroke-width: 0.85 ;&st7; " /><path d=" M 1791.78,  710.00  L 1794.62,  710.00 " style="stroke-width: 0.85 ;&st7; " /><path d=" M 1790.37,  707.17  L 1796.03,  707.17 " style="stroke-width: 0.85 ;&st7; " /><path d=" M 1788.95,  704.33  L 1797.45,  704.33 " style="stroke-width: 0.85 ;&st7; " /><path d=" M 1784.70,  701.50  L 1801.70,  701.50 " style="stroke-width: 0.85 ;&st7; " /><path d=" M 1793.20,  697.25  L 1793.20,  701.50 " style="stroke-width: 0.85 ;&st7; " /><path d=" M 1903.68,  418.22  L 1903.68,  282.24 " style="stroke-width: 0.85 ;&st7; " /><path d=" M 1929.18,  248.24  L 1929.18,  214.25 " style="stroke-width: 0.85 ;&st7; " /><path d=" M 1903.68,  248.24  L 1903.68,  214.25 " style="stroke-width: 0.85 ;&st7; " /><path d=" M 1903.68,  413.32  L 1900.85,  410.49  L 1900.85,  414.74  L 1903.68,  417.57  L 1906.51,  414.74  L 1906.51,  410.49  L 1903.68,  413.32 " style="stroke-width: 0.28 ;&st9;" /><path d=" M 1903.68,  219.14  L 1906.51,  221.98  L 1906.51,  217.73  L 1903.68,  214.90  L 1900.85,  217.73  L 1900.85,  221.98  L 1903.68,  219.14 " style="stroke-width: 0.28 ;&st9;" /><path d=" M 1929.18,  219.14  L 1932.01,  221.98  L 1932.01,  217.73  L 1929.18,  214.90  L 1926.34,  217.73  L 1926.34,  221.98  L 1929.18,  219.14 " style="stroke-width: 0.28 ;&st9;" /><path d=" M 1937.68,  248.24  L 1895.18,  248.24  L 1895.18,  282.24  L 1937.68,  282.24  L 1937.68,  248.24 " style="stroke-width: 1.42 ;&st7; " /><path d=" M 1916.43,  103.77  L 1916.43,  146.26  L 1941.92,  146.26  L 1941.92,  103.77  L 1916.43,  103.77 " style="stroke-width: 1.42 ;&st7; " /><path d=" M 1929.18,  158.36  L 1926.34,  155.53  L 1926.34,  159.78  L 1929.18,  162.61  L 1932.01,  159.78  L 1932.01,  155.53  L 1929.18,  158.36 " style="stroke-width: 0.28 ;&st9;" /><path d=" M 2192.63,  350.23  L 2192.63,  307.73  L 1988.67,  307.73 " style="stroke-width: 0.85 ;&st7; " /><path d=" M 1929.18,  401.22  L 1954.67,  401.22  L 1954.67,  418.22 " style="stroke-width: 0.85 ;&st7; " /><path d=" M 1903.68,  299.24  L 1878.19,  299.24  L 1878.19,  282.24 " style="stroke-width: 0.85 ;&st7; " /><path d=" M 1878.19,  282.24  L 1878.19,  273.74  L 1875.35,  272.32  L 1881.02,  269.49  L 1875.35,  266.66  L 1881.02,  263.82  L 1875.35,  260.99  L 1881.02,  258.16  L 1878.19,  256.74  L 1878.19,  248.24 " style="stroke-width: 0.85 ;&st7; " /><path d=" M 1903.68,  231.25  L 2192.63,  231.25 " style="stroke-width: 0.85 ;&st7; " /><path d=" M 1902.49,  298.23  L 1902.22,  298.70  L 1902.12,  299.24  L 1902.22,  299.77  L 1902.49,  300.24  L 1902.90,  300.58  L 1903.41,  300.77  L 1903.95,  300.77  L 1904.46,  300.58  L 1904.87,  300.24  L 1905.15,  299.77  L 1905.24,  299.24  L 1905.15,  298.70  L 1904.87,  298.23  L 1904.46,  297.89  L 1903.95,  297.70  L 1903.41,  297.70  L 1902.90,  297.89  L 1902.49,  298.23  L 1902.88,  298.94  L 1902.88,  299.53  L 1903.26,  299.97  L 1903.83,  300.07  L 1904.33,  299.78  L 1904.53,  299.24  L 1904.33,  298.69  L 1903.83,  298.40  L 1903.26,  298.50  L 1903.68,  299.24 " style="stroke-width: 0.85 ;&st7; " /><path d=" M 1954.67,  413.32  L 1951.84,  410.49  L 1951.84,  414.74  L 1954.67,  417.57  L 1957.51,  414.74  L 1957.51,  410.49  L 1954.67,  413.32 " style="stroke-width: 0.28 ;&st9;" /><path d=" M 1903.68,  231.25  L 1878.19,  231.25  L 1878.19,  248.24 " style="stroke-width: 0.85 ;&st7; " /><path d=" M 1952.55,  418.22  C 1950.20   418.22  1948.30   420.12  1948.30   422.46 " style="stroke-width: 1.42 ;&st7; " /><path d=" M 1948.30,  422.46  C 1948.30   424.81  1950.20   426.71  1952.55   426.71 " style="stroke-width: 1.42 ;&st7; " /><path d=" M 1956.80,  426.71  C 1959.14   426.71  1961.05   424.81  1961.05   422.46 " style="stroke-width: 1.42 ;&st7; " /><path d=" M 1961.05,  422.46  C 1961.05   420.12  1959.14   418.22  1956.80   418.22 " style="stroke-width: 1.42 ;&st7; " /><path d=" M 1721.25,   91.30  C 1721.25    88.80  1719.22    86.77  1716.71    86.77 " style="stroke-width: 1.42 ;&st7; " /><path d=" M 1716.71,   86.77  C 1714.21    86.77  1712.18    88.80  1712.18    91.30 " style="stroke-width: 1.42 ;&st7; " /><path d=" M 1712.18,   91.30  C 1712.18    93.81  1714.21    95.84  1716.71    95.84 " style="stroke-width: 1.42 ;&st7; " /><path d=" M 1716.71,   95.84  C 1719.22    95.84  1721.25    93.81  1721.25    91.30 " style="stroke-width: 1.42 ;&st7; " /><path d=" M 1840.23,   91.30  C 1840.23    88.80  1838.20    86.77  1835.69    86.77 " style="stroke-width: 1.42 ;&st7; " /><path d=" M 1835.69,   86.77  C 1833.19    86.77  1831.16    88.80  1831.16    91.30 " style="stroke-width: 1.42 ;&st7; " /><path d=" M 1831.16,   91.30  C 1831.16    93.81  1833.19    95.84  1835.69    95.84 " style="stroke-width: 1.42 ;&st7; " /><path d=" M 1835.69,   95.84  C 1838.20    95.84  1840.23    93.81  1840.23    91.30 " style="stroke-width: 1.42 ;&st7; " /><path d=" M 1755.24,   91.30  C 1755.24    88.80  1753.21    86.77  1750.71    86.77 " style="stroke-width: 1.42 ;&st7; " /><path d=" M 1750.71,   86.77  C 1748.20    86.77  1746.17    88.80  1746.17    91.30 " style="stroke-width: 1.42 ;&st7; " /><path d=" M 1746.17,   91.30  C 1746.17    93.81  1748.20    95.84  1750.71    95.84 " style="stroke-width: 1.42 ;&st7; " /><path d=" M 1750.71,   95.84  C 1753.21    95.84  1755.24    93.81  1755.24    91.30 " style="stroke-width: 1.42 ;&st7; " /><path d=" M 1534.28,   91.30  C 1534.28    88.80  1532.25    86.77  1529.74    86.77 " style="stroke-width: 1.42 ;&st7; " /><path d=" M 1529.74,   86.77  C 1527.24    86.77  1525.21    88.80  1525.21    91.30 " style="stroke-width: 1.42 ;&st7; " /><path d=" M 1525.21,   91.30  C 1525.21    93.81  1527.24    95.84  1529.74    95.84 " style="stroke-width: 1.42 ;&st7; " /><path d=" M 1529.74,   95.84  C 1532.25    95.84  1534.28    93.81  1534.28    91.30 " style="stroke-width: 1.42 ;&st7; " /><path d=" M 1995.04,  422.46  C 1995.04   420.12  1993.14   418.22  1990.79   418.22 " style="stroke-width: 1.42 ;&st7; " /><path d=" M 1990.79,  426.71  C 1993.14   426.71  1995.04   424.81  1995.04   422.46 " style="stroke-width: 1.42 ;&st7; " /><path d=" M 1982.29,  422.46  C 1982.29   424.81  1984.20   426.71  1986.54   426.71 " style="stroke-width: 1.42 ;&st7; " /><path d=" M 1986.54,  418.22  C 1984.20   418.22  1982.29   420.12  1982.29   422.46 " style="stroke-width: 1.42 ;&st7; " /><path d=" M 1935.55,  422.46  C 1935.55   420.12  1933.65   418.22  1931.30   418.22 " style="stroke-width: 1.42 ;&st7; " /><path d=" M 1931.30,  426.71  C 1933.65   426.71  1935.55   424.81  1935.55   422.46 " style="stroke-width: 1.42 ;&st7; " /><path d=" M 1922.80,  422.46  C 1922.80   424.81  1924.71   426.71  1927.05   426.71 " style="stroke-width: 1.42 ;&st7; " /><path d=" M 1927.05,  418.22  C 1924.71   418.22  1922.80   420.12  1922.80   422.46 " style="stroke-width: 1.42 ;&st7; " /><path d=" M 1990.08,  357.31  C 1990.08   356.53  1989.45   355.89  1988.67   355.89 " style="stroke-width: 0.85 ;&st7; " /><path d=" M 1988.67,  355.89  C 1987.89   355.89  1987.25   356.53  1987.25   357.31 " style="stroke-width: 0.85 ;&st7; " /><path d=" M 1987.25,  357.31  C 1987.25   358.09  1987.89   358.73  1988.67   358.73 " style="stroke-width: 0.85 ;&st7; " /><path d=" M 1988.67,  358.73  C 1989.45   358.73  1990.08   358.09  1990.08   357.31 " style="stroke-width: 0.85 ;&st7; " /><path d=" M 1990.08,  334.65  C 1990.08   333.86  1989.45   333.23  1988.67   333.23 " style="stroke-width: 0.85 ;&st7; " /><path d=" M 1988.67,  333.23  C 1987.89   333.23  1987.25   333.86  1987.25   334.65 " style="stroke-width: 0.85 ;&st7; " /><path d=" M 1987.25,  334.65  C 1987.25   335.43  1987.89   336.06  1988.67   336.06 " style="stroke-width: 0.85 ;&st7; " /><path d=" M 1988.67,  336.06  C 1989.45   336.06  1990.08   335.43  1990.08   334.65 " style="stroke-width: 0.85 ;&st7; " /><path d=" M 1988.67,  355.89  C 1991.41   354.28  1992.32   350.75  1990.70   348.01 " style="stroke-width: 1.42 ;&st7; " /><path d=" M 1990.70,  348.01  C 1990.18   347.13  1989.55   346.50  1988.67   345.98 " style="stroke-width: 1.42 ;&st7; " /><path d=" M 1988.67,  336.06  C 1985.93   337.68  1985.02   341.20  1986.63   343.94 " style="stroke-width: 1.42 ;&st7; " /><path d=" M 1986.63,  343.94  C 1987.15   344.82  1987.79   345.46  1988.67   345.98 " style="stroke-width: 1.42 ;&st7; " /><path d=" M 1930.59,  357.31  C 1930.59   356.53  1929.96   355.89  1929.18   355.89 " style="stroke-width: 0.85 ;&st7; " /><path d=" M 1929.18,  355.89  C 1928.40   355.89  1927.76   356.53  1927.76   357.31 " style="stroke-width: 0.85 ;&st7; " /><path d=" M 1927.76,  357.31  C 1927.76   358.09  1928.40   358.73  1929.18   358.73 " style="stroke-width: 0.85 ;&st7; " /><path d=" M 1929.18,  358.73  C 1929.96   358.73  1930.59   358.09  1930.59   357.31 " style="stroke-width: 0.85 ;&st7; " /><path d=" M 1930.59,  334.65  C 1930.59   333.86  1929.96   333.23  1929.18   333.23 " style="stroke-width: 0.85 ;&st7; " /><path d=" M 1929.18,  333.23  C 1928.40   333.23  1927.76   333.86  1927.76   334.65 " style="stroke-width: 0.85 ;&st7; " /><path d=" M 1927.76,  334.65  C 1927.76   335.43  1928.40   336.06  1929.18   336.06 " style="stroke-width: 0.85 ;&st7; " /><path d=" M 1929.18,  336.06  C 1929.96   336.06  1930.59   335.43  1930.59   334.65 " style="stroke-width: 0.85 ;&st7; " /><path d=" M 1929.18,  355.89  C 1931.92   354.28  1932.83   350.75  1931.21   348.01 " style="stroke-width: 1.42 ;&st7; " /><path d=" M 1931.21,  348.01  C 1930.69   347.13  1930.06   346.50  1929.18   345.98 " style="stroke-width: 1.42 ;&st7; " /><path d=" M 1929.18,  336.06  C 1926.44   337.68  1925.53   341.20  1927.14   343.94 " style="stroke-width: 1.42 ;&st7; " /><path d=" M 1927.14,  343.94  C 1927.66   344.82  1928.30   345.46  1929.18   345.98 " style="stroke-width: 1.42 ;&st7; " /><path d=" M 1910.06,  422.46  C 1910.06   420.12  1908.15   418.22  1905.81   418.22 " style="stroke-width: 1.42 ;&st7; " /><path d=" M 1905.81,  426.71  C 1908.15   426.71  1910.06   424.81  1910.06   422.46 " style="stroke-width: 1.42 ;&st7; " /><path d=" M 1897.31,  422.46  C 1897.31   424.81  1899.21   426.71  1901.56   426.71 " style="stroke-width: 1.42 ;&st7; " /><path d=" M 1901.56,  418.22  C 1899.21   418.22  1897.31   420.12  1897.31   422.46 " style="stroke-width: 1.42 ;&st7; " /><path d=" M 1910.06,  210.00  C 1910.06   207.65  1908.15   205.75  1905.81   205.75 " style="stroke-width: 1.42 ;&st7; " /><path d=" M 1905.81,  214.25  C 1908.15   214.25  1910.06   212.35  1910.06   210.00 " style="stroke-width: 1.42 ;&st7; " /><path d=" M 1897.31,  210.00  C 1897.31   212.35  1899.21   214.25  1901.56   214.25 " style="stroke-width: 1.42 ;&st7; " /><path d=" M 1901.56,  205.75  C 1899.21   205.75  1897.31   207.65  1897.31   210.00 " style="stroke-width: 1.42 ;&st7; " /><path d=" M 1935.55,  210.00  C 1935.55   207.65  1933.65   205.75  1931.30   205.75 " style="stroke-width: 1.42 ;&st7; " /><path d=" M 1931.30,  214.25  C 1933.65   214.25  1935.55   212.35  1935.55   210.00 " style="stroke-width: 1.42 ;&st7; " /><path d=" M 1922.80,  210.00  C 1922.80   212.35  1924.71   214.25  1927.05   214.25 " style="stroke-width: 1.42 ;&st7; " /><path d=" M 1927.05,  205.75  C 1924.71   205.75  1922.80   207.65  1922.80   210.00 " style="stroke-width: 1.42 ;&st7; " /><path d=" M 1903.68,  273.74  C 1905.64   273.74  1907.22   272.15  1907.22   270.20 " style="stroke-width: 0.85 ;&st7; " /><path d=" M 1907.22,  270.20  C 1907.22   268.24  1905.64   266.66  1903.68   266.66 " style="stroke-width: 0.85 ;&st7; " /><path d=" M 1903.68,  266.66  C 1902.69   266.66  1901.85   267.01  1901.15   267.72 " style="stroke-width: 0.85 ;&st7; " /><path d=" M 1901.15,  267.72  C 1902.52   269.12  1904.76   269.14  1906.16   267.77 " style="stroke-width: 0.85 ;&st7; " /><path d=" M 1906.16,  267.77  C 1907.56   266.40  1907.58   264.16  1906.21   262.76 " style="stroke-width: 0.85 ;&st7; " /><path d=" M 1906.21,  262.76  C 1904.84   261.37  1902.60   261.34  1901.20   262.71 " style="stroke-width: 0.85 ;&st7; " /><path d=" M 1901.20,  262.71  C 1901.19   262.73  1901.17   262.74  1901.15   262.76 " style="stroke-width: 0.85 ;&st7; " /><path d=" M 1901.15,  262.76  C 1902.52   264.16  1904.76   264.18  1906.16   262.81 " style="stroke-width: 0.85 ;&st7; " /><path d=" M 1906.16,  262.81  C 1907.56   261.44  1907.58   259.20  1906.21   257.80 " style="stroke-width: 0.85 ;&st7; " /><path d=" M 1906.21,  257.80  C 1905.52   257.10  1904.67   256.74  1903.68   256.74 " style="stroke-width: 0.85 ;&st7; " /><path d=" M 1930.59,  253.91  C 1930.59   253.13  1929.96   252.49  1929.18   252.49 " style="stroke-width: 0.85 ;&st7; " /><path d=" M 1929.18,  252.49  C 1928.40   252.49  1927.76   253.13  1927.76   253.91 " style="stroke-width: 0.85 ;&st7; " /><path d=" M 1927.76,  253.91  C 1927.76   254.69  1928.40   255.33  1929.18   255.33 " style="stroke-width: 0.85 ;&st7; " /><path d=" M 1929.18,  255.33  C 1929.96   255.33  1930.59   254.69  1930.59   253.91 " style="stroke-width: 0.85 ;&st7; " /><path d=" M 1930.59,  276.57  C 1930.59   275.79  1929.96   275.16  1929.18   275.16 " style="stroke-width: 0.85 ;&st7; " /><path d=" M 1929.18,  275.16  C 1928.40   275.16  1927.76   275.79  1927.76   276.57 " style="stroke-width: 0.85 ;&st7; " /><path d=" M 1927.76,  276.57  C 1927.76   277.35  1928.40   277.99  1929.18   277.99 " style="stroke-width: 0.85 ;&st7; " /><path d=" M 1929.18,  277.99  C 1929.96   277.99  1930.59   277.35  1930.59   276.57 " style="stroke-width: 0.85 ;&st7; " /><path d=" M 1935.55,  167.51  C 1935.55   165.16  1933.65   163.26  1931.30   163.26 " style="stroke-width: 1.42 ;&st7; " /><path d=" M 1931.30,  171.76  C 1933.65   171.76  1935.55   169.85  1935.55   167.51 " style="stroke-width: 1.42 ;&st7; " /><path d=" M 1922.80,  167.51  C 1922.80   169.85  1924.71   171.76  1927.05   171.76 " style="stroke-width: 1.42 ;&st7; " /><path d=" M 1927.05,  163.26  C 1924.71   163.26  1922.80   165.16  1922.80   167.51 " style="stroke-width: 1.42 ;&st7; " /><path d=" M 1930.59,  136.35  C 1930.59   135.56  1929.96   134.93  1929.18   134.93 " style="stroke-width: 0.85 ;&st7; " /><path d=" M 1929.18,  134.93  C 1928.40   134.93  1927.76   135.56  1927.76   136.35 " style="stroke-width: 0.85 ;&st7; " /><path d=" M 1927.76,  136.35  C 1927.76   137.13  1928.40   137.76  1929.18   137.76 " style="stroke-width: 0.85 ;&st7; " /><path d=" M 1929.18,  137.76  C 1929.96   137.76  1930.59   137.13  1930.59   136.35 " style="stroke-width: 0.85 ;&st7; " /><path d=" M 1930.59,  113.68  C 1930.59   112.90  1929.96   112.27  1929.18   112.27 " style="stroke-width: 0.85 ;&st7; " /><path d=" M 1929.18,  112.27  C 1928.40   112.27  1927.76   112.90  1927.76   113.68 " style="stroke-width: 0.85 ;&st7; " /><path d=" M 1927.76,  113.68  C 1927.76   114.47  1928.40   115.10  1929.18   115.10 " style="stroke-width: 0.85 ;&st7; " /><path d=" M 1929.18,  115.10  C 1929.96   115.10  1930.59   114.47  1930.59   113.68 " style="stroke-width: 0.85 ;&st7; " /><path d=" M 1929.18,  134.93  C 1931.92   133.32  1932.83   129.79  1931.21   127.05 " style="stroke-width: 1.42 ;&st7; " /><path d=" M 1931.21,  127.05  C 1930.69   126.17  1930.06   125.53  1929.18   125.01 " style="stroke-width: 1.42 ;&st7; " /><path d=" M 1929.18,  115.10  C 1926.44   116.71  1925.53   120.24  1927.14   122.98 " style="stroke-width: 1.42 ;&st7; " /><path d=" M 1927.14,  122.98  C 1927.66   123.86  1928.30   124.49  1929.18   125.01 " style="stroke-width: 1.42 ;&st7; " /><text style="&st18;" transform="matrix(&st17;  1984.97  454.54 )">V</text><text style="&st18;" transform="matrix(&st16;  1867.36  508.0 )">P</text><text style="&st18;" transform="matrix(&st16;  1864.95  482.51 )">LG</text><text style="&st18;" transform="matrix(&st16;  1865.03  457.01 )">BE</text><text style="&st18;" transform="matrix(&st17;  1713.02  131.59 )">P</text><text style="&st18;" transform="matrix(&st16;  1712.37  83.07 )">+B</text><text style="&st18;" transform="matrix(&st17;  1747.01  134.0 )">LG</text><text style="&st18;" transform="matrix(&st16;  1744.38  83.07 )">+B2</text><text style="&st18;" transform="matrix(&st16;  1975.98  424.43 )">8</text><text style="&st18;" transform="matrix(&st16;  1984.75  424.43 )">1A</text><text style="&st18;" transform="matrix(&st16;  1913.31  424.43 )">10</text><text style="&st18;" transform="matrix(&st16;  1925.12  424.43 )">1C</text><text style="&st18;" transform="matrix(&st16;  1946.48  342.3 )">15A <tspan dy="6" x="0">EFI </tspan><tspan dy="6" x="0">NO.2</tspan></text><text style="&st18;" transform="matrix(&st17;  1925.48  191.08 )">B</text><text ewd:textID="19" style="&st18;" transform="matrix(&st16;  1940.82  264.38 )">Relé EFI<tspan dy="6" x="0"> MAIN</tspan></text><text style="&st18;" transform="matrix(&st16;  1866.33  185.06 )">W</text><text style="&st18;" transform="matrix(&st17;  1789.51  281.44 )">W-B</text><text style="&st18;" transform="matrix(&st16;  1826.01  83.07 )">MREL</text><text style="&st18;" transform="matrix(&st17;  1832.0  133.93 )">BE</text><text style="&st18;" transform="matrix(&st16;  1890.99  424.43 )">7</text><text style="&st18;" transform="matrix(&st16;  1899.62  424.43 )">1C</text><text style="&st18;" transform="matrix(&st16;  1890.99  211.97 )">2</text><text style="&st18;" transform="matrix(&st16;  1899.76  211.97 )">1E</text><text style="&st18;" transform="matrix(&st16;  1917.27  211.97 )">1</text><text style="&st18;" transform="matrix(&st16;  1925.26  211.97 )">1B</text><text style="&st18;" transform="matrix(&st16;  1920.06  100.07 )">(BAT)</text><text style="&st18;" transform="matrix(&st16;  1922.39  154.45 )">2</text><text style="&st18;" transform="matrix(&st16;  1927.59  169.48 )">1</text><text style="&st18;" transform="matrix(&st16;  1946.48  121.33 )">30A <tspan dy="6" x="0">EFI-MAIN </tspan><tspan dy="6" x="0">NO.1</tspan></text><text style="&st18;" transform="matrix(&st16;  1941.98  424.43 )">9</text><text style="&st18;" transform="matrix(&st16;  1705.84  93.27 )">2</text><text style="&st18;" transform="matrix(&st16;  1740.61  93.27 )">1</text><text style="&st18;" transform="matrix(&st16;  1748.38  93.27 )">A</text><text style="&st18;" transform="matrix(&st16;  1833.36  93.27 )">A</text><text style="&st18;" transform="matrix(&st16;  1714.38  93.27 )">A</text><text style="&st18;" transform="matrix(&st16;  1820.86  93.27 )">44</text><text style="&st18;" transform="matrix(&st16;  1950.61  424.43 )">1C</text><text style="&st18;" transform="matrix(&st16;  1807.67  24.98 )">A74(A),E83(B)</text><text style="&st18;" transform="matrix(&st16;  1807.67  32.08 )">ECM</text><text style="&st18;" transform="matrix(&st16;  1523.14  83.07 )">NT-</text><text style="&st18;" transform="matrix(&st17;  1526.05  132.62 )">W</text><text ewd:textID="49" style="&st18;" transform="matrix(&st17;  1510.47  259.27 )">Sensor de revoluciones de la<tspan dy="6" x="0"> transmisión (turbina)</tspan></text><text style="&st18;" transform="matrix(&st17;  1503.36  259.27 )">E79</text><text style="&st18;" transform="matrix(&st16;  1511.73  93.27 )">124</text><text style="&st18;" transform="matrix(&st16;  1527.41  93.27 )">B</text></svg>