﻿<?xml version="1.0" encoding="utf-8"?>
<!DOCTYPE svg PUBLIC "-//W3C//DTD SVG 1.0//EN" "http://www.w3.org/TR/2001/REC-SVG-20010904/DTD/svg10.dtd"[
	<!ENTITY ns_flows "http://ns.adobe.com/Flows/1.0/">
	<!ENTITY ns_svg "http://www.w3.org/2000/svg">
	<!ENTITY ns_xlink "http://www.w3.org/1999/xlink">
	<!ENTITY st0 "font-size:7px;font-family:'MS-PGothic';adobe-font-script:japanese;">
	<!ENTITY st1 "font-size:6px;font-family:'ArialMT';">
	<!-- White fill  -->
	<!ENTITY st2 "fill:#FFFFFF;stroke:#000000; stroke-width:1.41;stroke-linecap:round;stroke-linejoin:round;">
	<!-- Yellow fill  -->
	<!ENTITY st3 "fill:#FFFFCC;stroke:#FFFFCC; stroke-width:0.1;stroke-linecap:round;stroke-linejoin:round;">
	<!-- Gray fill  -->
	<!ENTITY st4 "fill:#CCCCCC;stroke:#CCCCCC; stroke-width:0.1;stroke-linecap:round;stroke-linejoin:round;">
	<!-- Light-blue fill -->
	<!ENTITY st5 "fill:#CCECF4;stroke:#000000; stroke-width:1.133;stroke-linecap:round;stroke-linejoin:round;">
	<!ENTITY st6 "fill:none;stroke-linecap:butt; stroke-linejoin:round;">
	<!ENTITY st7 "fill:none;stroke:#000000;stroke-linecap:round;stroke-linejoin:round;">
	<!ENTITY st8 "enable-background:new    ;">
	<!-- Black fill -->
	<!ENTITY st9 "fill:#000000;stroke:#000000; stroke-linecap:round;stroke-linejoin:round;">
	<!-- SRS note   -->
	<!ENTITY st10 "font-size:9px;font-family:'ArialMT';">
	<!ENTITY st11 "font-size:9px;font-family:'Svg Symbol';">
	<!ENTITY st12 "font-size:6px;font-family:'Svg Symbol';">
	<!ENTITY st13 "fill:none;stroke:#ff0000;stroke-linecap:round;stroke-linejoin:round;">
	<!-- Yellow fill  -->
	<!ENTITY st14 "fill:#FFFF00;stroke:#FFFF00; stroke-width:0.1;stroke-linecap:round;stroke-linejoin:round;">
	<!ENTITY st15 "font-size:6px;font-family:'MS-PGothic';adobe-font-script:japanese;">
	<!ENTITY st16 "1.00 0.00 0.00 1.00">
	<!ENTITY st17 "0.00 -1.00 1.00 0.00">
	<!ENTITY st18 "font-size:6px;font-family:'Arial';">
	<!ENTITY st19 "font-size:9px;font-family:'Arial';">
	<!ENTITY st20 "font-size:6px;font-family:'MS-PGothic','MS PGothic';adobe-font-script:japanese;">
	<!ENTITY st21 "font-size:7px;font-family:'MS-PGothic','MS PGothic';adobe-font-script:japanese;">
	<!ATTLIST svg
		xmlns:ewd CDATA #FIXED "http://shcl.co.jp/ewd"
		xmlns:a CDATA #FIXED "http://ns.adobe.com/AdobeSVGViewerExtensions/3.0/"
		ewd:ver CDATA #IMPLIED
	>
	<!ATTLIST a
		ewd:lineID CDATA #IMPLIED
		ewd:groupID CDATA #IMPLIED
		ewd:figtype CDATA #IMPLIED
		ewd:code CDATA #IMPLIED
		ewd:figID CDATA #IMPLIED
		ewd:pinNo CDATA #IMPLIED
		ewd:comment CDATA #IMPLIED >
	<!ATTLIST g
		ewd:lineID CDATA #IMPLIED
		ewd:groupID CDATA #IMPLIED
		ewd:figtype CDATA #IMPLIED
		ewd:code CDATA #IMPLIED
		ewd:figID CDATA #IMPLIED
		ewd:pinNo CDATA #IMPLIED
		ewd:comment CDATA #IMPLIED >
	<!ATTLIST text
		ewd:textID CDATA #IMPLIED
		ewd:horAlign CDATA #IMPLIED >
	<!ATTLIST title
		ewd:textID CDATA #IMPLIED >
]>
<!-- Generator: Shintec Hozumi YS   -->
<svg onload="call_execInitLoadProc_svg('system')" style="overflow:visible;  enable-background:new 0 0 2057.365 710.000" viewBox="0 0 2065.164 710.000" height="710.000" width="2065.164" xml:space="preserve" ewd:ver="L2.1.2.6" xmlns="&ns_svg;" xmlns:ewd="http://shcl.co.jp/ewd" xmlns:a="http://ns.adobe.com/AdobeSVGViewerExtensions/3.0/" xmlns:xlink="&ns_xlink;">
<path d=" M 2014.16,  256.74  L 2014.16,  239.75 " style="stroke-width: 0.85 ;&st7; " /><path d=" M 2014.16,  273.74  L 2014.16,  290.74 " style="stroke-width: 0.85 ;&st7; " /><path d=" M 2022.66,  324.73  L 2022.66,  341.73 " style="stroke-width: 0.85 ;&st7; " /><path d=" M 2022.66,  358.73  L 2022.66,  401.22 " style="stroke-width: 0.85 ;&st7; " /><path d=" M 2027.19,  405.75  C 2027.19   403.25  2025.17   401.22  2022.66   401.22 " style="stroke-width: 1.42 ;&st7; " /><path d=" M 2022.66,  401.22  C 2020.16   401.22  2018.13   403.25  2018.13   405.75 " style="stroke-width: 1.42 ;&st7; " /><path d=" M 2018.13,  405.75  C 2018.13   408.25  2020.16   410.28  2022.66   410.28 " style="stroke-width: 1.42 ;&st7; " /><path d=" M 2022.66,  410.28  C 2025.17   410.28  2027.19   408.25  2027.19   405.75 " style="stroke-width: 1.42 ;&st7; " /><path d=" M 2027.19,  414.82  C 2027.19   412.31  2025.17   410.28  2022.66   410.28 " style="stroke-width: 1.42 ;&st7; " /><path d=" M 2022.66,  410.28  C 2020.16   410.28  2018.13   412.31  2018.13   414.82 " style="stroke-width: 1.42 ;&st7; " /><path d=" M 2018.13,  414.82  C 2018.13   417.32  2020.16   419.35  2022.66   419.35 " style="stroke-width: 1.42 ;&st7; " /><path d=" M 2022.66,  419.35  C 2025.17   419.35  2027.19   417.32  2027.19   414.82 " style="stroke-width: 1.42 ;&st7; " /><path d=" M 2031.16,  222.75  C 2031.16   213.36  2023.55   205.75  2014.16   205.75 " style="stroke-width: 1.42 ;&st7; " /><path d=" M 2014.16,  205.75  C 2004.78   205.75  1997.17   213.36  1997.17   222.75 " style="stroke-width: 1.42 ;&st7; " /><path d=" M 2014.16,  239.75  C 2023.55   239.75  2031.16   232.14  2031.16   222.75 " style="stroke-width: 1.42 ;&st7; " /><text style="&st18;" transform="matrix(&st16;  2010.03  267.21 )">I/F</text><text ewd:textID="7" style="&st18;" transform="matrix(&st16; 2001.14 224.72)">Zumbador</text><text style="&st18;" transform="matrix(&st17;  2001.97  472.43 )">R(LHD)</text><text style="&st18;" transform="matrix(&st17;  2018.97  473.81 )">W(RHD)</text><text style="&st18;" transform="matrix(&st17;  2035.97  473.32 )">W(LHD)</text><text style="&st18;" transform="matrix(&st16;  2020.33  407.72 )">B</text><text style="&st18;" transform="matrix(&st16;  2008.61  407.72 )">15</text><text style="&st18;" transform="matrix(&st16;  2025.49  397.53 )">CANL</text><text style="&st18;" transform="matrix(&st16;  2028.64  416.79 )">(*5)</text><text style="&st18;" transform="matrix(&st16;  2008.61  416.79 )">16</text><text style="&st18;" transform="matrix(&st16;  2020.33  416.79 )">B</text><text style="&st18;" transform="matrix(&st16;  2028.64  407.72 )">(*4)</text></svg>