﻿<?xml version="1.0" encoding="utf-8"?>
<!DOCTYPE svg PUBLIC "-//W3C//DTD SVG 1.0//EN" "http://www.w3.org/TR/2001/REC-SVG-20010904/DTD/svg10.dtd"[
	<!ENTITY ns_flows "http://ns.adobe.com/Flows/1.0/">
	<!ENTITY ns_svg "http://www.w3.org/2000/svg">
	<!ENTITY ns_xlink "http://www.w3.org/1999/xlink">
	<!ENTITY st0 "font-size:7px;font-family:'MS-PGothic';adobe-font-script:japanese;">
	<!ENTITY st1 "font-size:6px;font-family:'ArialMT';">
	<!-- White fill  -->
	<!ENTITY st2 "fill:#FFFFFF;stroke:#000000; stroke-width:1.41;stroke-linecap:round;stroke-linejoin:round;">
	<!-- Yellow fill  -->
	<!ENTITY st3 "fill:#FFFFCC;stroke:#FFFFCC; stroke-width:0.1;stroke-linecap:round;stroke-linejoin:round;">
	<!-- Gray fill  -->
	<!ENTITY st4 "fill:#CCCCCC;stroke:#CCCCCC; stroke-width:0.1;stroke-linecap:round;stroke-linejoin:round;">
	<!-- Light-blue fill -->
	<!ENTITY st5 "fill:#CCECF4;stroke:#000000; stroke-width:1.133;stroke-linecap:round;stroke-linejoin:round;">
	<!ENTITY st6 "fill:none;stroke-linecap:butt; stroke-linejoin:round;">
	<!ENTITY st7 "fill:none;stroke:#000000;stroke-linecap:round;stroke-linejoin:round;">
	<!ENTITY st8 "enable-background:new    ;">
	<!-- Black fill -->
	<!ENTITY st9 "fill:#000000;stroke:#000000; stroke-linecap:round;stroke-linejoin:round;">
	<!-- SRS note   -->
	<!ENTITY st10 "font-size:9px;font-family:'ArialMT';">
	<!ENTITY st11 "font-size:9px;font-family:'Svg Symbol';">
	<!ENTITY st12 "font-size:6px;font-family:'Svg Symbol';">
	<!ENTITY st13 "fill:none;stroke:#ff0000;stroke-linecap:round;stroke-linejoin:round;">
	<!-- Yellow fill  -->
	<!ENTITY st14 "fill:#FFFF00;stroke:#FFFF00; stroke-width:0.1;stroke-linecap:round;stroke-linejoin:round;">
	<!ENTITY st15 "font-size:6px;font-family:'MS-PGothic';adobe-font-script:japanese;">
	<!ENTITY st16 "1.00 0.00 0.00 1.00">
	<!ENTITY st17 "0.00 -1.00 1.00 0.00">
	<!ENTITY st18 "font-size:6px;font-family:'Arial';">
	<!ENTITY st19 "font-size:9px;font-family:'Arial';">
	<!ENTITY st20 "font-size:6px;font-family:'MS-PGothic','MS PGothic';adobe-font-script:japanese;">
	<!ENTITY st21 "font-size:7px;font-family:'MS-PGothic','MS PGothic';adobe-font-script:japanese;">
	<!ATTLIST svg
		xmlns:ewd CDATA #FIXED "http://shcl.co.jp/ewd"
		xmlns:a CDATA #FIXED "http://ns.adobe.com/AdobeSVGViewerExtensions/3.0/"
		ewd:ver CDATA #IMPLIED
	>
	<!ATTLIST a
		ewd:lineID CDATA #IMPLIED
		ewd:groupID CDATA #IMPLIED
		ewd:figtype CDATA #IMPLIED
		ewd:code CDATA #IMPLIED
		ewd:figID CDATA #IMPLIED
		ewd:pinNo CDATA #IMPLIED
		ewd:comment CDATA #IMPLIED >
	<!ATTLIST g
		ewd:lineID CDATA #IMPLIED
		ewd:groupID CDATA #IMPLIED
		ewd:figtype CDATA #IMPLIED
		ewd:code CDATA #IMPLIED
		ewd:figID CDATA #IMPLIED
		ewd:pinNo CDATA #IMPLIED
		ewd:comment CDATA #IMPLIED >
	<!ATTLIST text
		ewd:textID CDATA #IMPLIED
		ewd:horAlign CDATA #IMPLIED >
	<!ATTLIST title
		ewd:textID CDATA #IMPLIED >
]>
<!-- Generator: Shintec Hozumi YS   -->
<svg onload="call_execInitLoadProc_svg('system')" style="overflow:visible;  enable-background:new 0 0 6731.584 710.000" viewBox="0 0 6739.374 710.000" height="710.000" width="6739.374" xml:space="preserve" ewd:ver="L2.1.2.6" xmlns="&ns_svg;" xmlns:ewd="http://shcl.co.jp/ewd" xmlns:a="http://ns.adobe.com/AdobeSVGViewerExtensions/3.0/" xmlns:xlink="&ns_xlink;">
<path d=" M 3382.43,  567.66  L 3377.46,  562.69 " style="stroke-width: 1.42 ;&st7; " /><path d=" M 3497.17,  362.97  L 3501.41,  362.97 " style="stroke-width: 1.42 ;&st7; " /><path d=" M 3497.17,   23.03  L 3501.41,   23.03 " style="stroke-width: 1.42 ;&st7; " /><path d=" M 3501.41,   31.53  L 3497.17,   31.53 " style="stroke-width: 1.42 ;&st7; " /><path d=" M 3370.41,  494.70  L 3365.44,  499.67 " style="stroke-width: 1.42 ;&st7; " /><path d=" M 3377.46,  511.70  L 3382.43,  506.73 " style="stroke-width: 1.42 ;&st7; " /><path d=" M 3365.44,  506.73  L 3370.41,  511.70 " style="stroke-width: 1.42 ;&st7; " /><path d=" M 3382.43,  499.67  L 3377.46,  494.70 " style="stroke-width: 1.42 ;&st7; " /><path d=" M 3382.43,  397.69  L 3377.46,  392.72 " style="stroke-width: 1.42 ;&st7; " /><path d=" M 3365.44,  404.75  L 3370.41,  409.72 " style="stroke-width: 1.42 ;&st7; " /><path d=" M 3377.46,  409.72  L 3382.43,  404.75 " style="stroke-width: 1.42 ;&st7; " /><path d=" M 3370.41,  392.72  L 3365.44,  397.69 " style="stroke-width: 1.42 ;&st7; " /><path d=" M 3407.93,  559.16  L 3402.96,  554.19 " style="stroke-width: 1.42 ;&st7; " /><path d=" M 3390.93,  566.22  L 3395.91,  571.19 " style="stroke-width: 1.42 ;&st7; " /><path d=" M 3402.96,  571.19  L 3407.93,  566.22 " style="stroke-width: 1.42 ;&st7; " /><path d=" M 3395.91,  554.19  L 3390.93,  559.16 " style="stroke-width: 1.42 ;&st7; " /><path d=" M 3501.41,  371.47  L 3497.17,  371.47 " style="stroke-width: 1.42 ;&st7; " /><path d=" M 3407.93,  491.18  L 3402.96,  486.20 " style="stroke-width: 1.42 ;&st7; " /><path d=" M 3390.93,  498.23  L 3395.91,  503.20 " style="stroke-width: 1.42 ;&st7; " /><path d=" M 3402.96,  503.20  L 3407.93,  498.23 " style="stroke-width: 1.42 ;&st7; " /><path d=" M 3395.91,  486.20  L 3390.93,  491.18 " style="stroke-width: 1.42 ;&st7; " /><path d=" M 3407.93,  525.17  L 3402.96,  520.20 " style="stroke-width: 1.42 ;&st7; " /><path d=" M 3390.93,  532.23  L 3395.91,  537.20 " style="stroke-width: 1.42 ;&st7; " /><path d=" M 3402.96,  537.20  L 3407.93,  532.23 " style="stroke-width: 1.42 ;&st7; " /><path d=" M 3395.91,  520.20  L 3390.93,  525.17 " style="stroke-width: 1.42 ;&st7; " /><path d=" M 3370.41,  562.69  L 3365.44,  567.66 " style="stroke-width: 1.42 ;&st7; " /><path d=" M 3377.46,  579.69  L 3382.43,  574.72 " style="stroke-width: 1.42 ;&st7; " /><path d=" M 3365.44,  574.72  L 3370.41,  579.69 " style="stroke-width: 1.42 ;&st7; " /><path d=" M 3372.52,  710.00  L 3375.35,  710.00 " style="stroke-width: 0.85 ;&st7; " /><path d=" M 3016.99,  545.69  L 3016.99,  579.69  L 3101.98,  579.69  L 3101.98,  545.69  L 3016.99,  545.69 " style="stroke-width: 1.42 ;&st7; " /><path d=" M 3016.99,  452.21  L 3016.99,  494.70  L 3101.98,  494.70  L 3101.98,  452.21  L 3016.99,  452.21 " style="stroke-width: 1.42 ;&st7; " /><path d=" M 3118.98,  350.23  L 3118.98,  384.22  L 3203.96,  384.22  L 3203.96,  350.23  L 3118.98,  350.23 " style="stroke-width: 1.42 ;&st7; " /><path d=" M 3118.98,  392.72  L 3118.98,  452.21  L 3203.96,  452.21  L 3203.96,  392.72  L 3118.98,  392.72 " style="stroke-width: 1.42 ;&st7; " /><path d=" M 3118.98,  460.71  L 3118.98,  486.20  L 3203.96,  486.20  L 3203.96,  460.71  L 3118.98,  460.71 " style="stroke-width: 1.42 ;&st7; " /><path d=" M 3118.98,  494.70  L 3118.98,  520.20  L 3203.96,  520.20  L 3203.96,  494.70  L 3118.98,  494.70 " style="stroke-width: 1.42 ;&st7; " /><path d=" M 3118.98,  528.70  L 3118.98,  554.19  L 3203.96,  554.19  L 3203.96,  528.70  L 3118.98,  528.70 " style="stroke-width: 1.42 ;&st7; " /><path d=" M 3118.98,  562.69  L 3118.98,  588.19  L 3203.96,  588.19  L 3203.96,  562.69  L 3118.98,  562.69 " style="stroke-width: 1.42 ;&st7; " /><path d=" M 3118.98,  316.23  L 3118.98,  341.73  L 3203.96,  341.73  L 3203.96,  316.23  L 3118.98,  316.23 " style="stroke-width: 1.42 ;&st7; " /><path d=" M 3118.98,  248.24  L 3118.98,  273.74  L 3203.96,  273.74  L 3203.96,  248.24  L 3118.98,  248.24 " style="stroke-width: 1.42 ;&st7; " /><path d=" M 3371.10,  707.17  L 3376.77,  707.17 " style="stroke-width: 0.85 ;&st7; " /><path d=" M 3369.69,  704.33  L 3378.18,  704.33 " style="stroke-width: 0.85 ;&st7; " /><path d=" M 3365.44,  701.50  L 3382.43,  701.50 " style="stroke-width: 0.85 ;&st7; " /><path d=" M 3373.93,  697.25  L 3373.93,  701.50 " style="stroke-width: 0.85 ;&st7; " /><path d=" M 3016.99,  358.73  L 3016.99,  401.22  L 3101.98,  401.22  L 3101.98,  358.73  L 3016.99,  358.73 " style="stroke-width: 1.42 ;&st7; " /><path d=" M 3016.99,  503.20  L 3016.99,  537.20  L 3101.98,  537.20  L 3101.98,  503.20  L 3016.99,  503.20 " style="stroke-width: 1.42 ;&st7; " /><path d=" M 3016.99,  163.26  L 3016.99,  197.25  L 3101.98,  197.25  L 3101.98,  163.26  L 3016.99,  163.26 " style="stroke-width: 1.42 ;&st7; " /><path d=" M 3016.99,  205.75  L 3016.99,  239.75  L 3101.98,  239.75  L 3101.98,  205.75  L 3016.99,  205.75 " style="stroke-width: 1.42 ;&st7; " /><path d=" M 3016.99,  290.74  L 3016.99,  350.23  L 3101.98,  350.23  L 3101.98,  290.74  L 3016.99,  290.74 " style="stroke-width: 1.42 ;&st7; " /><path d=" M 3016.99,  248.24  L 3016.99,  282.24  L 3101.98,  282.24  L 3101.98,  248.24  L 3016.99,  248.24 " style="stroke-width: 1.42 ;&st7; " /><path d=" M 3373.93,  297.82  L 3373.93,  302.07 " style="stroke-width: 0.85 ;&st7; " /><path d=" M 3365.44,  302.07  L 3382.43,  302.07 " style="stroke-width: 0.85 ;&st7; " /><path d=" M 3369.69,  304.90  L 3378.18,  304.90 " style="stroke-width: 0.85 ;&st7; " /><path d=" M 3371.10,  307.73  L 3376.77,  307.73 " style="stroke-width: 0.85 ;&st7; " /><path d=" M 3372.52,  310.57  L 3375.35,  310.57 " style="stroke-width: 0.85 ;&st7; " /><path d=" M 3016.99,  409.72  L 3016.99,  443.71  L 3101.98,  443.71  L 3101.98,  409.72  L 3016.99,  409.72 " style="stroke-width: 1.42 ;&st7; " /><path d=" M 3497.17,   23.03  C 3494.82    23.03  3492.92    24.93  3492.92    27.28 " style="stroke-width: 1.42 ;&st7; " /><path d=" M 3492.92,   27.28  C 3492.92    29.63  3494.82    31.53  3497.17    31.53 " style="stroke-width: 1.42 ;&st7; " /><path d=" M 3497.17,  362.97  C 3494.82   362.97  3492.92   364.88  3492.92   367.22 " style="stroke-width: 1.42 ;&st7; " /><path d=" M 3492.92,  367.22  C 3492.92   369.57  3494.82   371.47  3497.17   371.47 " style="stroke-width: 1.42 ;&st7; " /><text style="&st18;" transform="matrix(&st16;  3018.98  556.16 )">(GND)</text><text style="&st18;" transform="matrix(&st16;  3044.22  554.72 )">J3</text><text style="&st18;" transform="matrix(&st16;  3068.79  652.48 )">W-B</text><text style="&st18;" transform="matrix(&st16;  3136.77  652.48 )">W-B</text><text style="&st18;" transform="matrix(&st16;  3122.15  629.82 )">(LHD,RHD *1)</text><text style="&st18;" transform="matrix(&st16;  3068.79  618.48 )">W-B</text><text style="&st18;" transform="matrix(&st16;  3054.16  629.82 )">(LHD,RHD *1)</text><text style="&st18;" transform="matrix(&st16;  3136.77  618.48 )">W-B</text><text style="&st18;" transform="matrix(&st17;  3370.24  621.38 )">W-B</text><text style="&st18;" transform="matrix(&st16;  3494.98  29.25 )">3B</text><text style="&st18;" transform="matrix(&st16;  3497.31  20.04 )">7</text><text ewd:textID="137" style="font-size:5px;font-family:'Arial';" transform="matrix(&st16;  3044.22  561.83 )">Conjunto del interruptor<tspan dy="6" x="0">principal de la red con </tspan><tspan dy="6" x="0">multiplexación RH</tspan></text><text style="&st18;" transform="matrix(&st16;  3018.98  369.19 )">(-)</text><text style="&st18;" transform="matrix(&st16;  3044.22  367.75 )">J8</text><text style="&st18;" transform="matrix(&st16; 3044.22 510.23)">J4</text><text style="&st18;" transform="matrix(&st16;  3018.98  513.67 )">(GND)</text><text ewd:textID="89" style="font-size:5px;font-family:'Arial';" transform="matrix(&st16; 3044.22 516.33)">Conjunto del interruptor <tspan dy="6" x="0">del regulador del </tspan><tspan dy="6" x="0">elevalunas eléctrico </tspan><tspan x="0" dy="5" style="font-size:5px;font-family:'Arial';">delantero RH</tspan></text><text style="&st18;" transform="matrix(&st16;  3018.98  173.73 )">(GND)</text><text style="&st18;" transform="matrix(&st16;  3044.22  172.29 )">V1</text><text style="&st18;" transform="matrix(&st16;  3044.22  214.78 )">J6</text><text style="&st18;" transform="matrix(&st16;  3018.98  216.22 )">(E)</text><text style="&st18;" transform="matrix(&st16;  3018.98  335.2 )">(HR-)</text><text ewd:textID="5" style="&st18;" transform="matrix(&st16;  3133.45  71.74 )">* 2 :sin sistema de entrada y arranque sin llave</text><text style="&st18;" transform="matrix(&st16;  3018.98  301.2 )">(E)</text><text style="&st18;" transform="matrix(&st16;  3044.22  299.76 )">J7</text><text ewd:textID="147" style="&st18;" transform="matrix(&st16;  3044.22  306.87 )">Conjunto del espejo<tspan dy="6" x="0">retrovisor exterior</tspan><tspan dy="6" x="0"> RH</tspan></text><text style="&st18;" transform="matrix(&st16; 3042.22 257.27)">J1</text><text style="&st18;" transform="matrix(&st16;  3018.98  258.71 )">(E)</text><text style="&st18;" transform="matrix(&st16;  3284.15  567.49 )">BR</text><text style="&st18;" transform="matrix(&st17;  3370.24  544.9 )">W-B</text><text style="&st18;" transform="matrix(&st16;  3281.25  533.5 )">W-B</text><text style="&st18;" transform="matrix(&st16;  3281.25  499.5 )">W-B</text><text style="&st18;" transform="matrix(&st16;  3281.25  465.51 )">W-B</text><text style="&st18;" transform="matrix(&st16;  3284.15  431.52 )">BR</text><text style="&st18;" transform="matrix(&st16;  3284.15  397.52 )">BR</text><text style="&st18;" transform="matrix(&st16;  3284.15  355.03 )">BR</text><text style="&st18;" transform="matrix(&st17;  3370.24  459.91 )">W-B</text><text style="&st18;" transform="matrix(&st16;  3476.72  652.48 )">W-B</text><text style="&st18;" transform="matrix(&st16;  3476.72  601.49 )">W-B</text><text style="&st18;" transform="matrix(&st16;  3476.72  558.99 )">W-B</text><text style="&st18;" transform="matrix(&st16;  3476.72  525.0 )">W-B</text><text style="&st18;" transform="matrix(&st16;  3281.25  253.05 )">W-B</text><text ewd:textID="145" style="&st18;" transform="matrix(&st16; 3044.22 221.88)">Conjunto del <tspan dy="6" x="0">interruptor del </tspan><tspan x="0" dy="6" style="&st18;">espejo exterior</tspan></text><text ewd:textID="83" style="&st18;" transform="matrix(&st16;  3044.22  179.39 )">Conjunto del tirador<tspan dy="6" x="0">exterior de la puerta</tspan><tspan dy="6" x="0"> delantera RH</tspan></text><text ewd:textID="79" style="&st18;" transform="matrix(&st16; 3044.22 373.86)">Conjunto de la luz <tspan dy="6" x="0">de iluminación del </tspan><tspan dy="6" x="0">tirador interior de </tspan><tspan dy="6" x="0">la puerta delantera</tspan><tspan x="0" dy="6" style="&st18;"> RH</tspan></text><text ewd:textID="81" style="&st18;" transform="matrix(&st16; 3042.22 264.38)">Conjunto de bloqueo<tspan dy="6" x="0">de la puerta delantera</tspan><tspan dy="6" x="0">con motor RH</tspan></text><text style="&st18;" transform="matrix(&st16;  3018.98  462.68 )">(GND)</text><text style="&st18;" transform="matrix(&st16;  3044.22  461.24 )">J9</text><text ewd:textID="87" style="&st18;" transform="matrix(&st16;  3044.22  468.34 )">Conjunto del motor<tspan dy="6" x="0">del regulador del </tspan><tspan dy="6" x="0">elevalunas eléctrico </tspan><tspan dy="6" x="0">delantero RH</tspan></text><text ewd:textID="73" style="&st18;" transform="matrix(&st16; 3121.70 366.36)">Subconjunto de la <tspan dy="6" x="0">columna de la dirección </tspan><tspan dy="6" x="0">asistida eléctrica</tspan></text><text ewd:textID="103" style="&st18;" transform="matrix(&st16; 3121.70 408.85)">Conjunto del interruptor<tspan dy="6" x="0">de regulación de intensidad </tspan><tspan x="0" dy="6" style="&st18;">de la luz de los faros</tspan></text><text style="&st18;" transform="matrix(&st16; 3121.70 401.75)">I25</text><text style="&st18;" transform="matrix(&st16;  3183.61  403.19 )">(LFG)</text><text ewd:textID="181" style="&st18;" transform="matrix(&st16; 3121.70 476.84)">Subconjunto del<tspan dy="6" x="0"> cable espiral</tspan></text><text style="&st18;" transform="matrix(&st16; 3121.70 469.74)">I28</text><text style="&st18;" transform="matrix(&st16;  3183.68  471.18 )">(-DP)</text><text style="&st18;" transform="matrix(&st16;  3183.33  505.17 )">(ESS)</text><text style="&st18;" transform="matrix(&st16; 3121.70 503.73)">I29</text><text ewd:textID="184" style="&st18;" transform="matrix(&st16; 3121.70 510.84)">Sensor de la dirección</text><text style="&st18;" transform="matrix(&st16; 3121.70 537.72)">I35</text><text ewd:textID="128" style="&st18;" transform="matrix(&st16; 3121.70 544.83)">Solenoide de <tspan dy="6" x="0">interbloqueo de la llave</tspan></text><text style="&st18;" transform="matrix(&st16;  3281.25  321.03 )">W-B</text><text style="&st18;" transform="matrix(&st16;  3188.7  437.18 )">(EL)</text><text style="&st18;" transform="matrix(&st16; 3121.70 571.72)">I33</text><text ewd:textID="192" style="&st18;" transform="matrix(&st16; 3121.70 578.82)">Conjunto del interruptor de<tspan dy="6" x="0"> advertencia de desbloqueo</tspan></text><text style="&st18;" transform="matrix(&st16; 3183.40 572.16)">(UN-)</text><text style="&st18;" transform="matrix(&st16;  3180.01  539.16 )">(KLS-)</text><text style="&st18;" transform="matrix(&st16; 3121.70 359.25)">I22</text><text style="&st18;" transform="matrix(&st16;  3181.92  360.69 )">(GND)</text><text style="&st18;" transform="matrix(&st16; 3181.92 325.70)">(GND)</text><text style="&st18;" transform="matrix(&st16; 3121.70 325.26)">I24</text><text ewd:textID="183" style="&st18;" transform="matrix(&st16; 3121.70 332.37)">Conjunto del actuador de<tspan dy="6" x="0"> bloqueo de la dirección</tspan></text><text style="&st18;" transform="matrix(&st16; 3181.92 257.71)">(GND)</text><text style="&st18;" transform="matrix(&st16; 3121.70 257.27)">I68</text><text ewd:textID="185" style="&st18;" transform="matrix(&st16; 3121.70 264.38)">Conjunto del amplificador<tspan dy="6" x="0"> de componentes estéreo</tspan></text><text style="&st18;" transform="matrix(&st16;  3468.22  23.58 )">W-B</text><text style="&st18;" transform="matrix(&st16;  3136.77  23.58 )">W-B</text><text style="&st18;" transform="matrix(&st16;  3068.79  23.58 )">W-B</text><text ewd:textID="4" style="&st18;" transform="matrix(&st16;  3133.45  63.24 )">* 1 :con sistema de entrada y arranque sin llave</text><text ewd:textID="6" style="&st18;" transform="matrix(&st16;  3133.45  80.24 )">* 3 :con caja del código ID</text><text style="&st18;" transform="matrix(&st16;  3494.98  369.19 )">3A</text><text style="&st18;" transform="matrix(&st16;  3495.33  359.99 )">25</text><text style="&st18;" transform="matrix(&st16;  3476.72  397.52 )">W-B</text><text style="&st18;" transform="matrix(&st16;  3282.77  544.83 )">(*2)</text><text style="&st18;" transform="matrix(&st16;  3282.77  578.82 )">(*2)</text><text style="&st18;" transform="matrix(&st17;  3395.74  621.38 )">W-B</text><text ewd:textID="30" style="&st18;" transform="matrix(&st16;  3133.45  88.74 )">*28 :Desde la producción de septiembre de 2014</text><text ewd:textID="31" style="&st18;" transform="matrix(&st16;  3133.45  97.24 )">*29 :con memoria de posiciones del asiento</text><text ewd:textID="144" style="&st18;" transform="matrix(&st16;  3044.22  425.85 )">Conjunto de ECU de<tspan dy="6" x="0">control del espejo</tspan><tspan dy="6" x="0"> exterior RH</tspan></text><text style="&st18;" transform="matrix(&st16;  3018.98  420.18 )">(GND)</text><text style="&st18;" transform="matrix(&st16;  3044.22  418.74 )">J10</text><text style="&st18;" transform="matrix(&st16;  3476.72  491.01 )">W-B</text><text style="&st18;" transform="matrix(&st16;  3476.72  457.01 )">W-B</text><text style="&st18;" transform="matrix(&st16;  3476.26  468.34 )">(*28)</text><text style="&st18;" transform="matrix(&st16;  3476.26  502.34 )">(*28)</text><text style="&st18;" transform="matrix(&st17;  3395.74  519.4 )">W-B</text><text style="&st18;" transform="matrix(&st17;  3395.74  553.39 )">W-B</text></svg>