﻿<?xml version="1.0" encoding="utf-8"?>
<!DOCTYPE svg PUBLIC "-//W3C//DTD SVG 1.0//EN" "http://www.w3.org/TR/2001/REC-SVG-20010904/DTD/svg10.dtd"[
	<!ENTITY ns_flows "http://ns.adobe.com/Flows/1.0/">
	<!ENTITY ns_svg "http://www.w3.org/2000/svg">
	<!ENTITY ns_xlink "http://www.w3.org/1999/xlink">
	<!ENTITY st0 "font-size:7px;font-family:'MS-PGothic';adobe-font-script:japanese;">
	<!ENTITY st1 "font-size:6px;font-family:'ArialMT';">
	<!-- White fill  -->
	<!ENTITY st2 "fill:#FFFFFF;stroke:#000000; stroke-width:1.41;stroke-linecap:round;stroke-linejoin:round;">
	<!-- Yellow fill  -->
	<!ENTITY st3 "fill:#FFFFCC;stroke:#FFFFCC; stroke-width:0.1;stroke-linecap:round;stroke-linejoin:round;">
	<!-- Gray fill  -->
	<!ENTITY st4 "fill:#CCCCCC;stroke:#CCCCCC; stroke-width:0.1;stroke-linecap:round;stroke-linejoin:round;">
	<!-- Light-blue fill -->
	<!ENTITY st5 "fill:#CCECF4;stroke:#000000; stroke-width:1.133;stroke-linecap:round;stroke-linejoin:round;">
	<!ENTITY st6 "fill:none;stroke-linecap:butt; stroke-linejoin:round;">
	<!ENTITY st7 "fill:none;stroke:#000000;stroke-linecap:round;stroke-linejoin:round;">
	<!ENTITY st8 "enable-background:new    ;">
	<!-- Black fill -->
	<!ENTITY st9 "fill:#000000;stroke:#000000; stroke-linecap:round;stroke-linejoin:round;">
	<!-- SRS note   -->
	<!ENTITY st10 "font-size:9px;font-family:'ArialMT';">
	<!ENTITY st11 "font-size:9px;font-family:'Svg Symbol';">
	<!ENTITY st12 "font-size:6px;font-family:'Svg Symbol';">
	<!ENTITY st13 "fill:none;stroke:#ff0000;stroke-linecap:round;stroke-linejoin:round;">
	<!-- Yellow fill  -->
	<!ENTITY st14 "fill:#FFFF00;stroke:#FFFF00; stroke-width:0.1;stroke-linecap:round;stroke-linejoin:round;">
	<!ENTITY st15 "font-size:6px;font-family:'MS-PGothic';adobe-font-script:japanese;">
	<!ENTITY st16 "1.00 0.00 0.00 1.00">
	<!ENTITY st17 "0.00 -1.00 1.00 0.00">
	<!ENTITY st18 "font-size:6px;font-family:'Arial';">
	<!ENTITY st19 "font-size:9px;font-family:'Arial';">
	<!ENTITY st20 "font-size:6px;font-family:'MS-PGothic','MS PGothic';adobe-font-script:japanese;">
	<!ENTITY st21 "font-size:7px;font-family:'MS-PGothic','MS PGothic';adobe-font-script:japanese;">
	<!ATTLIST svg
		xmlns:ewd CDATA #FIXED "http://shcl.co.jp/ewd"
		xmlns:a CDATA #FIXED "http://ns.adobe.com/AdobeSVGViewerExtensions/3.0/"
		ewd:ver CDATA #IMPLIED
	>
	<!ATTLIST a
		ewd:lineID CDATA #IMPLIED
		ewd:groupID CDATA #IMPLIED
		ewd:figtype CDATA #IMPLIED
		ewd:code CDATA #IMPLIED
		ewd:figID CDATA #IMPLIED
		ewd:pinNo CDATA #IMPLIED
		ewd:comment CDATA #IMPLIED >
	<!ATTLIST g
		ewd:lineID CDATA #IMPLIED
		ewd:groupID CDATA #IMPLIED
		ewd:figtype CDATA #IMPLIED
		ewd:code CDATA #IMPLIED
		ewd:figID CDATA #IMPLIED
		ewd:pinNo CDATA #IMPLIED
		ewd:comment CDATA #IMPLIED >
	<!ATTLIST text
		ewd:textID CDATA #IMPLIED
		ewd:horAlign CDATA #IMPLIED >
	<!ATTLIST title
		ewd:textID CDATA #IMPLIED >
]>
<!-- Generator: Shintec Hozumi YS   -->
<svg onload="call_execInitLoadProc_svg('system')" style="overflow:visible;  enable-background:new 0 0 6731.584 710.000" viewBox="0 0 6739.374 710.000" height="710.000" width="6739.374" xml:space="preserve" ewd:ver="L2.1.2.6" xmlns="&ns_svg;" xmlns:ewd="http://shcl.co.jp/ewd" xmlns:a="http://ns.adobe.com/AdobeSVGViewerExtensions/3.0/" xmlns:xlink="&ns_xlink;">
<path d=" M 2345.61,  491.18  L 2340.64,  486.20 " style="stroke-width: 1.42 ;&st7; " /><path d=" M 2328.61,  498.23  L 2333.58,  503.20 " style="stroke-width: 1.42 ;&st7; " /><path d=" M 2340.64,  503.20  L 2345.61,  498.23 " style="stroke-width: 1.42 ;&st7; " /><path d=" M 2333.58,  486.20  L 2328.61,  491.18 " style="stroke-width: 1.42 ;&st7; " /><path d=" M 2345.61,  380.69  L 2340.64,  375.72 " style="stroke-width: 1.42 ;&st7; " /><path d=" M 2328.61,  387.75  L 2333.58,  392.72 " style="stroke-width: 1.42 ;&st7; " /><path d=" M 2340.64,  392.72  L 2345.61,  387.75 " style="stroke-width: 1.42 ;&st7; " /><path d=" M 2333.58,  375.72  L 2328.61,  380.69 " style="stroke-width: 1.42 ;&st7; " /><path d=" M 2345.61,  312.71  L 2340.64,  307.73 " style="stroke-width: 1.42 ;&st7; " /><path d=" M 2328.61,  319.76  L 2333.58,  324.73 " style="stroke-width: 1.42 ;&st7; " /><path d=" M 2340.64,  324.73  L 2345.61,  319.76 " style="stroke-width: 1.42 ;&st7; " /><path d=" M 2333.58,  307.73  L 2328.61,  312.71 " style="stroke-width: 1.42 ;&st7; " /><path d=" M 2379.60,  168.23  L 2374.63,  163.26 " style="stroke-width: 1.42 ;&st7; " /><path d=" M 2362.61,  175.29  L 2367.57,  180.26 " style="stroke-width: 1.42 ;&st7; " /><path d=" M 2374.63,  180.26  L 2379.60,  175.29 " style="stroke-width: 1.42 ;&st7; " /><path d=" M 2367.58,  163.26  L 2362.61,  168.23 " style="stroke-width: 1.42 ;&st7; " /><path d=" M 2345.61,  236.22  L 2340.64,  231.25 " style="stroke-width: 1.42 ;&st7; " /><path d=" M 2328.61,  243.27  L 2333.58,  248.24 " style="stroke-width: 1.42 ;&st7; " /><path d=" M 2340.64,  248.24  L 2345.61,  243.27 " style="stroke-width: 1.42 ;&st7; " /><path d=" M 2333.58,  231.25  L 2328.61,  236.22 " style="stroke-width: 1.42 ;&st7; " /><path d=" M 2082.15,  605.18  L 2082.15,  630.68  L 2167.14,  630.68  L 2167.14,  605.18  L 2082.15,  605.18 " style="stroke-width: 1.42 ;&st7; " /><path d=" M 2082.15,  452.21  L 2082.15,  477.71  L 2167.14,  477.71  L 2167.14,  452.21  L 2082.15,  452.21 " style="stroke-width: 1.42 ;&st7; " /><path d=" M 2082.15,  486.20  L 2082.15,  511.70  L 2167.14,  511.70  L 2167.14,  486.20  L 2082.15,  486.20 " style="stroke-width: 1.42 ;&st7; " /><path d=" M 2082.15,  571.19  L 2082.15,  596.69  L 2167.14,  596.69  L 2167.14,  571.19  L 2082.15,  571.19 " style="stroke-width: 1.42 ;&st7; " /><path d=" M 2082.15,  520.20  L 2082.15,  554.19  L 2167.14,  554.19  L 2167.14,  520.20  L 2082.15,  520.20 " style="stroke-width: 1.42 ;&st7; " /><path d=" M 2082.15,  375.72  L 2082.15,  435.21  L 2167.14,  435.21  L 2167.14,  375.72  L 2082.15,  375.72 " style="stroke-width: 1.42 ;&st7; " /><path d=" M 2082.15,  307.73  L 2082.15,  367.22  L 2167.14,  367.22  L 2167.14,  307.73  L 2082.15,  307.73 " style="stroke-width: 1.42 ;&st7; " /><path d=" M 2082.15,  163.26  L 2082.15,  222.75  L 2167.14,  222.75  L 2167.14,  163.26  L 2082.15,  163.26 " style="stroke-width: 1.42 ;&st7; " /><path d=" M 2498.58,  307.73  L 2498.58,  350.23  L 2583.57,  350.23  L 2583.57,  307.73  L 2498.58,  307.73 " style="stroke-width: 1.42 ;&st7; " /><path d=" M 2082.15,  639.18  L 2082.15,  664.67  L 2167.14,  664.67  L 2167.14,  639.18  L 2082.15,  639.18 " style="stroke-width: 1.42 ;&st7; " /><path d=" M 2337.11,  697.25  L 2337.11,  701.50 " style="stroke-width: 0.85 ;&st7; " /><path d=" M 2328.61,  701.50  L 2345.61,  701.50 " style="stroke-width: 0.85 ;&st7; " /><path d=" M 2332.86,  704.33  L 2341.36,  704.33 " style="stroke-width: 0.85 ;&st7; " /><path d=" M 2334.28,  707.17  L 2339.94,  707.17 " style="stroke-width: 0.85 ;&st7; " /><path d=" M 2335.69,  710.00  L 2338.52,  710.00 " style="stroke-width: 0.85 ;&st7; " /><path d=" M 2498.58,  426.71  L 2498.58,  486.20  L 2583.57,  486.20  L 2583.57,  426.71  L 2498.58,  426.71 " style="stroke-width: 1.42 ;&st7; " /><path d=" M 2498.58,  163.26  L 2498.58,  214.25  L 2583.57,  214.25  L 2583.57,  163.26  L 2498.58,  163.26 " style="stroke-width: 1.42 ;&st7; " /><path d=" M 2498.58,  231.25  L 2498.58,  256.74  L 2583.57,  256.74  L 2583.57,  231.25  L 2498.58,  231.25 " style="stroke-width: 1.42 ;&st7; " /><path d=" M 2498.58,  375.72  L 2498.58,  418.22  L 2583.57,  418.22  L 2583.57,  375.72  L 2498.58,  375.72 " style="stroke-width: 1.42 ;&st7; " /><path d=" M 2082.15,  231.25  L 2082.15,  290.74  L 2167.14,  290.74  L 2167.14,  231.25  L 2082.15,  231.25 " style="stroke-width: 1.42 ;&st7; " /><path d=" M 2498.58,  520.20  L 2498.58,  554.19  L 2583.57,  554.19  L 2583.57,  520.20  L 2498.58,  520.20 " style="stroke-width: 1.42 ;&st7; " /><path d=" M 2031.02,  561.68  C 2032.92   559.54  2032.98   556.40  2031.16   554.19 " style="stroke-width: 1.42 ;&st7; " /><path d=" M 2031.30,  546.71  C 2029.40   548.85  2029.34   551.98  2031.16   554.19 " style="stroke-width: 1.42 ;&st7; " /><path d=" M 2048.02,   43.26  C 2049.92    41.12  2049.98    37.99  2048.16    35.78 " style="stroke-width: 1.42 ;&st7; " /><path d=" M 2048.30,   28.29  C 2046.40    30.44  2046.34    33.57  2048.16    35.78 " style="stroke-width: 1.42 ;&st7; " /><path d=" M 2048.02,   68.76  C 2049.92    66.62  2049.98    63.49  2048.16    61.28 " style="stroke-width: 1.42 ;&st7; " /><path d=" M 2048.30,   53.79  C 2046.40    55.93  2046.34    59.06  2048.16    61.27 " style="stroke-width: 1.42 ;&st7; " /><path d=" M 2048.02,   94.26  C 2049.92    92.11  2049.98    88.98  2048.16    86.77 " style="stroke-width: 1.42 ;&st7; " /><path d=" M 2048.30,   79.29  C 2046.40    81.43  2046.34    84.56  2048.16    86.77 " style="stroke-width: 1.42 ;&st7; " /><path d=" M 2031.02,  468.19  C 2032.92   466.05  2032.98   462.92  2031.16   460.71 " style="stroke-width: 1.42 ;&st7; " /><path d=" M 2031.30,  453.22  C 2029.40   455.36  2029.34   458.50  2031.16   460.71 " style="stroke-width: 1.42 ;&st7; " /><path d=" M 2031.02,  493.69  C 2032.92   491.55  2032.98   488.42  2031.16   486.20 " style="stroke-width: 1.42 ;&st7; " /><path d=" M 2031.30,  478.72  C 2029.40   480.86  2029.34   483.99  2031.16   486.20 " style="stroke-width: 1.42 ;&st7; " /><path d=" M 2031.02,  519.18  C 2032.92   517.04  2032.98   513.91  2031.16   511.70 " style="stroke-width: 1.42 ;&st7; " /><path d=" M 2031.30,  504.22  C 2029.40   506.36  2029.34   509.49  2031.16   511.70 " style="stroke-width: 1.42 ;&st7; " /><text ewd:textID="142" style="&st18;" transform="matrix(&st16;  2083.88  621.32 )">Conjunto del enchufe<tspan dy="6" x="0"> eléctrico n.° 3</tspan></text><text style="&st18;" transform="matrix(&st16;  2083.88  614.21 )">I45</text><text style="&st18;" transform="matrix(&st16;  2155.83  615.65 )">(E)</text><text style="&st18;" transform="matrix(&st16;  2007.39  265.77 )">E7</text><text ewd:textID="189" style="&st18;" transform="matrix(&st16;  2007.39  272.88 )">Conjunto de ECU<tspan dy="6" x="0">de control de la</tspan><tspan dy="6" x="0"> transmisión</tspan></text><text style="&st18;" transform="matrix(&st16;  2210.43  609.99 )">W-B</text><text style="&st18;" transform="matrix(&st17;  2333.41  583.14 )">W-B</text><text style="&st18;" transform="matrix(&st16;  2213.33  525.0 )">BR</text><text style="&st18;" transform="matrix(&st16;  2210.43  491.01 )">W-B</text><text style="&st18;" transform="matrix(&st16;  2210.43  457.01 )">W-B</text><text style="&st18;" transform="matrix(&st16;  2210.43  414.52 )">W-B</text><text style="&st18;" transform="matrix(&st16;  2210.43  380.52 )">W-B</text><text style="&st18;" transform="matrix(&st17;  2333.41  451.41 )">W-B</text><text style="&st18;" transform="matrix(&st17;  2333.41  345.18 )">W-B</text><text style="&st18;" transform="matrix(&st16;  2210.43  202.05 )">W-B</text><text style="&st18;" transform="matrix(&st16;  2210.43  312.54 )">W-B</text><text style="&st18;" transform="matrix(&st17;  2367.41  583.14 )">W-B</text><text style="&st18;" transform="matrix(&st17;  2367.41  213.45 )">W-B</text><text style="&st18;" transform="matrix(&st16;  2007.39  595.82 )">ECM</text><text style="&st18;" transform="matrix(&st16;  2007.39  588.72 )">E26</text><text ewd:textID="63" style="&st18;" transform="matrix(&st16;  2083.88  468.34 )">Conjunto del reloj</text><text style="&st18;" transform="matrix(&st16;  2083.88  502.34 )">DLC3</text><text style="&st18;" transform="matrix(&st16;  2083.88  495.23 )">I39</text><text style="&st18;" transform="matrix(&st16;  2150.04  496.67 )">(CG)</text><text ewd:textID="98" style="&st18;" transform="matrix(&st16;  2083.88  587.32 )">Conjunto de la luz<tspan dy="6" x="0"> de la guantera</tspan></text><text style="&st18;" transform="matrix(&st16;  2083.88  580.22 )">I74</text><text style="&st18;" transform="matrix(&st16;  2155.83  581.66 )">(E)</text><text style="&st18;" transform="matrix(&st16;  2083.88  529.23 )">I44</text><text style="&st18;" transform="matrix(&st16;  2155.83  530.67 )">(E)</text><text style="&st18;" transform="matrix(&st16;  2083.88  461.24 )">I59</text><text style="&st18;" transform="matrix(&st16;  2155.83  462.68 )">(E)</text><text style="&st18;" transform="matrix(&st16;  2146.58  420.18 )">(ILL-)</text><text ewd:textID="45" style="&st18;" transform="matrix(&st16;  2083.88  391.86 )">Conjunto de control<tspan dy="6" x="0"> del A/C</tspan></text><text style="&st18;" transform="matrix(&st16;  2083.88  384.75 )">I56</text><text style="&st18;" transform="matrix(&st16;  2145.09  386.19 )">(GND)</text><text style="&st18;" transform="matrix(&st16;  2155.83  318.2 )">(E)</text><text style="&st18;" transform="matrix(&st16;  2083.88  316.76 )">I53</text><text ewd:textID="177" style="&st18;" transform="matrix(&st16;  2083.88  323.87 )">Interruptor del calefactor<tspan dy="6" x="0"> del asiento RH</tspan></text><text ewd:textID="176" style="&st18;" transform="matrix(&st16;  2083.88  179.39 )">Interruptor del <tspan dy="6" x="0">calefactor del asiento LH</tspan></text><text style="&st18;" transform="matrix(&st16;  2083.88  172.29 )">I52</text><text style="&st18;" transform="matrix(&st16;  2155.83  207.72 )">(E)</text><text style="&st18;" transform="matrix(&st16;  2210.43  346.53 )">W-B</text><text style="&st18;" transform="matrix(&st16;  2210.43  168.06 )">W-B</text><text style="&st18;" transform="matrix(&st16;  2146.58  352.2 )">(ILL-)</text><text style="&st18;" transform="matrix(&st16;  2146.58  173.73 )">(ILL-)</text><text ewd:textID="5" style="&st18;" transform="matrix(&st16;  2156.11  54.75 )">* 2 :sin sistema de entrada y arranque sin llave</text><text ewd:textID="4" style="&st18;" transform="matrix(&st16;  2156.11  46.25 )">* 1 :con sistema de entrada y arranque sin llave</text><text ewd:textID="11" style="&st18;" transform="matrix(&st16;  2156.11  71.74 )">* 8 :Fabricado por TMMR</text><text ewd:textID="10" style="&st18;" transform="matrix(&st16;  2156.11  63.24 )">* 7 :Hecho en TMC</text><text style="&st18;" transform="matrix(&st16;  2439.89  168.06 )">W-B</text><text style="&st18;" transform="matrix(&st16;  2140.43  649.65 )">(GNDA)</text><text style="&st18;" transform="matrix(&st16;  2083.88  648.21 )">I172</text><text style="&st18;" transform="matrix(&st16;  2210.43  643.98 )">W-B</text><text ewd:textID="200" style="&st18;" transform="matrix(&st16; 2083.88 655.31)">Sensor de la <tspan x="0" dy="6" style="&st18;">velocidad de viraje</tspan></text><text ewd:textID="3" style="&st18;" transform="matrix(&st16;  2006.66  32.08 )">(Protegido)</text><text ewd:textID="3" style="&st18;" transform="matrix(&st16;  2006.66  57.58 )">(Protegido)</text><text ewd:textID="3" style="&st18;" transform="matrix(&st16;  2006.66  83.07 )">(Protegido)</text><text ewd:textID="29" style="&st18;" transform="matrix(&st16;  2156.11  80.24 )">*27 :Anterior a la producción de septiembre de 2014</text><text ewd:textID="30" style="&st18;" transform="matrix(&st16;  2156.11  88.74 )">*28 :Desde la producción de septiembre de 2014</text><text ewd:textID="31" style="&st18;" transform="matrix(&st16;  2156.11  97.24 )">*29 :con memoria de posiciones del asiento</text><text ewd:textID="36" style="&st18;" transform="matrix(&st16;  2156.11  105.74 )">*34 :con conjunto del receptor de radio y pantalla</text><text ewd:textID="37" style="&st18;" transform="matrix(&st16;  2156.11  114.24 )">*35 :con conjunto de receptor de navegación</text><text ewd:textID="38" style="&st18;" transform="matrix(&st16;  2156.11  122.73 )">*36 :con conjunto del receptor de radio</text><text ewd:textID="190" style="&st18;" transform="matrix(&st16; 2083.88 537.33)">Interruptor de control de la <tspan dy="6" x="0">transmisión (conjunto inferior </tspan><tspan dy="6" x="0">de la palanca de cambios)</tspan></text><text ewd:textID="171" style="&st18;" transform="matrix(&st16;  2083.88  247.38 )">Conjunto del interruptor<tspan dy="6" x="0"> del parasol trasero</tspan></text><text style="&st18;" transform="matrix(&st16;  2439.89  236.05 )">W-B</text><text style="&st18;" transform="matrix(&st16;  2439.89  312.54 )">W-B</text><text style="&st18;" transform="matrix(&st16;  2441.8  323.87 )">(*1)</text><text style="&st18;" transform="matrix(&st16;  2439.89  380.52 )">W-B</text><text style="&st18;" transform="matrix(&st16;  2441.41  391.86 )">(*2)</text><text style="&st18;" transform="matrix(&st16;  2442.79  431.52 )">BR</text><text style="&st18;" transform="matrix(&st16;  2439.89  465.51 )">W-B</text><text style="&st18;" transform="matrix(&st16;  2083.88  240.27 )">I196</text><text style="&st18;" transform="matrix(&st16;  2151.87  275.71 )">(E2)</text><text style="&st18;" transform="matrix(&st16;  2152.65  241.71 )">(E1)</text><text style="&st18;" transform="matrix(&st16;  2210.43  575.99 )">W-B</text><text style="&st18;" transform="matrix(&st16;  2213.33  270.04 )">BR</text><text style="&st18;" transform="matrix(&st16;  2209.97  281.37 )">(*28)</text><text style="&st18;" transform="matrix(&st16;  2210.43  236.05 )">W-B</text><text style="&st18;" transform="matrix(&st16;  2209.97  247.38 )">(*28)</text><text style="&st18;" transform="matrix(&st16;  2439.43  442.85 )">(*27)</text><text style="&st18;" transform="matrix(&st16;  2439.43  476.84 )">(*27)</text><text style="&st18;" transform="matrix(&st16;  2439.89  525.0 )">W-B</text><text style="&st18;" transform="matrix(&st16;  2441.41  536.33 )">(*8)</text><text style="&st18;" transform="matrix(&st17;  2333.41  289.94 )">W-B</text></svg>