﻿<?xml version="1.0" encoding="utf-8"?>
<!DOCTYPE svg PUBLIC "-//W3C//DTD SVG 1.0//EN" "http://www.w3.org/TR/2001/REC-SVG-20010904/DTD/svg10.dtd"[
	<!ENTITY ns_flows "http://ns.adobe.com/Flows/1.0/">
	<!ENTITY ns_svg "http://www.w3.org/2000/svg">
	<!ENTITY ns_xlink "http://www.w3.org/1999/xlink">
	<!ENTITY st0 "font-size:7px;font-family:'MS-PGothic';adobe-font-script:japanese;">
	<!ENTITY st1 "font-size:6px;font-family:'ArialMT';">
	<!-- White fill  -->
	<!ENTITY st2 "fill:#FFFFFF;stroke:#000000; stroke-width:1.41;stroke-linecap:round;stroke-linejoin:round;">
	<!-- Yellow fill  -->
	<!ENTITY st3 "fill:#FFFFCC;stroke:#FFFFCC; stroke-width:0.1;stroke-linecap:round;stroke-linejoin:round;">
	<!-- Gray fill  -->
	<!ENTITY st4 "fill:#CCCCCC;stroke:#CCCCCC; stroke-width:0.1;stroke-linecap:round;stroke-linejoin:round;">
	<!-- Light-blue fill -->
	<!ENTITY st5 "fill:#CCECF4;stroke:#000000; stroke-width:1.133;stroke-linecap:round;stroke-linejoin:round;">
	<!ENTITY st6 "fill:none;stroke-linecap:butt; stroke-linejoin:round;">
	<!ENTITY st7 "fill:none;stroke:#000000;stroke-linecap:round;stroke-linejoin:round;">
	<!ENTITY st8 "enable-background:new    ;">
	<!-- Black fill -->
	<!ENTITY st9 "fill:#000000;stroke:#000000; stroke-linecap:round;stroke-linejoin:round;">
	<!-- SRS note   -->
	<!ENTITY st10 "font-size:9px;font-family:'ArialMT';">
	<!ENTITY st11 "font-size:9px;font-family:'Svg Symbol';">
	<!ENTITY st12 "font-size:6px;font-family:'Svg Symbol';">
	<!ENTITY st13 "fill:none;stroke:#ff0000;stroke-linecap:round;stroke-linejoin:round;">
	<!-- Yellow fill  -->
	<!ENTITY st14 "fill:#FFFF00;stroke:#FFFF00; stroke-width:0.1;stroke-linecap:round;stroke-linejoin:round;">
	<!ENTITY st15 "font-size:6px;font-family:'MS-PGothic';adobe-font-script:japanese;">
	<!ENTITY st16 "1.00 0.00 0.00 1.00">
	<!ENTITY st17 "0.00 -1.00 1.00 0.00">
	<!ENTITY st18 "font-size:6px;font-family:'Arial';">
	<!ENTITY st19 "font-size:9px;font-family:'Arial';">
	<!ENTITY st20 "font-size:6px;font-family:'MS-PGothic','MS PGothic';adobe-font-script:japanese;">
	<!ENTITY st21 "font-size:7px;font-family:'MS-PGothic','MS PGothic';adobe-font-script:japanese;">
	<!ATTLIST svg
		xmlns:ewd CDATA #FIXED "http://shcl.co.jp/ewd"
		xmlns:a CDATA #FIXED "http://ns.adobe.com/AdobeSVGViewerExtensions/3.0/"
		ewd:ver CDATA #IMPLIED
	>
	<!ATTLIST a
		ewd:lineID CDATA #IMPLIED
		ewd:groupID CDATA #IMPLIED
		ewd:figtype CDATA #IMPLIED
		ewd:code CDATA #IMPLIED
		ewd:figID CDATA #IMPLIED
		ewd:pinNo CDATA #IMPLIED
		ewd:comment CDATA #IMPLIED >
	<!ATTLIST g
		ewd:lineID CDATA #IMPLIED
		ewd:groupID CDATA #IMPLIED
		ewd:figtype CDATA #IMPLIED
		ewd:code CDATA #IMPLIED
		ewd:figID CDATA #IMPLIED
		ewd:pinNo CDATA #IMPLIED
		ewd:comment CDATA #IMPLIED >
	<!ATTLIST text
		ewd:textID CDATA #IMPLIED
		ewd:horAlign CDATA #IMPLIED >
	<!ATTLIST title
		ewd:textID CDATA #IMPLIED >
]>
<!-- Generator: Shintec Hozumi YS   -->
<svg onload="call_execInitLoadProc_svg('system')" style="overflow:visible;  enable-background:new 0 0 1029.036 710.000" viewBox="0 0 1036.834 710.000" height="710.000" width="1036.834" xml:space="preserve" ewd:ver="L2.1.2.6" xmlns="&ns_svg;" xmlns:ewd="http://shcl.co.jp/ewd" xmlns:a="http://ns.adobe.com/AdobeSVGViewerExtensions/3.0/" xmlns:xlink="&ns_xlink;">
<path d=" M  696.88,  521.61  L  702.55,  498.95 " style="stroke-width: 1.42 ;&st7; " /><path d=" M  696.88,  498.95  L  696.88,  486.20 " style="stroke-width: 0.85 ;&st7; " /><path d=" M  800.99,  469.21  L  796.74,  469.21 " style="stroke-width: 1.42 ;&st7; " /><path d=" M  800.99,  460.71  L  796.74,  460.71 " style="stroke-width: 1.42 ;&st7; " /><path d=" M  800.99,  426.71  L  796.74,  426.71 " style="stroke-width: 1.42 ;&st7; " /><path d=" M  800.99,  418.22  L  796.74,  418.22 " style="stroke-width: 1.42 ;&st7; " /><path d=" M  750.00,  375.72  L  745.75,  375.72 " style="stroke-width: 1.42 ;&st7; " /><path d=" M  750.00,  384.22  L  745.75,  384.22 " style="stroke-width: 1.42 ;&st7; " /><path d=" M  834.99,  248.24  L  830.74,  248.24 " style="stroke-width: 1.42 ;&st7; " /><path d=" M  834.99,  239.75  L  830.74,  239.75 " style="stroke-width: 1.42 ;&st7; " /><path d=" M  631.02,  375.72  L  626.77,  375.72 " style="stroke-width: 1.42 ;&st7; " /><path d=" M  631.02,  384.22  L  626.77,  384.22 " style="stroke-width: 1.42 ;&st7; " /><path d=" M  580.03,  248.24  L  575.78,  248.24 " style="stroke-width: 1.42 ;&st7; " /><path d=" M  580.03,  239.75  L  575.78,  239.75 " style="stroke-width: 1.42 ;&st7; " /><path d=" M  580.03,  171.76  L  575.78,  171.76 " style="stroke-width: 1.42 ;&st7; " /><path d=" M  580.03,  163.26  L  575.78,  163.26 " style="stroke-width: 1.42 ;&st7; " /><path d=" M  554.53,  171.76  L  550.28,  171.76 " style="stroke-width: 1.42 ;&st7; " /><path d=" M  554.53,  163.26  L  550.28,  163.26 " style="stroke-width: 1.42 ;&st7; " /><path d=" M  577.90,  214.25  L  577.90,  222.75 " style="stroke-width: 0.85 ;&st7; " /><path d=" M  577.90,  188.75  L  577.90,  197.25 " style="stroke-width: 0.85 ;&st7; " /><path d=" M  552.41,  193.00  L  552.41,  188.75 " style="stroke-width: 0.85 ;&st7; " /><path d=" M  552.41,  222.75  L  552.41,  218.50 " style="stroke-width: 0.85 ;&st7; " /><path d=" M  552.41,  215.67  L  546.74,  193.00 " style="stroke-width: 1.42 ;&st7; " /><path d=" M  554.53,  103.77  L  550.28,  103.77 " style="stroke-width: 1.42 ;&st7; " /><path d=" M  554.53,   95.27  L  550.28,   95.27 " style="stroke-width: 1.42 ;&st7; " /><path d=" M  552.41,   69.77  L  552.41,   95.27 " style="stroke-width: 0.85 ;&st7; " /><path d=" M  834.99,  103.77  L  830.74,  103.77 " style="stroke-width: 1.42 ;&st7; " /><path d=" M  834.99,   95.27  L  830.74,   95.27 " style="stroke-width: 1.42 ;&st7; " /><path d=" M  832.86,   69.77  L  832.86,   95.27 " style="stroke-width: 0.85 ;&st7; " /><path d=" M  699.01,  375.72  L  694.76,  375.72 " style="stroke-width: 1.42 ;&st7; " /><path d=" M  699.01,  384.22  L  694.76,  384.22 " style="stroke-width: 1.42 ;&st7; " /><path d=" M  900.85,  610.16  L  895.88,  605.18 " style="stroke-width: 1.42 ;&st7; " /><path d=" M  883.85,  617.21  L  888.82,  622.18 " style="stroke-width: 1.42 ;&st7; " /><path d=" M  895.88,  622.18  L  900.85,  617.21 " style="stroke-width: 1.42 ;&st7; " /><path d=" M  888.82,  605.18  L  883.85,  610.16 " style="stroke-width: 1.42 ;&st7; " /><path d=" M  665.01,  375.72  L  660.76,  375.72 " style="stroke-width: 1.42 ;&st7; " /><path d=" M  665.01,  384.22  L  660.76,  384.22 " style="stroke-width: 1.42 ;&st7; " /><path d=" M  696.88,  524.45  L  696.88,  537.20 " style="stroke-width: 0.85 ;&st7; " /><path d=" M  679.89,  537.20  L  713.88,  537.20  L  713.88,  486.20  L  679.89,  486.20  L  679.89,  537.20 " style="stroke-width: 1.42 ;&st7; " /><path d=" M  797.45,  710.00  L  800.28,  710.00 " style="stroke-width: 0.85 ;&st7; " /><path d=" M  796.03,  707.17  L  801.70,  707.17 " style="stroke-width: 0.85 ;&st7; " /><path d=" M  794.62,  704.33  L  803.12,  704.33 " style="stroke-width: 0.85 ;&st7; " /><path d=" M  790.37,  701.50  L  807.36,  701.50 " style="stroke-width: 0.85 ;&st7; " /><path d=" M  798.87,  697.25  L  798.87,  701.50 " style="stroke-width: 0.85 ;&st7; " /><path d=" M  798.87,  460.71  L  798.87,  426.71 " style="stroke-width: 0.85 ;&st7; " /><path d=" M  798.87,  455.81  L  796.03,  452.98  L  796.03,  457.23  L  798.87,  460.06  L  801.70,  457.23  L  801.70,  452.98  L  798.87,  455.81 " style="stroke-width: 0.28 ;&st9;" /><path d=" M  798.87,  431.61  L  801.70,  434.44  L  801.70,  430.19  L  798.87,  427.36  L  796.03,  430.19  L  796.03,  434.44  L  798.87,  431.61 " style="stroke-width: 0.28 ;&st9;" /><path d=" M  746.46,  710.00  L  749.29,  710.00 " style="stroke-width: 0.85 ;&st7; " /><path d=" M  745.04,  707.17  L  750.71,  707.17 " style="stroke-width: 0.85 ;&st7; " /><path d=" M  743.63,  704.33  L  752.12,  704.33 " style="stroke-width: 0.85 ;&st7; " /><path d=" M  739.38,  701.50  L  756.37,  701.50 " style="stroke-width: 0.85 ;&st7; " /><path d=" M  747.87,  697.25  L  747.87,  701.50 " style="stroke-width: 0.85 ;&st7; " /><path d=" M  747.87,  370.83  L  745.04,  367.99  L  745.04,  372.24  L  747.87,  375.08  L  750.71,  372.24  L  750.71,  367.99  L  747.87,  370.83 " style="stroke-width: 0.28 ;&st9;" /><path d=" M  747.87,  333.23  L  747.87,  375.72 " style="stroke-width: 0.85 ;&st7; " /><path d=" M  832.86,  248.24  L  832.86,  282.24 " style="stroke-width: 0.85 ;&st7; " /><path d=" M  832.86,  253.14  L  835.69,  255.97  L  835.69,  251.72  L  832.86,  248.89  L  830.03,  251.72  L  830.03,  255.97  L  832.86,  253.14 " style="stroke-width: 0.28 ;&st9;" /><path d=" M  628.89,  370.83  L  626.06,  367.99  L  626.06,  372.24  L  628.89,  375.08  L  631.73,  372.24  L  631.73,  367.99  L  628.89,  370.83 " style="stroke-width: 0.28 ;&st9;" /><path d=" M  628.89,  333.23  L  628.89,  375.72 " style="stroke-width: 0.85 ;&st7; " /><path d=" M  552.41,  222.75  L  552.41,  248.24 " style="stroke-width: 0.85 ;&st7; " /><path d=" M  577.90,  234.85  L  575.07,  232.02  L  575.07,  236.27  L  577.90,  239.10  L  580.74,  236.27  L  580.74,  232.02  L  577.90,  234.85 " style="stroke-width: 0.28 ;&st9;" /><path d=" M  577.90,  222.75  L  577.90,  239.75 " style="stroke-width: 0.85 ;&st7; " /><path d=" M  577.90,  188.75  L  577.90,  171.76 " style="stroke-width: 0.85 ;&st7; " /><path d=" M  577.90,  176.65  L  580.74,  179.48  L  580.74,  175.24  L  577.90,  172.40  L  575.07,  175.24  L  575.07,  179.48  L  577.90,  176.65 " style="stroke-width: 0.28 ;&st9;" /><path d=" M  552.41,  176.65  L  555.24,  179.48  L  555.24,  175.24  L  552.41,  172.40  L  549.57,  175.24  L  549.57,  179.48  L  552.41,  176.65 " style="stroke-width: 0.28 ;&st9;" /><path d=" M  552.41,  171.76  L  552.41,  188.75 " style="stroke-width: 0.85 ;&st7; " /><path d=" M  586.40,  188.75  L  543.91,  188.75  L  543.91,  222.75  L  586.40,  222.75  L  586.40,  188.75 " style="stroke-width: 1.42 ;&st7; " /><path d=" M  539.66,   35.78  L  539.66,   78.27  L  565.16,   78.27  L  565.16,   35.78  L  539.66,   35.78 " style="stroke-width: 1.42 ;&st7; " /><path d=" M  552.41,   90.37  L  549.57,   87.54  L  549.57,   91.79  L  552.41,   94.62  L  555.24,   91.79  L  555.24,   87.54  L  552.41,   90.37 " style="stroke-width: 0.28 ;&st9;" /><path d=" M  628.89,  282.24  L  628.89,   69.77 " style="stroke-width: 0.85 ;&st7; " /><path d=" M  764.87,  282.24  L  764.87,   69.77 " style="stroke-width: 0.85 ;&st7; " /><path d=" M  616.15,   35.78  L  616.15,   78.27  L  641.64,   78.27  L  641.64,   35.78  L  616.15,   35.78 " style="stroke-width: 1.42 ;&st7; " /><path d=" M  696.88,  282.24  L  696.88,   69.77 " style="stroke-width: 0.85 ;&st7; " /><path d=" M  752.12,   35.78  L  752.12,   78.27  L  777.62,   78.27  L  777.62,   35.78  L  752.12,   35.78 " style="stroke-width: 1.42 ;&st7; " /><path d=" M  684.14,   35.78  L  684.14,   78.27  L  709.63,   78.27  L  709.63,   35.78  L  684.14,   35.78 " style="stroke-width: 1.42 ;&st7; " /><path d=" M  820.11,   35.78  L  820.11,   78.27  L  845.61,   78.27  L  845.61,   35.78  L  820.11,   35.78 " style="stroke-width: 1.42 ;&st7; " /><path d=" M  832.86,   90.37  L  830.03,   87.54  L  830.03,   91.79  L  832.86,   94.62  L  835.69,   91.79  L  835.69,   87.54  L  832.86,   90.37 " style="stroke-width: 0.28 ;&st9;" /><path d=" M  611.90,  282.24  L  611.90,  333.23  L  977.34,  333.23  L  977.34,  282.24  L  611.90,  282.24 " style="stroke-width: 1.42 ;&st7; " /><path d=" M  627.70,  357.72  L  627.43,  358.19  L  627.34,  358.73  L  627.43,  359.26  L  627.70,  359.73  L  628.12,  360.07  L  628.62,  360.26  L  629.17,  360.26  L  629.67,  360.07  L  630.09,  359.73  L  630.36,  359.26  L  630.45,  358.73  L  630.36,  358.19  L  630.09,  357.72  L  629.67,  357.38  L  629.17,  357.19  L  628.62,  357.19  L  628.12,  357.38  L  627.70,  357.72  L  628.10,  358.43  L  628.10,  359.02  L  628.47,  359.46  L  629.04,  359.56  L  629.55,  359.27  L  629.74,  358.73  L  629.55,  358.18  L  629.04,  357.89  L  628.47,  357.99  L  628.89,  358.73 " style="stroke-width: 0.85 ;&st7; " /><path d=" M  696.88,  370.83  L  694.05,  367.99  L  694.05,  372.24  L  696.88,  375.08  L  699.72,  372.24  L  699.72,  367.99  L  696.88,  370.83 " style="stroke-width: 0.28 ;&st9;" /><path d=" M  628.89,  358.73  L  696.88,  358.73  L  696.88,  375.72 " style="stroke-width: 0.85 ;&st7; " /><path d=" M  892.35,  697.25  L  892.35,  701.50 " style="stroke-width: 0.85 ;&st7; " /><path d=" M  883.85,  701.50  L  900.85,  701.50 " style="stroke-width: 0.85 ;&st7; " /><path d=" M  888.10,  704.33  L  896.60,  704.33 " style="stroke-width: 0.85 ;&st7; " /><path d=" M  889.52,  707.17  L  895.18,  707.17 " style="stroke-width: 0.85 ;&st7; " /><path d=" M  890.93,  710.00  L  893.77,  710.00 " style="stroke-width: 0.85 ;&st7; " /><path d=" M  662.89,  370.83  L  660.06,  367.99  L  660.06,  372.24  L  662.89,  375.08  L  665.72,  372.24  L  665.72,  367.99  L  662.89,  370.83 " style="stroke-width: 0.28 ;&st9;" /><path d=" M  661.70,  357.72  L  661.42,  358.19  L  661.33,  358.73  L  661.42,  359.26  L  661.70,  359.73  L  662.11,  360.07  L  662.62,  360.26  L  663.16,  360.26  L  663.67,  360.07  L  664.08,  359.73  L  664.35,  359.26  L  664.45,  358.73  L  664.35,  358.19  L  664.08,  357.72  L  663.67,  357.38  L  663.16,  357.19  L  662.62,  357.19  L  662.11,  357.38  L  661.70,  357.72  L  662.09,  358.43  L  662.09,  359.02  L  662.46,  359.46  L  663.04,  359.56  L  663.54,  359.27  L  663.74,  358.73  L  663.54,  358.18  L  663.04,  357.89  L  662.46,  357.99  L  662.89,  358.73 " style="stroke-width: 0.85 ;&st7; " /><path d=" M  662.89,  358.73  L  662.89,  375.72 " style="stroke-width: 0.85 ;&st7; " /><path d=" M  932.01,  707.17  L  937.68,  707.17 " style="stroke-width: 0.85 ;&st7; " /><path d=" M  930.59,  704.33  L  939.09,  704.33 " style="stroke-width: 0.85 ;&st7; " /><path d=" M  926.34,  701.50  L  943.34,  701.50 " style="stroke-width: 0.85 ;&st7; " /><path d=" M  933.43,  710.00  L  936.26,  710.00 " style="stroke-width: 0.85 ;&st7; " /><path d=" M  934.84,  697.25  L  934.84,  701.50 " style="stroke-width: 0.85 ;&st7; " /><path d=" M  892.35,  537.20  L  892.35,  520.20 " style="stroke-width: 0.85 ;&st7; " /><path d=" M  893.77,  511.70  L  924.93,  511.70 " style="stroke-width: 0.85 ;&st7; " /><path d=" M  893.77,  494.70  L  924.93,  494.70 " style="stroke-width: 0.85 ;&st7; " /><path d=" M  893.77,  477.71  L  992.92,  477.71 " style="stroke-width: 0.85 ;&st7; " /><path d=" M  927.76,  511.70  L  958.92,  511.70 " style="stroke-width: 0.85 ;&st7; " /><path d=" M  824.36,  418.22  L  824.36,  537.20  L 1028.33,  537.20  L 1028.33,  418.22  L  824.36,  418.22 " style="stroke-width: 1.42 ;&st7; " /><path d=" M  841.36,  435.21  L  841.36,  520.20  L 1011.33,  520.20  L 1011.33,  435.21  L  841.36,  435.21 " style="stroke-width: 1.42 ;&st7; " /><path d=" M  875.35,  435.21  L  875.35,  520.20 " style="stroke-width: 0.85 ;&st7; " /><path d=" M  841.36,  486.20  L 1011.33,  486.20 " style="stroke-width: 0.85 ;&st7; " /><path d=" M  841.36,  503.20  L 1011.33,  503.20 " style="stroke-width: 0.85 ;&st7; " /><path d=" M  909.35,  435.21  L  909.35,  520.20 " style="stroke-width: 0.85 ;&st7; " /><path d=" M  943.34,  435.21  L  943.34,  520.20 " style="stroke-width: 0.85 ;&st7; " /><path d=" M  841.36,  469.21  L 1011.33,  469.21 " style="stroke-width: 0.85 ;&st7; " /><path d=" M  841.36,  452.21  L 1011.33,  452.21 " style="stroke-width: 0.85 ;&st7; " /><path d=" M  960.34,  418.22  L  960.34,  435.21 " style="stroke-width: 0.85 ;&st7; " /><path d=" M  977.34,  435.21  L  977.34,  520.20 " style="stroke-width: 0.85 ;&st7; " /><path d=" M  550.28,  163.26  C  547.94   163.26   546.03   165.16   546.03   167.51 " style="stroke-width: 1.42 ;&st7; " /><path d=" M  577.90,  214.25  C  579.86   214.25   581.44   212.66   581.44   210.71 " style="stroke-width: 0.85 ;&st7; " /><path d=" M  581.44,  210.71  C  581.44   208.75   579.86   207.17   577.90   207.17 " style="stroke-width: 0.85 ;&st7; " /><path d=" M  577.90,  207.17  C  576.91   207.17   576.07   207.52   575.37   208.23 " style="stroke-width: 0.85 ;&st7; " /><path d=" M  575.37,  208.23  C  576.74   209.63   578.99   209.65   580.38   208.28 " style="stroke-width: 0.85 ;&st7; " /><path d=" M  580.38,  208.28  C  581.78   206.91   581.80   204.67   580.43   203.27 " style="stroke-width: 0.85 ;&st7; " /><path d=" M  580.43,  203.27  C  579.06   201.88   576.82   201.85   575.42   203.22 " style="stroke-width: 0.85 ;&st7; " /><path d=" M  575.42,  203.22  C  575.41   203.24   575.39   203.25   575.37   203.27 " style="stroke-width: 0.85 ;&st7; " /><path d=" M  575.37,  203.27  C  576.74   204.67   578.99   204.69   580.38   203.32 " style="stroke-width: 0.85 ;&st7; " /><path d=" M  580.38,  203.32  C  581.78   201.95   581.80   199.71   580.43   198.31 " style="stroke-width: 0.85 ;&st7; " /><path d=" M  580.43,  198.31  C  579.74   197.61   578.89   197.25   577.90   197.25 " style="stroke-width: 0.85 ;&st7; " /><path d=" M  553.82,  194.42  C  553.82   193.64   553.19   193.00   552.41   193.00 " style="stroke-width: 0.85 ;&st7; " /><path d=" M  552.41,  193.00  C  551.63   193.00   550.99   193.64   550.99   194.42 " style="stroke-width: 0.85 ;&st7; " /><path d=" M  550.99,  194.42  C  550.99   195.20   551.63   195.84   552.41   195.84 " style="stroke-width: 0.85 ;&st7; " /><path d=" M  552.41,  195.84  C  553.19   195.84   553.82   195.20   553.82   194.42 " style="stroke-width: 0.85 ;&st7; " /><path d=" M  553.82,  217.08  C  553.82   216.30   553.19   215.67   552.41   215.67 " style="stroke-width: 0.85 ;&st7; " /><path d=" M  552.41,  215.67  C  551.63   215.67   550.99   216.30   550.99   217.08 " style="stroke-width: 0.85 ;&st7; " /><path d=" M  550.99,  217.08  C  550.99   217.86   551.63   218.50   552.41   218.50 " style="stroke-width: 0.85 ;&st7; " /><path d=" M  552.41,  218.50  C  553.19   218.50   553.82   217.86   553.82   217.08 " style="stroke-width: 0.85 ;&st7; " /><path d=" M  552.41,   47.11  C  551.55    50.03   552.21    52.92   554.25    55.18 " style="stroke-width: 1.42 ;&st7; " /><path d=" M  552.41,   47.11  C  550.24    50.13   550.24    54.00   552.41    57.03 " style="stroke-width: 1.42 ;&st7; " /><path d=" M  552.41,   47.11  C  548.69    49.88   547.87    55.10   550.57    58.87 " style="stroke-width: 1.42 ;&st7; " /><path d=" M  552.41,   66.94  C  556.13    64.17   556.94    58.96   554.25    55.19 " style="stroke-width: 1.42 ;&st7; " /><path d=" M  552.41,   66.94  C  554.58    63.92   554.58    60.05   552.41    57.03 " style="stroke-width: 1.42 ;&st7; " /><path d=" M  552.41,   66.94  C  553.26    64.02   552.60    61.13   550.57    58.87 " style="stroke-width: 1.42 ;&st7; " /><path d=" M  553.82,   45.69  C  553.82    44.91   553.19    44.28   552.41    44.28 " style="stroke-width: 0.85 ;&st7; " /><path d=" M  552.41,   44.28  C  551.63    44.28   550.99    44.91   550.99    45.69 " style="stroke-width: 0.85 ;&st7; " /><path d=" M  550.99,   45.69  C  550.99    46.48   551.63    47.11   552.41    47.11 " style="stroke-width: 0.85 ;&st7; " /><path d=" M  552.41,   47.11  C  553.19    47.11   553.82    46.48   553.82    45.69 " style="stroke-width: 0.85 ;&st7; " /><path d=" M  553.82,   68.36  C  553.82    67.57   553.19    66.94   552.41    66.94 " style="stroke-width: 0.85 ;&st7; " /><path d=" M  552.41,   66.94  C  551.63    66.94   550.99    67.57   550.99    68.36 " style="stroke-width: 0.85 ;&st7; " /><path d=" M  550.99,   68.36  C  550.99    69.14   551.63    69.77   552.41    69.77 " style="stroke-width: 0.85 ;&st7; " /><path d=" M  552.41,   69.77  C  553.19    69.77   553.82    69.14   553.82    68.36 " style="stroke-width: 0.85 ;&st7; " /><path d=" M  558.78,   99.52  C  558.78    97.17   556.88    95.27   554.53    95.27 " style="stroke-width: 1.42 ;&st7; " /><path d=" M  554.53,  103.77  C  556.88   103.77   558.78   101.87   558.78    99.52 " style="stroke-width: 1.42 ;&st7; " /><path d=" M  546.03,   99.52  C  546.03   101.87   547.94   103.77   550.28   103.77 " style="stroke-width: 1.42 ;&st7; " /><path d=" M  550.28,   95.27  C  547.94    95.27   546.03    97.17   546.03    99.52 " style="stroke-width: 1.42 ;&st7; " /><path d=" M  630.31,   68.36  C  630.31    67.57   629.68    66.94   628.89    66.94 " style="stroke-width: 0.85 ;&st7; " /><path d=" M  628.89,   66.94  C  628.11    66.94   627.48    67.57   627.48    68.36 " style="stroke-width: 0.85 ;&st7; " /><path d=" M  627.48,   68.36  C  627.48    69.14   628.11    69.77   628.89    69.77 " style="stroke-width: 0.85 ;&st7; " /><path d=" M  628.89,   69.77  C  629.68    69.77   630.31    69.14   630.31    68.36 " style="stroke-width: 0.85 ;&st7; " /><path d=" M  630.31,   45.69  C  630.31    44.91   629.68    44.28   628.89    44.28 " style="stroke-width: 0.85 ;&st7; " /><path d=" M  628.89,   44.28  C  628.11    44.28   627.48    44.91   627.48    45.69 " style="stroke-width: 0.85 ;&st7; " /><path d=" M  627.48,   45.69  C  627.48    46.48   628.11    47.11   628.89    47.11 " style="stroke-width: 0.85 ;&st7; " /><path d=" M  628.89,   47.11  C  629.68    47.11   630.31    46.48   630.31    45.69 " style="stroke-width: 0.85 ;&st7; " /><path d=" M  628.89,   66.94  C  631.63    65.33   632.54    61.80   630.93    59.06 " style="stroke-width: 1.42 ;&st7; " /><path d=" M  630.93,   59.06  C  630.41    58.18   629.78    57.55   628.89    57.03 " style="stroke-width: 1.42 ;&st7; " /><path d=" M  628.89,   47.11  C  626.16    48.72   625.25    52.25   626.86    54.99 " style="stroke-width: 1.42 ;&st7; " /><path d=" M  626.86,   54.99  C  627.38    55.87   628.01    56.51   628.89    57.03 " style="stroke-width: 1.42 ;&st7; " /><path d=" M  766.29,   68.36  C  766.29    67.57   765.65    66.94   764.87    66.94 " style="stroke-width: 0.85 ;&st7; " /><path d=" M  764.87,   66.94  C  764.09    66.94   763.46    67.57   763.46    68.36 " style="stroke-width: 0.85 ;&st7; " /><path d=" M  763.46,   68.36  C  763.46    69.14   764.09    69.77   764.87    69.77 " style="stroke-width: 0.85 ;&st7; " /><path d=" M  764.87,   69.77  C  765.65    69.77   766.29    69.14   766.29    68.36 " style="stroke-width: 0.85 ;&st7; " /><path d=" M  766.29,   45.69  C  766.29    44.91   765.65    44.28   764.87    44.28 " style="stroke-width: 0.85 ;&st7; " /><path d=" M  764.87,   44.28  C  764.09    44.28   763.46    44.91   763.46    45.69 " style="stroke-width: 0.85 ;&st7; " /><path d=" M  763.46,   45.69  C  763.46    46.48   764.09    47.11   764.87    47.11 " style="stroke-width: 0.85 ;&st7; " /><path d=" M  764.87,   47.11  C  765.65    47.11   766.29    46.48   766.29    45.69 " style="stroke-width: 0.85 ;&st7; " /><path d=" M  764.87,   66.94  C  767.61    65.33   768.52    61.80   766.91    59.06 " style="stroke-width: 1.42 ;&st7; " /><path d=" M  766.91,   59.06  C  766.39    58.18   765.75    57.55   764.87    57.03 " style="stroke-width: 1.42 ;&st7; " /><path d=" M  764.87,   47.11  C  762.13    48.72   761.22    52.25   762.84    54.99 " style="stroke-width: 1.42 ;&st7; " /><path d=" M  762.84,   54.99  C  763.35    55.87   763.99    56.51   764.87    57.03 " style="stroke-width: 1.42 ;&st7; " /><path d=" M  698.30,   68.36  C  698.30    67.57   697.67    66.94   696.88    66.94 " style="stroke-width: 0.85 ;&st7; " /><path d=" M  696.88,   66.94  C  696.10    66.94   695.47    67.57   695.47    68.36 " style="stroke-width: 0.85 ;&st7; " /><path d=" M  695.47,   68.36  C  695.47    69.14   696.10    69.77   696.88    69.77 " style="stroke-width: 0.85 ;&st7; " /><path d=" M  696.88,   69.77  C  697.67    69.77   698.30    69.14   698.30    68.36 " style="stroke-width: 0.85 ;&st7; " /><path d=" M  698.30,   45.69  C  698.30    44.91   697.67    44.28   696.88    44.28 " style="stroke-width: 0.85 ;&st7; " /><path d=" M  696.88,   44.28  C  696.10    44.28   695.47    44.91   695.47    45.69 " style="stroke-width: 0.85 ;&st7; " /><path d=" M  695.47,   45.69  C  695.47    46.48   696.10    47.11   696.88    47.11 " style="stroke-width: 0.85 ;&st7; " /><path d=" M  696.88,   47.11  C  697.67    47.11   698.30    46.48   698.30    45.69 " style="stroke-width: 0.85 ;&st7; " /><path d=" M  696.88,   66.94  C  699.62    65.33   700.53    61.80   698.92    59.06 " style="stroke-width: 1.42 ;&st7; " /><path d=" M  698.92,   59.06  C  698.40    58.18   697.77    57.55   696.88    57.03 " style="stroke-width: 1.42 ;&st7; " /><path d=" M  696.88,   47.11  C  694.15    48.72   693.23    52.25   694.85    54.99 " style="stroke-width: 1.42 ;&st7; " /><path d=" M  694.85,   54.99  C  695.37    55.87   696.00    56.51   696.88    57.03 " style="stroke-width: 1.42 ;&st7; " /><path d=" M  839.23,   99.52  C  839.23    97.17   837.33    95.27   834.99    95.27 " style="stroke-width: 1.42 ;&st7; " /><path d=" M  834.99,  103.77  C  837.33   103.77   839.23   101.87   839.23    99.52 " style="stroke-width: 1.42 ;&st7; " /><path d=" M  826.49,   99.52  C  826.49   101.87   828.39   103.77   830.74   103.77 " style="stroke-width: 1.42 ;&st7; " /><path d=" M  830.74,   95.27  C  828.39    95.27   826.49    97.17   826.49    99.52 " style="stroke-width: 1.42 ;&st7; " /><path d=" M  834.28,   68.36  C  834.28    67.57   833.64    66.94   832.86    66.94 " style="stroke-width: 0.85 ;&st7; " /><path d=" M  832.86,   66.94  C  832.08    66.94   831.44    67.57   831.44    68.36 " style="stroke-width: 0.85 ;&st7; " /><path d=" M  831.44,   68.36  C  831.44    69.14   832.08    69.77   832.86    69.77 " style="stroke-width: 0.85 ;&st7; " /><path d=" M  832.86,   69.77  C  833.64    69.77   834.28    69.14   834.28    68.36 " style="stroke-width: 0.85 ;&st7; " /><path d=" M  834.28,   45.69  C  834.28    44.91   833.64    44.28   832.86    44.28 " style="stroke-width: 0.85 ;&st7; " /><path d=" M  832.86,   44.28  C  832.08    44.28   831.44    44.91   831.44    45.69 " style="stroke-width: 0.85 ;&st7; " /><path d=" M  831.44,   45.69  C  831.44    46.48   832.08    47.11   832.86    47.11 " style="stroke-width: 0.85 ;&st7; " /><path d=" M  832.86,   47.11  C  833.64    47.11   834.28    46.48   834.28    45.69 " style="stroke-width: 0.85 ;&st7; " /><path d=" M  832.86,   66.94  C  835.60    65.33   836.51    61.80   834.90    59.06 " style="stroke-width: 1.42 ;&st7; " /><path d=" M  834.90,   59.06  C  834.38    58.18   833.74    57.55   832.86    57.03 " style="stroke-width: 1.42 ;&st7; " /><path d=" M  832.86,   47.11  C  830.12    48.72   829.21    52.25   830.82    54.99 " style="stroke-width: 1.42 ;&st7; " /><path d=" M  830.82,   54.99  C  831.34    55.87   831.98    56.51   832.86    57.03 " style="stroke-width: 1.42 ;&st7; " /><path d=" M  805.24,  464.96  C  805.24   462.61   803.34   460.71   800.99   460.71 " style="stroke-width: 1.42 ;&st7; " /><path d=" M  694.76,  375.72  C  692.41   375.72   690.51   377.63   690.51   379.97 " style="stroke-width: 1.42 ;&st7; " /><path d=" M  690.51,  379.97  C  690.51   382.32   692.41   384.22   694.76   384.22 " style="stroke-width: 1.42 ;&st7; " /><path d=" M  699.01,  384.22  C  701.35   384.22   703.26   382.32   703.26   379.97 " style="stroke-width: 1.42 ;&st7; " /><path d=" M  703.26,  379.97  C  703.26   377.63   701.35   375.72   699.01   375.72 " style="stroke-width: 1.42 ;&st7; " /><path d=" M  964.87,  337.76  C  964.87   335.26   962.84   333.23   960.34   333.23 " style="stroke-width: 1.42 ;&st7; " /><path d=" M  960.34,  333.23  C  957.84   333.23   955.81   335.26   955.81   337.76 " style="stroke-width: 1.42 ;&st7; " /><path d=" M  955.81,  337.76  C  955.81   340.27   957.84   342.29   960.34   342.29 " style="stroke-width: 1.42 ;&st7; " /><path d=" M  960.34,  342.29  C  962.84   342.29   964.87   340.27   964.87   337.76 " style="stroke-width: 1.42 ;&st7; " /><path d=" M  660.76,  375.72  C  658.42   375.72   656.52   377.63   656.52   379.97 " style="stroke-width: 1.42 ;&st7; " /><path d=" M  656.52,  379.97  C  656.52   382.32   658.42   384.22   660.76   384.22 " style="stroke-width: 1.42 ;&st7; " /><path d=" M  665.01,  384.22  C  667.36   384.22   669.26   382.32   669.26   379.97 " style="stroke-width: 1.42 ;&st7; " /><path d=" M  669.26,  379.97  C  669.26   377.63   667.36   375.72   665.01   375.72 " style="stroke-width: 1.42 ;&st7; " /><path d=" M  964.87,  413.68  C  964.87   411.18   962.84   409.15   960.34   409.15 " style="stroke-width: 1.42 ;&st7; " /><path d=" M  960.34,  409.15  C  957.84   409.15   955.81   411.18   955.81   413.68 " style="stroke-width: 1.42 ;&st7; " /><path d=" M  955.81,  413.68  C  955.81   416.19   957.84   418.22   960.34   418.22 " style="stroke-width: 1.42 ;&st7; " /><path d=" M  960.34,  418.22  C  962.84   418.22   964.87   416.19   964.87   413.68 " style="stroke-width: 1.42 ;&st7; " /><path d=" M  964.87,  404.62  C  964.87   402.11   962.84   400.09   960.34   400.09 " style="stroke-width: 1.42 ;&st7; " /><path d=" M  960.34,  400.09  C  957.84   400.09   955.81   402.11   955.81   404.62 " style="stroke-width: 1.42 ;&st7; " /><path d=" M  955.81,  404.62  C  955.81   407.12   957.84   409.15   960.34   409.15 " style="stroke-width: 1.42 ;&st7; " /><path d=" M  960.34,  409.15  C  962.84   409.15   964.87   407.12   964.87   404.62 " style="stroke-width: 1.42 ;&st7; " /><path d=" M  896.88,  541.73  C  896.88   539.22   894.85   537.20   892.35   537.20 " style="stroke-width: 1.42 ;&st7; " /><path d=" M  892.35,  537.20  C  889.85   537.20   887.82   539.22   887.82   541.73 " style="stroke-width: 1.42 ;&st7; " /><path d=" M  887.82,  541.73  C  887.82   544.23   889.85   546.26   892.35   546.26 " style="stroke-width: 1.42 ;&st7; " /><path d=" M  892.35,  546.26  C  894.85   546.26   896.88   544.23   896.88   541.73 " style="stroke-width: 1.42 ;&st7; " /><path d=" M  896.88,  550.79  C  896.88   548.29   894.85   546.26   892.35   546.26 " style="stroke-width: 1.42 ;&st7; " /><path d=" M  892.35,  546.26  C  889.85   546.26   887.82   548.29   887.82   550.79 " style="stroke-width: 1.42 ;&st7; " /><path d=" M  887.82,  550.79  C  887.82   553.30   889.85   555.33   892.35   555.33 " style="stroke-width: 1.42 ;&st7; " /><path d=" M  892.35,  555.33  C  894.85   555.33   896.88   553.30   896.88   550.79 " style="stroke-width: 1.42 ;&st7; " /><path d=" M  995.75,  477.71  C  995.75   476.92   995.12   476.29   994.33   476.29 " style="stroke-width: 0.85 ;&st7; " /><path d=" M  994.33,  476.29  C  993.55   476.29   992.92   476.92   992.92   477.71 " style="stroke-width: 0.85 ;&st7; " /><path d=" M  992.92,  477.71  C  992.92   478.49   993.55   479.12   994.33   479.12 " style="stroke-width: 0.85 ;&st7; " /><path d=" M  994.33,  479.12  C  995.12   479.12   995.75   478.49   995.75   477.71 " style="stroke-width: 0.85 ;&st7; " /><path d=" M  927.76,  511.70  C  927.76   510.92   927.13   510.28   926.35   510.28 " style="stroke-width: 0.85 ;&st7; " /><path d=" M  926.35,  510.28  C  925.56   510.28   924.93   510.92   924.93   511.70 " style="stroke-width: 0.85 ;&st7; " /><path d=" M  924.93,  511.70  C  924.93   512.48   925.56   513.12   926.35   513.12 " style="stroke-width: 0.85 ;&st7; " /><path d=" M  926.35,  513.12  C  927.13   513.12   927.76   512.48   927.76   511.70 " style="stroke-width: 0.85 ;&st7; " /><path d=" M  893.77,  477.71  C  893.77   476.92   893.13   476.29   892.35   476.29 " style="stroke-width: 0.85 ;&st7; " /><path d=" M  892.35,  476.29  C  891.57   476.29   890.93   476.92   890.93   477.71 " style="stroke-width: 0.85 ;&st7; " /><path d=" M  890.93,  477.71  C  890.93   478.49   891.57   479.12   892.35   479.12 " style="stroke-width: 0.85 ;&st7; " /><path d=" M  892.35,  479.12  C  893.13   479.12   893.77   478.49   893.77   477.71 " style="stroke-width: 0.85 ;&st7; " /><path d=" M  893.77,  494.70  C  893.77   493.92   893.13   493.29   892.35   493.29 " style="stroke-width: 0.85 ;&st7; " /><path d=" M  892.35,  493.29  C  891.57   493.29   890.93   493.92   890.93   494.70 " style="stroke-width: 0.85 ;&st7; " /><path d=" M  890.93,  494.70  C  890.93   495.48   891.57   496.12   892.35   496.12 " style="stroke-width: 0.85 ;&st7; " /><path d=" M  892.35,  496.12  C  893.13   496.12   893.77   495.48   893.77   494.70 " style="stroke-width: 0.85 ;&st7; " /><path d=" M  927.76,  494.70  C  927.76   493.92   927.13   493.29   926.35   493.29 " style="stroke-width: 0.85 ;&st7; " /><path d=" M  926.35,  493.29  C  925.56   493.29   924.93   493.92   924.93   494.70 " style="stroke-width: 0.85 ;&st7; " /><path d=" M  924.93,  494.70  C  924.93   495.48   925.56   496.12   926.35   496.12 " style="stroke-width: 0.85 ;&st7; " /><path d=" M  926.35,  496.12  C  927.13   496.12   927.76   495.48   927.76   494.70 " style="stroke-width: 0.85 ;&st7; " /><path d=" M  961.76,  511.70  C  961.76   510.92   961.12   510.28   960.34   510.28 " style="stroke-width: 0.85 ;&st7; " /><path d=" M  960.34,  510.28  C  959.56   510.28   958.92   510.92   958.92   511.70 " style="stroke-width: 0.85 ;&st7; " /><path d=" M  958.92,  511.70  C  958.92   512.48   959.56   513.12   960.34   513.12 " style="stroke-width: 0.85 ;&st7; " /><path d=" M  960.34,  513.12  C  961.12   513.12   961.76   512.48   961.76   511.70 " style="stroke-width: 0.85 ;&st7; " /><path d=" M  893.77,  511.70  C  893.77   510.92   893.13   510.28   892.35   510.28 " style="stroke-width: 0.85 ;&st7; " /><path d=" M  892.35,  510.28  C  891.57   510.28   890.93   510.92   890.93   511.70 " style="stroke-width: 0.85 ;&st7; " /><path d=" M  890.93,  511.70  C  890.93   512.48   891.57   513.12   892.35   513.12 " style="stroke-width: 0.85 ;&st7; " /><path d=" M  892.35,  513.12  C  893.13   513.12   893.77   512.48   893.77   511.70 " style="stroke-width: 0.85 ;&st7; " /><path d=" M  701.42,  481.67  C  701.42   479.17   699.39   477.14   696.88   477.14 " style="stroke-width: 1.42 ;&st7; " /><path d=" M  696.88,  477.14  C  694.38   477.14   692.35   479.17   692.35   481.67 " style="stroke-width: 1.42 ;&st7; " /><path d=" M  692.35,  481.67  C  692.35   484.17   694.38   486.20   696.88   486.20 " style="stroke-width: 1.42 ;&st7; " /><path d=" M  696.88,  486.20  C  699.39   486.20   701.42   484.17   701.42   481.67 " style="stroke-width: 1.42 ;&st7; " /><path d=" M  701.42,  472.61  C  701.42   470.10   699.39   468.07   696.88   468.07 " style="stroke-width: 1.42 ;&st7; " /><path d=" M  696.88,  468.07  C  694.38   468.07   692.35   470.10   692.35   472.61 " style="stroke-width: 1.42 ;&st7; " /><path d=" M  692.35,  472.61  C  692.35   475.11   694.38   477.14   696.88   477.14 " style="stroke-width: 1.42 ;&st7; " /><path d=" M  696.88,  477.14  C  699.39   477.14   701.42   475.11   701.42   472.61 " style="stroke-width: 1.42 ;&st7; " /><path d=" M  701.42,  541.73  C  701.42   539.22   699.39   537.20   696.88   537.20 " style="stroke-width: 1.42 ;&st7; " /><path d=" M  696.88,  537.20  C  694.38   537.20   692.35   539.22   692.35   541.73 " style="stroke-width: 1.42 ;&st7; " /><path d=" M  692.35,  541.73  C  692.35   544.23   694.38   546.26   696.88   546.26 " style="stroke-width: 1.42 ;&st7; " /><path d=" M  696.88,  546.26  C  699.39   546.26   701.42   544.23   701.42   541.73 " style="stroke-width: 1.42 ;&st7; " /><path d=" M  701.42,  550.79  C  701.42   548.29   699.39   546.26   696.88   546.26 " style="stroke-width: 1.42 ;&st7; " /><path d=" M  696.88,  546.26  C  694.38   546.26   692.35   548.29   692.35   550.79 " style="stroke-width: 1.42 ;&st7; " /><path d=" M  692.35,  550.79  C  692.35   553.30   694.38   555.33   696.88   555.33 " style="stroke-width: 1.42 ;&st7; " /><path d=" M  696.88,  555.33  C  699.39   555.33   701.42   553.30   701.42   550.79 " style="stroke-width: 1.42 ;&st7; " /><path d=" M  698.30,  523.03  C  698.30   522.25   697.67   521.61   696.88   521.61 " style="stroke-width: 0.85 ;&st7; " /><path d=" M  696.88,  521.61  C  696.10   521.61   695.47   522.25   695.47   523.03 " style="stroke-width: 0.85 ;&st7; " /><path d=" M  695.47,  523.03  C  695.47   523.81   696.10   524.45   696.88   524.45 " style="stroke-width: 0.85 ;&st7; " /><path d=" M  696.88,  524.45  C  697.67   524.45   698.30   523.81   698.30   523.03 " style="stroke-width: 0.85 ;&st7; " /><path d=" M  698.30,  500.37  C  698.30   499.59   697.67   498.95   696.88   498.95 " style="stroke-width: 0.85 ;&st7; " /><path d=" M  696.88,  498.95  C  696.10   498.95   695.47   499.59   695.47   500.37 " style="stroke-width: 0.85 ;&st7; " /><path d=" M  695.47,  500.37  C  695.47   501.15   696.10   501.78   696.88   501.78 " style="stroke-width: 0.85 ;&st7; " /><path d=" M  696.88,  501.78  C  697.67   501.78   698.30   501.15   698.30   500.37 " style="stroke-width: 0.85 ;&st7; " /><path d=" M  800.99,  469.21  C  803.34   469.21   805.24   467.30   805.24   464.96 " style="stroke-width: 1.42 ;&st7; " /><path d=" M  792.49,  464.96  C  792.49   467.30   794.40   469.21   796.74   469.21 " style="stroke-width: 1.42 ;&st7; " /><path d=" M  796.74,  460.71  C  794.40   460.71   792.49   462.61   792.49   464.96 " style="stroke-width: 1.42 ;&st7; " /><path d=" M  805.24,  422.46  C  805.24   420.12   803.34   418.22   800.99   418.22 " style="stroke-width: 1.42 ;&st7; " /><path d=" M  800.99,  426.71  C  803.34   426.71   805.24   424.81   805.24   422.46 " style="stroke-width: 1.42 ;&st7; " /><path d=" M  792.49,  422.46  C  792.49   424.81   794.40   426.71   796.74   426.71 " style="stroke-width: 1.42 ;&st7; " /><path d=" M  796.74,  418.22  C  794.40   418.22   792.49   420.12   792.49   422.46 " style="stroke-width: 1.42 ;&st7; " /><path d=" M  803.40,  337.76  C  803.40   335.26   801.37   333.23   798.87   333.23 " style="stroke-width: 1.42 ;&st7; " /><path d=" M  798.87,  333.23  C  796.36   333.23   794.33   335.26   794.33   337.76 " style="stroke-width: 1.42 ;&st7; " /><path d=" M  794.33,  337.76  C  794.33   340.27   796.36   342.29   798.87   342.29 " style="stroke-width: 1.42 ;&st7; " /><path d=" M  798.87,  342.29  C  801.37   342.29   803.40   340.27   803.40   337.76 " style="stroke-width: 1.42 ;&st7; " /><path d=" M  745.75,  375.72  C  743.40   375.72   741.50   377.63   741.50   379.97 " style="stroke-width: 1.42 ;&st7; " /><path d=" M  741.50,  379.97  C  741.50   382.32   743.40   384.22   745.75   384.22 " style="stroke-width: 1.42 ;&st7; " /><path d=" M  750.00,  384.22  C  752.35   384.22   754.25   382.32   754.25   379.97 " style="stroke-width: 1.42 ;&st7; " /><path d=" M  754.25,  379.97  C  754.25   377.63   752.35   375.72   750.00   375.72 " style="stroke-width: 1.42 ;&st7; " /><path d=" M  839.23,  243.99  C  839.23   241.65   837.33   239.75   834.99   239.75 " style="stroke-width: 1.42 ;&st7; " /><path d=" M  834.99,  248.24  C  837.33   248.24   839.23   246.34   839.23   243.99 " style="stroke-width: 1.42 ;&st7; " /><path d=" M  826.49,  243.99  C  826.49   246.34   828.39   248.24   830.74   248.24 " style="stroke-width: 1.42 ;&st7; " /><path d=" M  830.74,  239.75  C  828.39   239.75   826.49   241.65   826.49   243.99 " style="stroke-width: 1.42 ;&st7; " /><path d=" M  626.77,  375.72  C  624.42   375.72   622.52   377.63   622.52   379.97 " style="stroke-width: 1.42 ;&st7; " /><path d=" M  622.52,  379.97  C  622.52   382.32   624.42   384.22   626.77   384.22 " style="stroke-width: 1.42 ;&st7; " /><path d=" M  631.02,  384.22  C  633.37   384.22   635.27   382.32   635.27   379.97 " style="stroke-width: 1.42 ;&st7; " /><path d=" M  635.27,  379.97  C  635.27   377.63   633.37   375.72   631.02   375.72 " style="stroke-width: 1.42 ;&st7; " /><path d=" M  552.41,  248.24  C  554.62   250.07   557.75   250.01   559.89   248.10 " style="stroke-width: 1.42 ;&st7; " /><path d=" M  584.28,  243.99  C  584.28   241.65   582.37   239.75   580.03   239.75 " style="stroke-width: 1.42 ;&st7; " /><path d=" M  580.03,  248.24  C  582.37   248.24   584.28   246.34   584.28   243.99 " style="stroke-width: 1.42 ;&st7; " /><path d=" M  571.53,  243.99  C  571.53   246.34   573.43   248.24   575.78   248.24 " style="stroke-width: 1.42 ;&st7; " /><path d=" M  575.78,  239.75  C  573.43   239.75   571.53   241.65   571.53   243.99 " style="stroke-width: 1.42 ;&st7; " /><path d=" M  552.41,  248.24  C  550.20   246.42   547.06   246.48   544.92   248.38 " style="stroke-width: 1.42 ;&st7; " /><path d=" M  584.28,  167.51  C  584.28   165.16   582.37   163.26   580.03   163.26 " style="stroke-width: 1.42 ;&st7; " /><path d=" M  580.03,  171.76  C  582.37   171.76   584.28   169.85   584.28   167.51 " style="stroke-width: 1.42 ;&st7; " /><path d=" M  571.53,  167.51  C  571.53   169.85   573.43   171.76   575.78   171.76 " style="stroke-width: 1.42 ;&st7; " /><path d=" M  575.78,  163.26  C  573.43   163.26   571.53   165.16   571.53   167.51 " style="stroke-width: 1.42 ;&st7; " /><path d=" M  558.78,  167.51  C  558.78   165.16   556.88   163.26   554.53   163.26 " style="stroke-width: 1.42 ;&st7; " /><path d=" M  554.53,  171.76  C  556.88   171.76   558.78   169.85   558.78   167.51 " style="stroke-width: 1.42 ;&st7; " /><path d=" M  546.03,  167.51  C  546.03   169.85   547.94   171.76   550.28   171.76 " style="stroke-width: 1.42 ;&st7; " /><text style="&st18;" transform="matrix(&st17;  795.17  527.9 )">W-B</text><text style="&st18;" transform="matrix(&st16;  783.0  466.93 )">51</text><text style="&st18;" transform="matrix(&st16;  794.56  466.93 )">3A</text><text style="&st18;" transform="matrix(&st16;  782.22  424.43 )">52</text><text style="&st18;" transform="matrix(&st16;  794.56  424.43 )">3A</text><text style="&st18;" transform="matrix(&st16;  789.19  329.53 )">GND2</text><text style="&st18;" transform="matrix(&st17;  795.17  383.42 )">W-B</text><text style="&st18;" transform="matrix(&st16;  796.54  339.73 )">A</text><text style="&st18;" transform="matrix(&st16;  787.99  339.73 )">3</text><text style="&st18;" transform="matrix(&st17;  744.18  434.41 )">W-B</text><text style="&st18;" transform="matrix(&st16;  738.68  341.42 )">11</text><text style="&st18;" transform="matrix(&st16;  738.59  329.53 )">GND1</text><text style="&st18;" transform="matrix(&st16;  743.57  381.94 )">3B</text><text style="&st18;" transform="matrix(&st16;  735.19  381.94 )">7</text><text style="&st18;" transform="matrix(&st17;  829.16  174.09 )">V</text><text style="&st18;" transform="matrix(&st16;  816.99  245.96 )">31</text><text style="&st18;" transform="matrix(&st16;  828.41  245.96 )">3D</text><text style="&st18;" transform="matrix(&st16;  754.9  278.55 )">31</text><text style="&st18;" transform="matrix(&st16;  621.62  289.87 )">ACC</text><text style="&st18;" transform="matrix(&st16;  618.15  278.55 )">29</text><text style="&st18;" transform="matrix(&st16;  618.93  341.42 )">15</text><text style="&st18;" transform="matrix(&st16;  619.64  329.53 )">HRLY</text><text style="&st18;" transform="matrix(&st16;  624.44  381.94 )">3D</text><text style="&st18;" transform="matrix(&st16;  613.03  381.94 )">12</text><text style="&st18;" transform="matrix(&st16;  822.12  278.55 )">30</text><text style="&st18;" transform="matrix(&st16;  576.31  245.96 )">1</text><text style="&st18;" transform="matrix(&st17;  548.71  131.59 )">B</text><text style="&st18;" transform="matrix(&st16;  567.07  142.56 )">B</text><text style="&st18;" transform="matrix(&st16;  571.11  185.06 )">2</text><text style="&st18;" transform="matrix(&st16;  545.62  185.06 )">5</text><text style="&st18;" transform="matrix(&st16;  576.31  169.48 )">1</text><text style="&st18;" transform="matrix(&st16;  550.82  169.48 )">1</text><text ewd:textID="7" style="&st18;" transform="matrix(&st17;  594.04  224.61 )">Relé H-LP</text><text style="&st18;" transform="matrix(&st16;  571.89  230.94 )">1</text><text style="&st18;" transform="matrix(&st16;  545.62  230.94 )">3</text><text style="&st18;" transform="matrix(&st16;  550.82  101.49 )">1</text><text style="&st18;" transform="matrix(&st16;  569.71  53.34 )">30A <tspan dy="6" x="0">H-LP- </tspan><tspan dy="6" x="0">MAIN</tspan></text><text style="&st18;" transform="matrix(&st16;  543.29  32.08 )">(BAT)</text><text style="&st18;" transform="matrix(&st17;  574.21  284.57 )">P</text><text style="&st18;" transform="matrix(&st16;  619.29  32.08 )">(ACC)</text><text style="&st18;" transform="matrix(&st16;  622.11  86.47 )">2</text><text style="&st18;" transform="matrix(&st16;  646.2  56.17 )">7.5A <tspan dy="6" x="0">ECU-ACC</tspan></text><text style="&st18;" transform="matrix(&st16;  755.76  32.08 )">(BAT)</text><text style="&st18;" transform="matrix(&st16;  758.08  86.47 )">2</text><text style="&st18;" transform="matrix(&st16;  782.18  53.34 )">20A <tspan dy="6" x="0">D/L- </tspan><tspan dy="6" x="0">AM1</tspan></text><text style="&st18;" transform="matrix(&st16;  690.81  32.08 )">(IG)</text><text style="&st18;" transform="matrix(&st16;  690.09  86.47 )">2</text><text style="&st18;" transform="matrix(&st16;  714.19  53.34 )">10A <tspan dy="6" x="0">ECU-IG1 </tspan><tspan dy="6" x="0">NO.2</tspan></text><text style="&st18;" transform="matrix(&st16;  823.75  32.08 )">(BAT)</text><text style="&st18;" transform="matrix(&st16;  826.07  86.47 )">2</text><text style="&st18;" transform="matrix(&st16;  831.27  101.49 )">1</text><text style="&st18;" transform="matrix(&st16;  850.17  53.34 )">10A <tspan dy="6" x="0">ECU-B </tspan><tspan dy="6" x="0">NO.1</tspan></text><text style="&st18;" transform="matrix(&st16;  823.25  289.87 )">BECU</text><text style="&st18;" transform="matrix(&st16;  693.14  289.87 )">IG</text><text style="&st18;" transform="matrix(&st16;  686.14  278.55 )">32</text><text style="&st18;" transform="matrix(&st16;  756.11  289.87 )">ALTB</text><text style="&st18;" transform="matrix(&st16;  692.57  381.94 )">3A</text><text style="&st18;" transform="matrix(&st16;  680.24  381.94 )">43</text><text style="&st18;" transform="matrix(&st17;  888.66  592.99 )">BR</text><text style="&st18;" transform="matrix(&st17;  888.66  659.63 )">W-B</text><text style="&st18;" transform="matrix(&st16;  945.51  339.73 )">29</text><text style="&st18;" transform="matrix(&st16;  958.01  339.73 )">B</text><text style="&st18;" transform="matrix(&st17;  956.64  378.05 )">P</text><text style="&st18;" transform="matrix(&st16;  950.73  329.53 )">HEAD</text><text style="&st18;" transform="matrix(&st16;  658.44  381.94 )">3D</text><text style="&st18;" transform="matrix(&st16;  647.02  381.94 )">13</text><text ewd:textID="15" style="&st18;" transform="matrix(&st17;  992.05  335.75 )">ECU de la carrocería principal</text><text style="&st18;" transform="matrix(&st17;  984.95  335.75 )">I12(A),I13(B)</text><text style="&st18;" transform="matrix(&st17;  931.15  659.63 )">W-B</text><text style="&st18;" transform="matrix(&st17;  942.48  661.67 )">(RHD)</text><text style="&st18;" transform="matrix(&st17;  899.99  665.67 )">(LHD,*1)</text><text style="&st18;" transform="matrix(&st16;  966.31  415.65 )">(RHD)</text><text style="&st18;" transform="matrix(&st16;  946.28  415.65 )">12</text><text style="&st18;" transform="matrix(&st16;  958.01  415.65 )">B</text><text style="&st18;" transform="matrix(&st16;  702.86  552.76 )">(*9)</text><text style="&st18;" transform="matrix(&st16;  966.31  406.59 )">(LHD)</text><text style="&st18;" transform="matrix(&st16;  946.28  406.59 )">19</text><text style="&st18;" transform="matrix(&st16;  958.01  406.59 )">A</text><text style="&st18;" transform="matrix(&st16;  898.32  543.7 )">(LHD)</text><text style="&st18;" transform="matrix(&st16;  878.3  543.7 )">15</text><text style="&st18;" transform="matrix(&st16;  890.02  543.7 )">A</text><text style="&st18;" transform="matrix(&st16;  898.32  552.76 )">(RHD)</text><text style="&st18;" transform="matrix(&st16;  878.3  552.76 )">16</text><text style="&st18;" transform="matrix(&st16;  890.02  552.76 )">B</text><text ewd:textID="12" style="&st18;" transform="matrix(&st16; 922.32 551.91)">Conjunto del interruptor de regulación<tspan dy="6" x="0"> de intensidad de la luz de los faros</tspan></text><text style="&st18;" transform="matrix(&st16; 922.32 544.81)">I25(A),(B)</text><text style="&st18;" transform="matrix(&st16;  888.04  445.68 )">EL</text><text style="&st18;" transform="matrix(&st16;  924.23  445.68 )">T</text><text style="&st18;" transform="matrix(&st16;  957.87  445.68 )">H</text><text style="&st18;" transform="matrix(&st16;  992.0  445.68 )">A</text><text style="&st18;" transform="matrix(&st16;  848.68  479.67 )">AUTO</text><text ewd:textID="17" style="&st18;" transform="matrix(&st16;  852.81  496.67 )">Trasera</text><text ewd:textID="8" style="&st18;" transform="matrix(&st16;  849.95  513.67 )">Faro</text><text ewd:textID="16" style="font-size:5px;font-family:'Arial';" transform="matrix(&st16; 842.62 462.68)">Desconectado</text><text ewd:textID="14" style="&st18;" transform="matrix(&st16;  860.67  431.52 )">Interruptor de control de las luces</text><text style="&st18;" transform="matrix(&st16;  538.68  423.02 )">GR</text><text style="&st18;" transform="matrix(&st16;  539.18  575.99 )">LG</text><text style="&st18;" transform="matrix(&st16;  963.17  426.41 )">H</text><text style="&st18;" transform="matrix(&st16;  895.18  533.51 )">EL</text><text ewd:textID="11" style="&st18;" transform="matrix(&st17;  670.24  539.72 )">Conjunto del interruptor<tspan dy="6" x="0"> del limpiador del faro</tspan></text><text style="&st18;" transform="matrix(&st17;  663.42  539.72 )">I9(A),I181(B)</text><text style="&st18;" transform="matrix(&st16;  702.86  483.64 )">(*9)</text><text style="&st18;" transform="matrix(&st16;  694.55  483.64 )">B</text><text style="&st18;" transform="matrix(&st16;  686.01  483.64 )">5</text><text style="&st18;" transform="matrix(&st16;  702.86  474.58 )">(*8)</text><text style="&st18;" transform="matrix(&st16;  694.55  474.58 )">A</text><text style="&st18;" transform="matrix(&st16;  686.78  474.58 )">1</text><text style="&st18;" transform="matrix(&st16;  686.01  543.7 )">4</text><text style="&st18;" transform="matrix(&st16;  694.55  543.7 )">A</text><text style="&st18;" transform="matrix(&st16;  702.86  543.7 )">(*8)</text><text style="&st18;" transform="matrix(&st16;  686.01  552.76 )">8</text><text style="&st18;" transform="matrix(&st16;  694.55  552.76 )">B</text><text style="&st18;" transform="matrix(&st17;  693.19  428.69 )">L</text><text style="&st18;" transform="matrix(&st16;  699.72  533.51 )">B</text><text style="&st18;" transform="matrix(&st16;  699.72  494.4 )">L</text></svg>