﻿<?xml version="1.0" encoding="utf-8"?>
<!DOCTYPE svg PUBLIC "-//W3C//DTD SVG 1.0//EN" "http://www.w3.org/TR/2001/REC-SVG-20010904/DTD/svg10.dtd"[
	<!ENTITY ns_flows "http://ns.adobe.com/Flows/1.0/">
	<!ENTITY ns_svg "http://www.w3.org/2000/svg">
	<!ENTITY ns_xlink "http://www.w3.org/1999/xlink">
	<!ENTITY st0 "font-size:7px;font-family:'MS-PGothic';adobe-font-script:japanese;">
	<!ENTITY st1 "font-size:6px;font-family:'ArialMT';">
	<!-- White fill  -->
	<!ENTITY st2 "fill:#FFFFFF;stroke:#000000; stroke-width:1.41;stroke-linecap:round;stroke-linejoin:round;">
	<!-- Yellow fill  -->
	<!ENTITY st3 "fill:#FFFFCC;stroke:#FFFFCC; stroke-width:0.1;stroke-linecap:round;stroke-linejoin:round;">
	<!-- Gray fill  -->
	<!ENTITY st4 "fill:#CCCCCC;stroke:#CCCCCC; stroke-width:0.1;stroke-linecap:round;stroke-linejoin:round;">
	<!-- Light-blue fill -->
	<!ENTITY st5 "fill:#CCECF4;stroke:#000000; stroke-width:1.133;stroke-linecap:round;stroke-linejoin:round;">
	<!ENTITY st6 "fill:none;stroke-linecap:butt; stroke-linejoin:round;">
	<!ENTITY st7 "fill:none;stroke:#000000;stroke-linecap:round;stroke-linejoin:round;">
	<!ENTITY st8 "enable-background:new    ;">
	<!-- Black fill -->
	<!ENTITY st9 "fill:#000000;stroke:#000000; stroke-linecap:round;stroke-linejoin:round;">
	<!-- SRS note   -->
	<!ENTITY st10 "font-size:9px;font-family:'ArialMT';">
	<!ENTITY st11 "font-size:9px;font-family:'Svg Symbol';">
	<!ENTITY st12 "font-size:6px;font-family:'Svg Symbol';">
	<!ENTITY st13 "fill:none;stroke:#ff0000;stroke-linecap:round;stroke-linejoin:round;">
	<!-- Yellow fill  -->
	<!ENTITY st14 "fill:#FFFF00;stroke:#FFFF00; stroke-width:0.1;stroke-linecap:round;stroke-linejoin:round;">
	<!ENTITY st15 "font-size:6px;font-family:'MS-PGothic';adobe-font-script:japanese;">
	<!ENTITY st16 "1.00 0.00 0.00 1.00">
	<!ENTITY st17 "0.00 -1.00 1.00 0.00">
	<!ENTITY st18 "font-size:6px;font-family:'Arial';">
	<!ENTITY st19 "font-size:9px;font-family:'Arial';">
	<!ENTITY st20 "font-size:6px;font-family:'MS-PGothic','MS PGothic';adobe-font-script:japanese;">
	<!ENTITY st21 "font-size:7px;font-family:'MS-PGothic','MS PGothic';adobe-font-script:japanese;">
	<!ATTLIST svg
		xmlns:ewd CDATA #FIXED "http://shcl.co.jp/ewd"
		xmlns:a CDATA #FIXED "http://ns.adobe.com/AdobeSVGViewerExtensions/3.0/"
		ewd:ver CDATA #IMPLIED
	>
	<!ATTLIST a
		ewd:lineID CDATA #IMPLIED
		ewd:groupID CDATA #IMPLIED
		ewd:figtype CDATA #IMPLIED
		ewd:code CDATA #IMPLIED
		ewd:figID CDATA #IMPLIED
		ewd:pinNo CDATA #IMPLIED
		ewd:comment CDATA #IMPLIED >
	<!ATTLIST g
		ewd:lineID CDATA #IMPLIED
		ewd:groupID CDATA #IMPLIED
		ewd:figtype CDATA #IMPLIED
		ewd:code CDATA #IMPLIED
		ewd:figID CDATA #IMPLIED
		ewd:pinNo CDATA #IMPLIED
		ewd:comment CDATA #IMPLIED >
	<!ATTLIST text
		ewd:textID CDATA #IMPLIED
		ewd:horAlign CDATA #IMPLIED >
	<!ATTLIST title
		ewd:textID CDATA #IMPLIED >
]>
<!-- Generator: Shintec Hozumi YS   -->
<svg onload="call_execInitLoadProc_svg('system')" style="overflow:visible;  enable-background:new 0 0 443.880 710.000" viewBox="0 0 484.677 710.000" height="710.000" width="484.677" xml:space="preserve" ewd:ver="L2.1.2.6" xmlns="&ns_svg;" xmlns:ewd="http://shcl.co.jp/ewd" xmlns:a="http://ns.adobe.com/AdobeSVGViewerExtensions/3.0/" xmlns:xlink="&ns_xlink;"><script type="text/javascript" xlink:href="../../../../../system/js/ewd/fig/svgfig.js" xmlns:xlink="http://www.w3.org/1999/xlink" /><defs><font horiz-adv-x="1229"><font-face font-family="Svg Symbol" units-per-em="2048" panose-1="5 5 1 2 1 7 6 2 5 7" ascent="2059" descent="450" alphabetic="0" /><missing-glyph d="M 103,0 l 0,1280 1024,0 0,-1280 -1024,0 z m 32,32 l 960,0 0,1216 -960,0 0,-1216 z" /><glyph unicode="" horiz-adv-x="1573" d="M 1517,0 l -567,0 24,279 q 141,59 207.5,168 66.5,109 66.5,306    0,272 -132.5,417.5 -132.5,145.5 -333.5,145.5 -194,0 -328,-147.5 -134,-147.5 -134,-401.5 0,-200 68.5,-319 68.5,-119     206.5,-169 l 25,-279 -564,0 0,279 35,0 q 3,-61 32,-83 45,-35 137,-35 l 270,0 0,70 q -210,61 -324.5,209 -114.5,148     -114.5,349 0,252 186.5,425 186.5,173 504.5,173 195,0 358.5,-73.5 163.5,-73.5 252,-214.5 88.5,-141 88.5,-310 0,-207     -121.5,-360.5 -121.5,-153.5 -317.5,-197.5 l -8,-70 275,0 q 92,0 128,28 36,28 42,90 l 38,0 0,-279 z" /></font></defs>
<g id="ewd_top"><a ewd:code="N41" ewd:figID="1" ewd:figtype="conn" style="cursor:pointer;"><path d=" M  195.47,  180.26  L  212.46,  180.26  L  212.46,  197.25  L  195.47,  197.25  L  195.47,  180.26 " style="&st5;" /><title ewd:textID="5">Conector de unión</title></a><a ewd:code="X1,X2" ewd:figID="2" ewd:figtype="conn" style="cursor:pointer;"><path d=" M   67.99,  333.23  L   67.99,  384.22  L  373.94,  384.22  L  373.94,  333.23  L   67.99,  333.23 " style="&st5;" /><title ewd:textID="4">Conjunto del interruptor de control de refrigeración</title></a><a ewd:code="N24" ewd:figID="3" ewd:figtype="conn" style="cursor:pointer;"><path d=" M  225.21,  538.33  L  225.21,  538.33  L  225.21,  534.36  L  233.71,  534.36  L  233.71,  538.33  C  235.07   539.12   236.04   540.09   236.82   541.44  L  236.82,  541.44  C  239.17   545.51   237.78   550.71   233.71   553.05  L  233.71,  553.05  L  233.71,  557.03  L  225.21,  557.03  L  225.22,  553.05  C  223.86   552.27   222.88   551.30   222.10   549.94  L  222.10,  549.94  C  219.76   545.87   221.15   540.68   225.22   538.33 " style="&st5;" /><title ewd:textID="8">Conjunto del ajustador de reclinación del asiento trasero RH</title></a><a ewd:code="N25" ewd:figID="4" ewd:figtype="conn" style="cursor:pointer;"><path d=" M  344.19,  538.33  L  344.19,  538.33  L  344.19,  534.36  L  352.69,  534.36  L  352.69,  538.33  C  354.05   539.12   355.02   540.09   355.80   541.44  L  355.80,  541.44  C  358.15   545.51   356.76   550.71   352.69   553.05  L  352.69,  553.05  L  352.69,  557.03  L  344.19,  557.03  L  344.20,  553.05  C  342.84   552.27   341.86   551.30   341.08   549.94  L  341.08,  549.94  C  338.74   545.87   340.13   540.68   344.20   538.33 " style="&st5;" /><title ewd:textID="7">Conjunto del ajustador de reclinación del asiento trasero LH</title></a><a ewd:code="3" ewd:figID="5" ewd:figtype="jb" style="cursor:pointer;"><path d=" M   67.99,   35.78  L   67.99,  103.77  L  399.43,  103.77  L  399.43,   35.78  L   67.99,   35.78 " style="&st4;" /></a><a ewd:code="FUSE63" ewd:figID="6" ewd:figtype="fuse" style="cursor:pointer;"><path d=" M  225.21,   35.78  L  225.21,   78.27  L  250.71,   78.27  L  250.71,   35.78  L  225.21,   35.78 " style="&st7;" /></a><a ewd:code="FUSE82" ewd:figID="7" ewd:figtype="fuse" style="cursor:pointer;"><path d=" M   72.24,   35.78  L   72.24,   78.27  L   97.73,   78.27  L   97.73,   35.78  L   72.24,   35.78 " style="&st7;" /></a><a ewd:code="FUSE61" ewd:figID="8" ewd:figtype="fuse" style="cursor:pointer;"><path d=" M  148.73,   35.78  L  148.73,   78.27  L  174.22,   78.27  L  174.22,   35.78  L  148.73,   35.78 " style="&st7;" /></a><a ewd:code="FUSE53" ewd:figID="9" ewd:figtype="fuse" style="cursor:pointer;"><path d=" M  335.69,   35.78  L  335.69,   78.27  L  361.19,   78.27  L  361.19,   35.78  L  335.69,   35.78 " style="&st7;" /></a><a ewd:lineID="1" style="cursor:pointer;"><path d=" M   84.99,  588.19  L   84.99,  681.67 " style="stroke:#000000;stroke-width: 5.10 ;&st6;" /><path d=" M   84.99,  588.19  L   84.99,  681.67 " style="stroke:#FFFFFF;stroke-width: 4.53 ;&st6;" /><path d=" M   84.99,  588.19  L   84.99,  681.67 " style="stroke:#000000;stroke-width: 1.13 ;&st6;" /></a><a ewd:lineID="2" style="cursor:pointer;"><path d=" M   84.99,  494.70  L   84.99,  573.46 " style="stroke:#000000;stroke-width: 5.10 ;&st6;" /><path d=" M   84.99,  494.70  L   84.99,  573.46 " style="stroke:#FFFFFF;stroke-width: 4.53 ;&st6;" /><path d=" M   84.99,  494.70  L   84.99,  573.46 " style="stroke:#000000;stroke-width: 1.13 ;&st6;" /></a><a ewd:lineID="3" style="cursor:pointer;"><path d=" M   84.99,  393.29  L   84.99,  477.71 " style="stroke:#000000;stroke-width: 5.10 ;&st6;" /><path d=" M   84.99,  393.29  L   84.99,  477.71 " style="stroke:#FFFFFF;stroke-width: 4.53 ;&st6;" /><path d=" M   84.99,  393.29  L   84.99,  477.71 " style="stroke:#000000;stroke-width: 1.13 ;&st6;" /></a><a ewd:lineID="4" style="cursor:pointer;"><path d=" M   84.99,  237.48  L   84.99,  324.16 " style="stroke:#008837;stroke-width: 5.10 ;&st6;" /></a><a ewd:lineID="5" style="cursor:pointer;"><path d=" M   84.99,  103.77  L   84.99,  222.75 " style="stroke:#008837;stroke-width: 5.10 ;&st6;" /></a><a ewd:lineID="6" style="cursor:pointer;"><path d=" M  127.48,  393.29  L  127.48,  486.20  L   93.48,  486.20 " style="stroke:#000000;stroke-width: 5.10 ;&st6;" /><path d=" M  127.48,  393.29  L  127.48,  486.20  L   93.48,  486.20 " style="stroke:#FFFFFF;stroke-width: 4.53 ;&st6;" /><path d=" M  127.48,  393.29  L  127.48,  486.20  L   93.48,  486.20 " style="stroke:#000000;stroke-width: 1.13 ;&st6;" /></a><a ewd:lineID="7" style="cursor:pointer;"><path d=" M  161.47,  324.16  L  161.47,  237.48 " style="stroke:#FF0000;stroke-width: 5.10 ;&st6;" /></a><a ewd:lineID="8" style="cursor:pointer;"><path d=" M  161.47,  103.77  L  161.47,  222.75 " style="stroke:#FF0000;stroke-width: 5.10 ;&st6;" /></a><a ewd:lineID="9" style="cursor:pointer;"><path d=" M  178.47,  460.71  L  178.47,  588.19  L  229.46,  588.19  L  229.46,  557.03 " style="stroke:#FF0000;stroke-width: 5.10 ;&st6;" /></a><a ewd:lineID="10" style="cursor:pointer;"><path d=" M  178.47,  393.29  L  178.47,  445.98 " style="stroke:#FF0000;stroke-width: 5.10 ;&st6;" /></a><a ewd:lineID="11" style="cursor:pointer;"><path d=" M  203.97,  197.25  L  203.97,  256.74  L  229.46,  256.74  L  237.96,  265.24  L  237.96,  273.74 " style="stroke:#56077D;stroke-width: 5.10 ;&st6;" /></a><a ewd:lineID="12" style="cursor:pointer;"><path d=" M  237.96,  103.77  L  237.96,  112.27  L  229.46,  120.77  L  203.97,  120.77  L  203.97,  180.26 " style="stroke:#56077D;stroke-width: 5.10 ;&st6;" /></a><a ewd:lineID="13" style="cursor:pointer;"><path d=" M  229.46,  460.71  L  229.46,  534.36 " style="stroke:#000000;stroke-width: 5.10 ;&st6;" /></a><a ewd:lineID="14" style="cursor:pointer;"><path d=" M  229.46,  393.29  L  229.46,  445.98 " style="stroke:#000000;stroke-width: 5.10 ;&st6;" /></a><a ewd:lineID="15" style="cursor:pointer;"><path d=" M  237.96,  324.16  L  237.96,  288.47 " style="stroke:#56077D;stroke-width: 5.10 ;&st6;" /></a><a ewd:lineID="16" style="cursor:pointer;"><path d=" M  237.96,  103.77  L  237.96,  273.74 " style="stroke:#56077D;stroke-width: 5.10 ;&st6;" /></a><a ewd:lineID="17" style="cursor:pointer;"><path d=" M  280.45,  197.25  L  280.45,  256.74  L  246.46,  256.74  L  237.96,  265.24  L  237.96,  273.74 " style="stroke:#56077D;stroke-width: 5.10 ;&st6;" /></a><a ewd:lineID="18" style="cursor:pointer;"><path d=" M  237.96,  103.77  L  237.96,  112.27  L  246.46,  120.77  L  280.45,  120.77  L  280.45,  180.26 " style="stroke:#56077D;stroke-width: 5.10 ;&st6;" /></a><a ewd:lineID="19" style="cursor:pointer;"><path d=" M  297.45,  460.71  L  297.45,  588.19  L  348.44,  588.19  L  348.44,  557.03 " style="stroke:#00A0C6;stroke-width: 5.10 ;&st6;" /></a><a ewd:lineID="20" style="cursor:pointer;"><path d=" M  297.45,  393.29  L  297.45,  445.98 " style="stroke:#00A0C6;stroke-width: 5.10 ;&st6;" /></a><a ewd:lineID="21" style="cursor:pointer;"><path d=" M  348.44,  460.71  L  348.44,  534.36 " style="stroke:#56077D;stroke-width: 5.10 ;&st6;" /></a><a ewd:lineID="22" style="cursor:pointer;"><path d=" M  348.44,  393.29  L  348.44,  445.98 " style="stroke:#56077D;stroke-width: 5.10 ;&st6;" /></a><a ewd:lineID="23" style="cursor:pointer;"><path d=" M  348.44,  324.16  L  348.44,  237.48 " style="stroke:#999999;stroke-width: 5.10 ;&st6;" /></a><a ewd:lineID="24" style="cursor:pointer;"><path d=" M  348.44,  103.77  L  348.44,  222.75 " style="stroke:#999999;stroke-width: 5.10 ;&st6;" /></a><a ewd:code="NX1" ewd:figID="10" ewd:figtype="w2w" ewd:pinNo="13" style="cursor:pointer;"><path d=" M   93.48,  222.75  L   76.49,  222.75  L   76.49,  231.25  L   93.48,  231.25  L   93.48,  222.75 " style="&st2;" /><text style="&st8;" transform="matrix(&st16;  78.26  229.49 )"><tspan style="&st18;" x="0" y="0">NX1</tspan></text></a><a ewd:code="NX1" ewd:figID="11" ewd:figtype="w2w" ewd:pinNo="14" style="cursor:pointer;"><path d=" M  169.97,  222.75  L  152.97,  222.75  L  152.97,  231.25  L  169.97,  231.25  L  169.97,  222.75 " style="&st2;" /><text style="&st8;" transform="matrix(&st16;  154.74  229.49 )"><tspan style="&st18;" x="0" y="0">NX1</tspan></text></a><a ewd:code="NX1" ewd:figID="12" ewd:figtype="w2w" ewd:pinNo="9" style="cursor:pointer;"><path d=" M  246.46,  273.74  L  229.46,  273.74  L  229.46,  282.24  L  246.46,  282.24  L  246.46,  273.74 " style="&st2;" /><text style="&st8;" transform="matrix(&st16;  231.23  280.48 )"><tspan style="&st18;" x="0" y="0">NX1</tspan></text></a><a ewd:code="NX1" ewd:figID="13" ewd:figtype="w2w" ewd:pinNo="8" style="cursor:pointer;"><path d=" M  356.94,  222.75  L  339.94,  222.75  L  339.94,  231.25  L  356.94,  231.25  L  356.94,  222.75 " style="&st2;" /><text style="&st8;" transform="matrix(&st16;  341.71  229.49 )"><tspan style="&st18;" x="0" y="0">NX1</tspan></text></a><a ewd:code="NX1" ewd:figID="14" ewd:figtype="w2w" ewd:pinNo="4" style="cursor:pointer;"><path d=" M  186.97,  452.21  L  169.97,  452.21  L  169.97,  460.71  L  186.97,  460.71  L  186.97,  452.21 " style="&st2;" /><text style="&st8;" transform="matrix(&st16;  171.74  458.95 )"><tspan style="&st18;" x="0" y="0">NX1</tspan></text></a><a ewd:code="NX1" ewd:figID="15" ewd:figtype="w2w" ewd:pinNo="12" style="cursor:pointer;"><path d=" M  237.96,  452.21  L  220.96,  452.21  L  220.96,  460.71  L  237.96,  460.71  L  237.96,  452.21 " style="&st2;" /><text style="&st8;" transform="matrix(&st16;  222.73  458.95 )"><tspan style="&st18;" x="0" y="0">NX1</tspan></text></a><a ewd:code="NX1" ewd:figID="16" ewd:figtype="w2w" ewd:pinNo="6" style="cursor:pointer;"><path d=" M  305.95,  452.21  L  288.95,  452.21  L  288.95,  460.71  L  305.95,  460.71  L  305.95,  452.21 " style="&st2;" /><text style="&st8;" transform="matrix(&st16;  290.72  458.95 )"><tspan style="&st18;" x="0" y="0">NX1</tspan></text></a><a ewd:code="NX1" ewd:figID="17" ewd:figtype="w2w" ewd:pinNo="5" style="cursor:pointer;"><path d=" M  356.94,  452.21  L  339.94,  452.21  L  339.94,  460.71  L  356.94,  460.71  L  356.94,  452.21 " style="&st2;" /><text style="&st8;" transform="matrix(&st16;  341.71  458.95 )"><tspan style="&st18;" x="0" y="0">NX1</tspan></text></a><a ewd:code="NX1" ewd:figID="18" ewd:figtype="w2w" ewd:pinNo="18" style="cursor:pointer;"><path d=" M   93.48,  579.69  L   76.49,  579.69  L   76.49,  588.19  L   93.48,  588.19  L   93.48,  579.69 " style="&st2;" /><text style="&st8;" transform="matrix(&st16;  78.26  586.43 )"><tspan style="&st18;" x="0" y="0">NX1</tspan></text></a><a ewd:code="N2" ewd:figID="19" ewd:figtype="gp" style="cursor:pointer;"><path d=" M   74.36,  681.67  L   95.61,  681.67  L   84.99,  697.25  L   74.36,  681.67 " style="&st2;" /><text style="&st8;" transform="matrix(&st16;  80.3  689.83 )"><tspan style="&st18;" x="0" y="0">N2</tspan></text></a><a ewd:code="2065" ewd:figID="20" ewd:figtype="sp" style="cursor:pointer;"><path d=" M   80.74,  477.71  L   89.24,  477.71  L   93.48,  481.95  L   93.48,  490.45  L   89.24,  494.70  L   80.74,  494.70  L   76.49,  490.45  L   76.49,  481.95  L   80.74,  477.71 " style="&st2;" /></a><a ewd:code="1885" ewd:figID="21" ewd:figtype="sp" style="cursor:pointer;"><path d=" M  276.20,  180.26  L  284.70,  180.26  L  288.95,  184.50  L  288.95,  193.00  L  284.70,  197.25  L  276.20,  197.25  L  271.95,  193.00  L  271.95,  184.50  L  276.20,  180.26 " style="&st2;" /></a></g></svg>