﻿<?xml version="1.0" encoding="utf-8"?>
<!DOCTYPE svg PUBLIC "-//W3C//DTD SVG 1.0//EN" "http://www.w3.org/TR/2001/REC-SVG-20010904/DTD/svg10.dtd"[
	<!ENTITY ns_flows "http://ns.adobe.com/Flows/1.0/">
	<!ENTITY ns_svg "http://www.w3.org/2000/svg">
	<!ENTITY ns_xlink "http://www.w3.org/1999/xlink">
	<!ENTITY st0 "font-size:7px;font-family:'MS-PGothic';adobe-font-script:japanese;">
	<!ENTITY st1 "font-size:6px;font-family:'ArialMT';">
	<!-- White fill  -->
	<!ENTITY st2 "fill:#FFFFFF;stroke:#000000; stroke-width:1.41;stroke-linecap:round;stroke-linejoin:round;">
	<!-- Yellow fill  -->
	<!ENTITY st3 "fill:#FFFFCC;stroke:#FFFFCC; stroke-width:0.1;stroke-linecap:round;stroke-linejoin:round;">
	<!-- Gray fill  -->
	<!ENTITY st4 "fill:#CCCCCC;stroke:#CCCCCC; stroke-width:0.1;stroke-linecap:round;stroke-linejoin:round;">
	<!-- Light-blue fill -->
	<!ENTITY st5 "fill:#CCECF4;stroke:#000000; stroke-width:1.133;stroke-linecap:round;stroke-linejoin:round;">
	<!ENTITY st6 "fill:none;stroke-linecap:butt; stroke-linejoin:round;">
	<!ENTITY st7 "fill:none;stroke:#000000;stroke-linecap:round;stroke-linejoin:round;">
	<!ENTITY st8 "enable-background:new    ;">
	<!-- Black fill -->
	<!ENTITY st9 "fill:#000000;stroke:#000000; stroke-linecap:round;stroke-linejoin:round;">
	<!-- SRS note   -->
	<!ENTITY st10 "font-size:9px;font-family:'ArialMT';">
	<!ENTITY st11 "font-size:9px;font-family:'Svg Symbol';">
	<!ENTITY st12 "font-size:6px;font-family:'Svg Symbol';">
	<!ENTITY st13 "fill:none;stroke:#ff0000;stroke-linecap:round;stroke-linejoin:round;">
	<!-- Yellow fill  -->
	<!ENTITY st14 "fill:#FFFF00;stroke:#FFFF00; stroke-width:0.1;stroke-linecap:round;stroke-linejoin:round;">
	<!ENTITY st15 "font-size:6px;font-family:'MS-PGothic';adobe-font-script:japanese;">
	<!ENTITY st16 "1.00 0.00 0.00 1.00">
	<!ENTITY st17 "0.00 -1.00 1.00 0.00">
	<!ENTITY st18 "font-size:6px;font-family:'Arial';">
	<!ENTITY st19 "font-size:9px;font-family:'Arial';">
	<!ENTITY st20 "font-size:6px;font-family:'MS-PGothic','MS PGothic';adobe-font-script:japanese;">
	<!ENTITY st21 "font-size:7px;font-family:'MS-PGothic','MS PGothic';adobe-font-script:japanese;">
	<!ATTLIST svg
		xmlns:ewd CDATA #FIXED "http://shcl.co.jp/ewd"
		xmlns:a CDATA #FIXED "http://ns.adobe.com/AdobeSVGViewerExtensions/3.0/"
		ewd:ver CDATA #IMPLIED
	>
	<!ATTLIST a
		ewd:lineID CDATA #IMPLIED
		ewd:groupID CDATA #IMPLIED
		ewd:figtype CDATA #IMPLIED
		ewd:code CDATA #IMPLIED
		ewd:figID CDATA #IMPLIED
		ewd:pinNo CDATA #IMPLIED
		ewd:comment CDATA #IMPLIED >
	<!ATTLIST g
		ewd:lineID CDATA #IMPLIED
		ewd:groupID CDATA #IMPLIED
		ewd:figtype CDATA #IMPLIED
		ewd:code CDATA #IMPLIED
		ewd:figID CDATA #IMPLIED
		ewd:pinNo CDATA #IMPLIED
		ewd:comment CDATA #IMPLIED >
	<!ATTLIST text
		ewd:textID CDATA #IMPLIED
		ewd:horAlign CDATA #IMPLIED >
	<!ATTLIST title
		ewd:textID CDATA #IMPLIED >
]>
<!-- Generator: Shintec Hozumi YS   -->
<svg onload="call_execInitLoadProc_svg('system')" style="overflow:visible;  enable-background:new 0 0 2583.975 710.000" viewBox="0 0 2589.061 710.000" height="710.000" width="2589.061" xml:space="preserve" ewd:ver="L2.1.2.6" xmlns="&ns_svg;" xmlns:ewd="http://shcl.co.jp/ewd" xmlns:a="http://ns.adobe.com/AdobeSVGViewerExtensions/3.0/" xmlns:xlink="&ns_xlink;"><script type="text/javascript" xlink:href="../../../../../system/js/ewd/fig/svgfig.js" xmlns:xlink="http://www.w3.org/1999/xlink" /><defs><font horiz-adv-x="1229"><font-face font-family="Svg Symbol" units-per-em="2048" panose-1="5 5 1 2 1 7 6 2 5 7" ascent="2059" descent="450" alphabetic="0" /><missing-glyph d="M 103,0 l 0,1280 1024,0 0,-1280 -1024,0 z m 32,32 l 960,0 0,1216 -960,0 0,-1216 z" /><glyph unicode="" horiz-adv-x="1573" d="M 1517,0 l -567,0 24,279 q 141,59 207.5,168 66.5,109 66.5,306    0,272 -132.5,417.5 -132.5,145.5 -333.5,145.5 -194,0 -328,-147.5 -134,-147.5 -134,-401.5 0,-200 68.5,-319 68.5,-119     206.5,-169 l 25,-279 -564,0 0,279 35,0 q 3,-61 32,-83 45,-35 137,-35 l 270,0 0,70 q -210,61 -324.5,209 -114.5,148     -114.5,349 0,252 186.5,425 186.5,173 504.5,173 195,0 358.5,-73.5 163.5,-73.5 252,-214.5 88.5,-141 88.5,-310 0,-207     -121.5,-360.5 -121.5,-153.5 -317.5,-197.5 l -8,-70 275,0 q 92,0 128,28 36,28 42,90 l 38,0 0,-279 z" /></font></defs>
<g id="ewd_top"><a ewd:code="I12,I13" ewd:figID="1" ewd:figtype="conn" style="cursor:pointer;"><path d=" M 1708.21,   35.78  L 1708.21,   78.27  L 2294.62,   78.27  L 2294.62,   35.78  L 1708.21,   35.78 " style="&st5;" /><title ewd:textID="13">ECU de la carrocería principal</title></a><a ewd:code="FUSE12" ewd:figID="2" ewd:figtype="rb" style="cursor:pointer;"><path d=" M 1415.01,   35.78  L 1415.01,   78.27  L 1440.51,   78.27  L 1440.51,   35.78  L 1415.01,   35.78 " style="&st5;" /></a><a ewd:code="FUSE5" ewd:figID="3" ewd:figtype="rb" style="cursor:pointer;"><path d=" M 2536.83,   35.78  L 2536.83,   78.27  L 2562.32,   78.27  L 2562.32,   35.78  L 2536.83,   35.78 " style="&st5;" /></a><a ewd:code="g4" ewd:figID="4" ewd:figtype="conn" style="cursor:pointer;"><path d=" M  922.10,  495.84  L  922.10,  495.84  L  922.10,  491.87  L  930.59,  491.87  L  930.60,  495.84  C  931.95   496.62   932.92   497.60   933.70   498.95  L  933.70,  498.95  C  936.05   503.01   934.66   508.21   930.60   510.56  L  930.59,  510.56  L  930.59,  514.53  L  922.10,  514.53  L  922.10,  510.56  C  920.74   509.78   919.77   508.80   918.98   507.45  L  918.98,  507.45  C  916.64   503.38   918.03   498.18   922.10   495.84 " style="&st5;" /><title ewd:textID="17">Motor del soporte lumbar del asiento eléctrico RH</title></a><a ewd:code="O25" ewd:figID="5" ewd:figtype="conn" style="cursor:pointer;"><path d=" M 2464.59,  588.19  L 2566.57,  588.19  L 2566.57,  554.19  L 2464.59,  554.19  L 2464.59,  588.19 " style="&st5;" /><title ewd:textID="2">Receptor de control de puerta</title></a><a ewd:code="e7" ewd:figID="6" ewd:figtype="conn" style="cursor:pointer;"><path d=" M  288.95,  562.69  L  560.91,  562.69  L  560.91,  579.69  L  288.95,  579.69  L  288.95,  562.69 " style="&st5;" /><title ewd:textID="12">Conector de unión</title></a><a ewd:code="I198" ewd:figID="7" ewd:figtype="conn" style="cursor:pointer;"><path d=" M 2235.13,  265.24  L 2286.12,  265.24  L 2286.12,  248.24  L 2235.13,  248.24  L 2235.13,  265.24 " style="&st5;" /><title ewd:textID="12">Conector de unión</title></a><a ewd:code="E85" ewd:figID="8" ewd:figtype="conn" style="cursor:pointer;"><path d=" M 2396.60,  256.74  L 2447.59,  256.74  L 2447.59,  290.74  L 2396.60,  290.74  L 2396.60,  256.74 " style="&st5;" /><title ewd:textID="15">Conjunto del interruptor de la posición de estacionamiento/punto muerto</title></a><a ewd:code="e11,e12" ewd:figID="9" ewd:figtype="conn" style="cursor:pointer;"><path d=" M   25.50,  273.74  L   25.50,  324.73  L  866.86,  324.73  L  866.86,  273.74  L   25.50,  273.74 " style="&st5;" /><title ewd:textID="16">Conjunto de la ECU de control de posición LH (interruptor del asiento eléctrico delantero LH)</title></a><a ewd:code="e5" ewd:figID="10" ewd:figtype="conn" style="cursor:pointer;"><path d=" M  883.85,  265.24  L  883.85,  324.73  L 1002.83,  324.73  L 1002.83,  265.24  L  883.85,  265.24 " style="&st5;" /><title ewd:textID="7">Interruptor del soporte lumbar del asiento eléctrico delantero LH</title></a><a ewd:code="K13" ewd:figID="11" ewd:figtype="conn" style="cursor:pointer;"><path d=" M 1334.28,  273.74  L 1334.28,  205.75  L 1470.25,  205.75  L 1470.25,  273.74  L 1334.28,  273.74 " style="&st5;" /><title ewd:textID="19">Interruptor de la memoria del asiento LH</title></a><a ewd:code="N7" ewd:figID="12" ewd:figtype="conn" style="cursor:pointer;"><path d=" M 2158.64,  384.22  L 2158.64,  350.23  L 2141.64,  350.23  L 2141.64,  384.22  L 2158.64,  384.22 " style="&st5;" /><title ewd:textID="5">Conjunto del interruptor de la luz interior de la puerta delantera LH</title></a><a ewd:code="N2" ewd:figID="13" ewd:figtype="conn" style="cursor:pointer;"><path d=" M 2201.13,  350.23  L 2201.13,  384.22  L 2184.14,  384.22  L 2184.14,  350.23  L 2201.13,  350.23 " style="&st5;" /><title ewd:textID="10">Conjunto del cinturón de seguridad interior del asiento delantero LH</title></a><a ewd:code="e8" ewd:figID="14" ewd:figtype="conn" style="cursor:pointer;"><path d=" M  314.45,  503.20  L  416.43,  503.20  L  416.43,  435.21  L  314.45,  435.21  L  314.45,  503.20 " style="&st5;" /><title ewd:textID="8">Motor de la posición de deslizamiento del asiento eléctrico delantero LH</title></a><a ewd:code="e9" ewd:figID="15" ewd:figtype="conn" style="cursor:pointer;"><path d=" M  535.41,  503.20  L  637.39,  503.20  L  637.39,  435.21  L  535.41,  435.21  L  535.41,  503.20 " style="&st5;" /><title ewd:textID="9">Motor de la posición de inclinación del asiento eléctrico delantero LH</title></a><a ewd:code="e7" ewd:figID="16" ewd:figtype="conn" style="cursor:pointer;"><path d=" M  679.89,  435.21  L  696.88,  435.21  L  696.88,  452.21  L  679.89,  452.21  L  679.89,  435.21 " style="&st5;" /><title ewd:textID="12">Conector de unión</title></a><a ewd:code="I114,I199,I201" ewd:figID="17" ewd:figtype="conn" style="cursor:pointer;"><path d=" M 1878.19,  426.71  L 1878.19,  460.71  L 2022.66,  460.71  L 2022.66,  426.71  L 1878.19,  426.71 " style="&st5;" /><title ewd:textID="12">Conector de unión</title></a><a ewd:code="e10" ewd:figID="18" ewd:figtype="conn" style="cursor:pointer;"><path d=" M  161.47,  503.20  L  263.46,  503.20  L  263.46,  435.21  L  161.47,  435.21  L  161.47,  503.20 " style="&st5;" /><title ewd:textID="6">Motor de la posición de elevación del asiento eléctrico delantero LH</title></a><a ewd:code="K12" ewd:figID="19" ewd:figtype="conn" style="cursor:pointer;"><path d=" M 1147.31,  358.73  L 1147.31,  401.22  L 1470.25,  401.22  L 1470.25,  358.73  L 1147.31,  358.73 " style="&st5;" /><title ewd:textID="14">Conjunto de ECU de control del espejo exterior LH</title></a><a ewd:code="I101,I104,I106" ewd:figID="20" ewd:figtype="conn" style="cursor:pointer;"><path d=" M 2235.13,  367.22  L 2371.10,  367.22  L 2371.10,  341.73  L 2235.13,  341.73  L 2235.13,  367.22 " style="&st5;" /><title ewd:textID="12">Conector de unión</title></a><a ewd:code="g3" ewd:figID="21" ewd:figtype="conn" style="cursor:pointer;"><path d=" M   25.50,  503.20  L  127.48,  503.20  L  127.48,  435.21  L   25.50,  435.21  L   25.50,  503.20 " style="&st5;" /><title ewd:textID="18">Motor de reclinación del asiento eléctrico RH</title></a><a ewd:code="A43,I78,O1" ewd:figID="22" ewd:figtype="conn" style="cursor:pointer;"><path d=" M 2226.63,  477.71  L 2566.57,  477.71  L 2566.57,  443.71  L 2226.63,  443.71  L 2226.63,  477.71 " style="&st5;" /><title ewd:textID="1">ECU de certificación</title></a><a ewd:code="I58" ewd:figID="23" ewd:figtype="conn" style="cursor:pointer;"><path d=" M 2226.63,  528.70  L 2226.63,  639.18  L 2430.59,  639.18  L 2430.59,  528.70  L 2226.63,  528.70 " style="&st5;" /><title ewd:textID="3">Interruptor del motor</title></a><a ewd:code="A25,E26" ewd:figID="24" ewd:figtype="conn" style="cursor:pointer;"><path d=" M 2311.61,  146.26  L 2456.09,  146.26  L 2456.09,  112.27  L 2311.61,  112.27  L 2311.61,  146.26 " style="&st5;" /><title>ECM</title></a><a ewd:code="3" ewd:figID="25" ewd:figtype="jb" style="cursor:pointer;"><path d=" M 2031.16,  265.24  L 2031.16,  316.23  L 2056.66,  316.23  L 2056.66,  265.24  L 2031.16,  265.24 " style="&st4;" /></a><a ewd:code="3" ewd:figID="26" ewd:figtype="jb" style="cursor:pointer;"><path d=" M   25.50,  112.27  L  101.98,  112.27  L  101.98,   35.78  L   25.50,   35.78  L   25.50,  112.27 " style="&st4;" /></a><a ewd:code="3" ewd:figID="27" ewd:figtype="jb" style="cursor:pointer;"><path d=" M 2090.65,   78.27  L 2090.65,  146.26  L 2201.13,  146.26  L 2201.13,   78.27  L 2090.65,   78.27 " style="&st4;" /></a><a ewd:code="3" ewd:figID="28" ewd:figtype="jb" style="cursor:pointer;"><path d=" M 1300.28,   35.78  L 1147.31,   35.78  L 1147.31,  103.77  L 1300.28,  103.77  L 1300.28,   35.78 " style="&st4;" /></a><a ewd:code="3" ewd:figID="29" ewd:figtype="jb" style="cursor:pointer;"><path d=" M 2464.59,   35.78  L 2464.59,  103.77  L 2524.08,  103.77  L 2524.08,   35.78  L 2464.59,   35.78 " style="&st4;" /></a><a ewd:code="3" ewd:figID="30" ewd:figtype="jb" style="cursor:pointer;"><path d=" M 1470.25,   35.78  L 1470.25,  146.26  L 1844.19,  146.26  L 1844.19,   78.27  L 1708.21,   78.27  L 1708.21,   35.78  L 1470.25,   35.78 " style="&st4;" /></a><a ewd:code="FUSE72" ewd:figID="31" ewd:figtype="fuse" style="cursor:pointer;"><path d=" M 1474.50,   35.78  L 1474.50,   78.27  L 1500.00,   78.27  L 1500.00,   35.78  L 1474.50,   35.78 " style="&st7;" /></a><a ewd:code="FUSE53" ewd:figID="32" ewd:figtype="fuse" style="cursor:pointer;"><path d=" M 1576.49,   35.78  L 1576.49,   78.27  L 1601.98,   78.27  L 1601.98,   35.78  L 1576.49,   35.78 " style="&st7;" /></a><a ewd:code="FUSE52" ewd:figID="33" ewd:figtype="fuse" style="cursor:pointer;"><path d=" M 2468.84,   35.78  L 2468.84,   78.27  L 2494.33,   78.27  L 2494.33,   35.78  L 2468.84,   35.78 " style="&st7;" /></a><a ewd:code="FUSE63" ewd:figID="34" ewd:figtype="fuse" style="cursor:pointer;"><path d=" M 1644.48,   35.78  L 1644.48,   78.27  L 1669.97,   78.27  L 1669.97,   35.78  L 1644.48,   35.78 " style="&st7;" /></a><a ewd:code="FUSE12" ewd:figID="35" ewd:figtype="fuse" style="cursor:pointer;"><path d=" M 1415.01,   35.78  L 1415.01,   78.27  L 1440.51,   78.27  L 1440.51,   35.78  L 1415.01,   35.78 " style="&st7;" /></a><a ewd:code="FUSE63" ewd:figID="36" ewd:figtype="fuse" style="cursor:pointer;"><path d=" M 1151.56,   35.78  L 1151.56,   78.27  L 1177.05,   78.27  L 1177.05,   35.78  L 1151.56,   35.78 " style="&st7;" /></a><a ewd:code="FUSE73" ewd:figID="37" ewd:figtype="fuse" style="cursor:pointer;"><path d=" M 1228.04,   35.78  L 1228.04,   78.27  L 1253.54,   78.27  L 1253.54,   35.78  L 1228.04,   35.78 " style="&st7;" /></a><a ewd:code="FUSE81" ewd:figID="38" ewd:figtype="fuse" style="cursor:pointer;"><path d=" M   55.24,   78.27  L   55.24,   35.78  L   29.75,   35.78  L   29.75,   78.27  L   55.24,   78.27 " style="&st7;" /></a><a ewd:code="FUSE5" ewd:figID="39" ewd:figtype="fuse" style="cursor:pointer;"><path d=" M 2536.83,   35.78  L 2536.83,   78.27  L 2562.32,   78.27  L 2562.32,   35.78  L 2536.83,   35.78 " style="&st7;" /></a><a ewd:lineID="1" style="cursor:pointer;"><path d=" M   42.49,  560.42  L   42.49,  630.68  L  331.44,  630.68  L  331.44,  579.69 " style="stroke:#992903;stroke-width: 5.10 ;&st6;" /></a><a ewd:lineID="2" style="cursor:pointer;"><path d=" M   42.49,  503.20  L   42.49,  545.69 " style="stroke:#992903;stroke-width: 5.10 ;&st6;" /></a><a ewd:lineID="3" style="cursor:pointer;"><path d=" M   42.49,  435.21  L   42.49,  384.22 " style="stroke:#56077D;stroke-width: 5.10 ;&st6;" /></a><a ewd:lineID="4" style="cursor:pointer;"><path d=" M   42.49,  333.80  L   42.49,  369.49 " style="stroke:#56077D;stroke-width: 5.10 ;&st6;" /></a><a ewd:lineID="5" style="cursor:pointer;"><path d=" M   42.49,  186.77  L   42.49,  264.67 " style="stroke:#000000;stroke-width: 5.10 ;&st6;" /><path d=" M   42.49,  186.77  L   42.49,  264.67 " style="stroke:#FFFFFF;stroke-width: 4.53 ;&st6;" /></a><a ewd:lineID="6" style="cursor:pointer;"><path d=" M   42.49,  171.76  L   42.49,  112.27 " style="stroke:#7FC97F;stroke-width: 5.10 ;&st6;" /></a><a ewd:lineID="7" style="cursor:pointer;"><path d=" M   76.49,  435.21  L   76.49,  384.22 " style="stroke:#F668B2;stroke-width: 5.10 ;&st6;" /></a><a ewd:lineID="8" style="cursor:pointer;"><path d=" M   76.49,  333.80  L   76.49,  369.49 " style="stroke:#F668B2;stroke-width: 5.10 ;&st6;" /></a><a ewd:lineID="9" style="cursor:pointer;"><path d=" M  110.48,  435.21  L  110.48,  384.22 " style="stroke:#7FC97F;stroke-width: 5.10 ;&st6;" /></a><a ewd:lineID="10" style="cursor:pointer;"><path d=" M  110.48,  333.80  L  110.48,  369.49 " style="stroke:#7FC97F;stroke-width: 5.10 ;&st6;" /></a><a ewd:lineID="11" style="cursor:pointer;"><path d=" M  178.47,  503.20  L  178.47,  613.68  L  297.45,  613.68  L  297.45,  579.69 " style="stroke:#992903;stroke-width: 5.10 ;&st6;" /></a><a ewd:lineID="12" style="cursor:pointer;"><path d=" M  178.47,  333.80  L  178.47,  435.21 " style="stroke:#F668B2;stroke-width: 5.10 ;&st6;" /></a><a ewd:lineID="13" style="cursor:pointer;"><path d=" M  212.46,  333.80  L  212.46,  435.21 " style="stroke:#56077D;stroke-width: 5.10 ;&st6;" /></a><a ewd:lineID="14" style="cursor:pointer;"><path d=" M  246.46,  333.80  L  246.46,  435.21 " style="stroke:#008837;stroke-width: 5.10 ;&st6;" /></a><a ewd:lineID="15" style="cursor:pointer;"><path d=" M  297.45,  333.80  L  297.45,  562.69 " style="stroke:#992903;stroke-width: 5.10 ;&st6;" /></a><a ewd:lineID="16" style="cursor:pointer;"><path d=" M  331.44,  503.20  L  331.44,  562.69 " style="stroke:#992903;stroke-width: 5.10 ;&st6;" /></a><a ewd:lineID="17" style="cursor:pointer;"><path d=" M  331.44,  333.80  L  331.44,  435.21 " style="stroke:#008837;stroke-width: 5.10 ;&st6;" /></a><a ewd:lineID="18" style="cursor:pointer;"><path d=" M  365.44,  333.80  L  365.44,  435.21 " style="stroke:#00A0C6;stroke-width: 5.10 ;&st6;" /></a><a ewd:lineID="19" style="cursor:pointer;"><path d=" M  399.43,  333.80  L  399.43,  435.21 " style="stroke:#999999;stroke-width: 5.10 ;&st6;" /></a><a ewd:lineID="20" style="cursor:pointer;"><path d=" M  552.41,  503.20  L  552.41,  562.69 " style="stroke:#992903;stroke-width: 5.10 ;&st6;" /></a><a ewd:lineID="21" style="cursor:pointer;"><path d=" M  552.41,  333.80  L  552.41,  435.21 " style="stroke:#FF0000;stroke-width: 5.10 ;&st6;" /></a><a ewd:lineID="22" style="cursor:pointer;"><path d=" M  586.40,  333.80  L  586.40,  435.21 " style="stroke:#000000;stroke-width: 5.10 ;&st6;" /></a><a ewd:lineID="23" style="cursor:pointer;"><path d=" M  620.40,  333.80  L  620.40,  435.21 " style="stroke:#FF0000;stroke-width: 5.10 ;&st6;" /></a><a ewd:lineID="24" style="cursor:pointer;"><path d=" M  688.38,  554.19  L  688.38,  681.67 " style="stroke:#000000;stroke-width: 5.10 ;&st6;" /><path d=" M  688.38,  554.19  L  688.38,  681.67 " style="stroke:#FFFFFF;stroke-width: 4.53 ;&st6;" /><path d=" M  688.38,  554.19  L  688.38,  681.67 " style="stroke:#000000;stroke-width: 1.13 ;&st6;" /></a><a ewd:lineID="25" style="cursor:pointer;"><path d=" M  688.38,  539.46  L  688.38,  452.21 " style="stroke:#000000;stroke-width: 5.10 ;&st6;" /><path d=" M  688.38,  539.46  L  688.38,  452.21 " style="stroke:#FFFFFF;stroke-width: 4.53 ;&st6;" /><path d=" M  688.38,  539.46  L  688.38,  452.21 " style="stroke:#000000;stroke-width: 1.13 ;&st6;" /></a><a ewd:lineID="26" style="cursor:pointer;"><path d=" M  688.38,  333.80  L  688.38,  435.21 " style="stroke:#000000;stroke-width: 5.10 ;&st6;" /><path d=" M  688.38,  333.80  L  688.38,  435.21 " style="stroke:#FFFFFF;stroke-width: 4.53 ;&st6;" /><path d=" M  688.38,  333.80  L  688.38,  435.21 " style="stroke:#000000;stroke-width: 1.13 ;&st6;" /></a><a ewd:lineID="27" style="cursor:pointer;"><path d=" M 2014.16,  469.77  L 2014.16,  664.67  L  747.88,  664.67  L  747.88,  560.42 " style="stroke:#00A0C6;stroke-width: 5.10 ;&st6;" /></a><a ewd:lineID="28" style="cursor:pointer;"><path d=" M  747.88,  443.71  L  747.88,  545.69 " style="stroke:#00A0C6;stroke-width: 5.10 ;&st6;" /></a><a ewd:lineID="29" style="cursor:pointer;"><path d=" M  747.88,  333.80  L  747.88,  428.98 " style="stroke:#00A0C6;stroke-width: 5.10 ;&st6;" /></a><a ewd:lineID="30" style="cursor:pointer;"><path d=" M 1980.17,  469.77  L 1980.17,  647.68  L  781.87,  647.68  L  781.87,  560.42 " style="stroke:#999999;stroke-width: 5.10 ;&st6;" /></a><a ewd:lineID="31" style="cursor:pointer;"><path d=" M  781.87,  443.71  L  781.87,  545.69 " style="stroke:#999999;stroke-width: 5.10 ;&st6;" /></a><a ewd:lineID="32" style="cursor:pointer;"><path d=" M  781.87,  333.80  L  781.87,  428.70 " style="stroke:#000000;stroke-width: 5.10 ;&st6;" /><path d=" M  781.87,  333.80  L  781.87,  428.70 " style="stroke:#FFFFFF;stroke-width: 4.53 ;&st6;" /></a><a ewd:lineID="33" style="cursor:pointer;"><path d=" M  815.86,  443.71  L  815.86,  596.69  L 1835.69,  596.69  L 1835.69,  146.26 " style="stroke:#F668B2;stroke-width: 5.10 ;&st6;" /></a><a ewd:lineID="34" style="cursor:pointer;"><path d=" M  815.86,  333.80  L  815.86,  428.98 " style="stroke:#F668B2;stroke-width: 5.10 ;&st6;" /></a><a ewd:lineID="35" style="cursor:pointer;"><path d=" M  849.86,  333.80  L  849.86,  409.72  L  900.85,  409.72  L  900.85,  324.73 " style="stroke:#000000;stroke-width: 5.10 ;&st6;" /><path d=" M  849.86,  333.80  L  849.86,  409.72  L  900.85,  409.72  L  900.85,  324.73 " style="stroke:#FFFFFF;stroke-width: 4.53 ;&st6;" /><path d=" M  849.86,  333.80  L  849.86,  409.72  L  900.85,  409.72  L  900.85,  324.73 " style="stroke:#000000;stroke-width: 1.13 ;&st6;" /></a><a ewd:lineID="36" style="cursor:pointer;"><path d=" M  849.86,  264.67  L  849.86,  205.75  L  985.84,  205.75  L  985.84,  265.24 " style="stroke:#99D9E8;stroke-width: 5.10 ;&st6;" /></a><a ewd:lineID="37" style="cursor:pointer;"><path d=" M  977.34,  426.71  L  977.34,  537.20  L  926.35,  537.20  L  926.35,  514.53 " style="stroke:#00A0C6;stroke-width: 5.10 ;&st6;" /></a><a ewd:lineID="38" style="cursor:pointer;"><path d=" M  926.35,  426.71  L  926.35,  491.87 " style="stroke:#56077D;stroke-width: 5.10 ;&st6;" /></a><a ewd:lineID="39" style="cursor:pointer;"><path d=" M  926.35,  324.73  L  926.35,  411.98 " style="stroke:#56077D;stroke-width: 5.10 ;&st6;" /></a><a ewd:lineID="40" style="cursor:pointer;"><path d=" M  977.34,  324.73  L  977.34,  411.98 " style="stroke:#00A0C6;stroke-width: 5.10 ;&st6;" /></a><a ewd:lineID="41" style="cursor:pointer;"><path d=" M 1164.31,  560.42  L 1164.31,  681.67 " style="stroke:#000000;stroke-width: 5.10 ;&st6;" /><path d=" M 1164.31,  560.42  L 1164.31,  681.67 " style="stroke:#FFFFFF;stroke-width: 4.53 ;&st6;" /><path d=" M 1164.31,  560.42  L 1164.31,  681.67 " style="stroke:#000000;stroke-width: 1.13 ;&st6;" /></a><a ewd:lineID="42" style="cursor:pointer;"><path d=" M 1164.31,  545.69  L 1164.31,  486.20 " style="stroke:#000000;stroke-width: 5.10 ;&st6;" /><path d=" M 1164.31,  545.69  L 1164.31,  486.20 " style="stroke:#FFFFFF;stroke-width: 4.53 ;&st6;" /><path d=" M 1164.31,  545.69  L 1164.31,  486.20 " style="stroke:#000000;stroke-width: 1.13 ;&st6;" /></a><a ewd:lineID="43" style="cursor:pointer;"><path d=" M 1164.31,  410.28  L 1164.31,  469.21 " style="stroke:#000000;stroke-width: 5.10 ;&st6;" /><path d=" M 1164.31,  410.28  L 1164.31,  469.21 " style="stroke:#FFFFFF;stroke-width: 4.53 ;&st6;" /><path d=" M 1164.31,  410.28  L 1164.31,  469.21 " style="stroke:#000000;stroke-width: 1.13 ;&st6;" /></a><a ewd:lineID="44" style="cursor:pointer;"><path d=" M 1164.31,  197.25  L 1164.31,  349.66 " style="stroke:#999999;stroke-width: 5.10 ;&st6;" /></a><a ewd:lineID="45" style="cursor:pointer;"><path d=" M 1164.31,  182.52  L 1164.31,  103.77 " style="stroke:#FFE600;stroke-width: 5.10 ;&st6;" /></a><a ewd:lineID="46" style="cursor:pointer;"><path d=" M 1240.79,  349.66  L 1240.79,  282.24 " style="stroke:#999999;stroke-width: 5.10 ;&st6;" /></a><a ewd:lineID="47" style="cursor:pointer;"><path d=" M 1240.79,  197.25  L 1240.79,  265.24 " style="stroke:#999999;stroke-width: 5.10 ;&st6;" /></a><a ewd:lineID="48" style="cursor:pointer;"><path d=" M 1240.79,  103.77  L 1240.79,  182.52 " style="stroke:#000000;stroke-width: 5.10 ;&st6;" /></a><a ewd:lineID="49" style="cursor:pointer;"><path d=" M 1351.27,  349.66  L 1351.27,  273.74 " style="stroke:#000000;stroke-width: 5.10 ;&st6;" /></a><a ewd:lineID="50" style="cursor:pointer;"><path d=" M 1385.27,  349.66  L 1385.27,  273.74 " style="stroke:#F668B2;stroke-width: 5.10 ;&st6;" /></a><a ewd:lineID="51" style="cursor:pointer;"><path d=" M 1920.68,  469.77  L 1920.68,  630.68  L 1419.26,  630.68  L 1419.26,  483.94 " style="stroke:#008837;stroke-width: 5.10 ;&st6;" /></a><a ewd:lineID="52" style="cursor:pointer;"><path d=" M 1419.26,  410.28  L 1419.26,  469.21 " style="stroke:#008837;stroke-width: 5.10 ;&st6;" /></a><a ewd:lineID="53" style="cursor:pointer;"><path d=" M 1419.26,  349.66  L 1419.26,  273.74 " style="stroke:#FF0000;stroke-width: 5.10 ;&st6;" /></a><a ewd:lineID="54" style="cursor:pointer;"><path d=" M 1801.70,  146.26  L 1801.70,  163.26  L 1427.76,  163.26  L 1427.76,  103.77 " style="stroke:#56077D;stroke-width: 5.10 ;&st6;" /></a><a ewd:lineID="55" style="cursor:pointer;"><path d=" M 1886.68,  469.77  L 1886.68,  613.68  L 1453.26,  613.68  L 1453.26,  483.94 " style="stroke:#999999;stroke-width: 5.10 ;&st6;" /></a><a ewd:lineID="56" style="cursor:pointer;"><path d=" M 1453.26,  410.28  L 1453.26,  469.21 " style="stroke:#999999;stroke-width: 5.10 ;&st6;" /></a><a ewd:lineID="57" style="cursor:pointer;"><path d=" M 1453.26,  349.66  L 1453.26,  273.74 " style="stroke:#008837;stroke-width: 5.10 ;&st6;" /></a><a ewd:lineID="58" style="cursor:pointer;"><path d=" M 1980.17,  417.65  L 1980.17,   87.34 " style="stroke:#999999;stroke-width: 5.10 ;&st6;" /></a><a ewd:lineID="59" style="cursor:pointer;"><path d=" M 2014.16,  417.65  L 2014.16,   87.34 " style="stroke:#FF0000;stroke-width: 5.10 ;&st6;" /></a><a ewd:lineID="60" style="cursor:pointer;"><path d=" M 2048.16,  681.67  L 2048.16,  316.23 " style="stroke:#000000;stroke-width: 5.10 ;&st6;" /><path d=" M 2048.16,  681.67  L 2048.16,  316.23 " style="stroke:#FFFFFF;stroke-width: 4.53 ;&st6;" /><path d=" M 2048.16,  681.67  L 2048.16,  316.23 " style="stroke:#000000;stroke-width: 1.13 ;&st6;" /></a><a ewd:lineID="61" style="cursor:pointer;"><path d=" M 2048.16,   87.34  L 2048.16,  265.24 " style="stroke:#000000;stroke-width: 5.10 ;&st6;" /><path d=" M 2048.16,   87.34  L 2048.16,  265.24 " style="stroke:#FFFFFF;stroke-width: 4.53 ;&st6;" /><path d=" M 2048.16,   87.34  L 2048.16,  265.24 " style="stroke:#000000;stroke-width: 1.13 ;&st6;" /></a><a ewd:lineID="62" style="cursor:pointer;"><path d=" M 2107.65,  146.26  L 2107.65,  681.67 " style="stroke:#000000;stroke-width: 5.10 ;&st6;" /><path d=" M 2107.65,  146.26  L 2107.65,  681.67 " style="stroke:#FFFFFF;stroke-width: 4.53 ;&st6;" /><path d=" M 2107.65,  146.26  L 2107.65,  681.67 " style="stroke:#000000;stroke-width: 1.13 ;&st6;" /></a><a ewd:lineID="63" style="cursor:pointer;"><path d=" M 2150.14,  350.23  L 2150.14,  146.26 " style="stroke:#00A0C6;stroke-width: 5.10 ;&st6;" /></a><a ewd:lineID="64" style="cursor:pointer;"><path d=" M 2192.63,  681.67  L 2192.63,  384.22 " style="stroke:#992903;stroke-width: 5.10 ;&st6;" /></a><a ewd:lineID="65" style="cursor:pointer;"><path d=" M 2192.63,  350.23  L 2192.63,  146.26 " style="stroke:#000000;stroke-width: 5.10 ;&st6;" /></a><a ewd:lineID="66" style="cursor:pointer;"><path d=" M 2243.63,  434.65  L 2243.63,  376.29 " style="stroke:#000000;stroke-width: 5.10 ;&st6;" /><path d=" M 2243.63,  434.65  L 2243.63,  376.29 " style="stroke:#FFFFFF;stroke-width: 4.53 ;&st6;" /></a><a ewd:lineID="67" style="cursor:pointer;"><path d=" M 2243.63,  332.66  L 2243.63,  274.31 " style="stroke:#000000;stroke-width: 5.10 ;&st6;" /><path d=" M 2243.63,  332.66  L 2243.63,  274.31 " style="stroke:#FFFFFF;stroke-width: 4.53 ;&st6;" /></a><a ewd:lineID="68" style="cursor:pointer;"><path d=" M 2243.63,   87.34  L 2243.63,  239.18 " style="stroke:#000000;stroke-width: 5.10 ;&st6;" /><path d=" M 2243.63,   87.34  L 2243.63,  239.18 " style="stroke:#FFFFFF;stroke-width: 4.53 ;&st6;" /></a><a ewd:lineID="69" style="cursor:pointer;"><path d=" M 2277.62,  434.65  L 2277.62,  376.29 " style="stroke:#00A0C6;stroke-width: 5.10 ;&st6;" /></a><a ewd:lineID="70" style="cursor:pointer;"><path d=" M 2277.62,  332.66  L 2277.62,  274.31 " style="stroke:#000000;stroke-width: 5.10 ;&st6;" /></a><a ewd:lineID="71" style="cursor:pointer;"><path d=" M 2277.62,   87.34  L 2277.62,  239.18 " style="stroke:#F668B2;stroke-width: 5.10 ;&st6;" /></a><a ewd:lineID="72" style="cursor:pointer;"><path d=" M 2294.62,  486.77  L 2294.62,  528.70 " style="stroke:#56077D;stroke-width: 5.10 ;&st6;" /></a><a ewd:lineID="73" style="cursor:pointer;"><path d=" M 2328.61,  486.77  L 2328.61,  528.70 " style="stroke:#FF0000;stroke-width: 5.10 ;&st6;" /></a><a ewd:lineID="74" style="cursor:pointer;"><path d=" M 2328.61,  239.75  L 2328.61,  332.66 " style="stroke:#F668B2;stroke-width: 5.10 ;&st6;" /></a><a ewd:lineID="75" style="cursor:pointer;"><path d=" M 2328.61,  225.01  L 2328.61,  155.33 " style="stroke:#000000;stroke-width: 5.10 ;&st6;" /></a><a ewd:lineID="76" style="cursor:pointer;"><path d=" M 2362.61,  239.75  L 2362.61,  332.66 " style="stroke:#000000;stroke-width: 5.10 ;&st6;" /><path d=" M 2362.61,  239.75  L 2362.61,  332.66 " style="stroke:#FFFFFF;stroke-width: 4.53 ;&st6;" /></a><a ewd:lineID="77" style="cursor:pointer;"><path d=" M 2362.61,  224.73  L 2362.61,  155.33 " style="stroke:#000000;stroke-width: 5.10 ;&st6;" /><path d=" M 2362.61,  224.73  L 2362.61,  155.33 " style="stroke:#FFFFFF;stroke-width: 4.53 ;&st6;" /></a><a ewd:lineID="78" style="cursor:pointer;"><path d=" M 2405.10,  486.77  L 2405.10,  528.70 " style="stroke:#008837;stroke-width: 5.10 ;&st6;" /></a><a ewd:lineID="79" style="cursor:pointer;"><path d=" M 2481.59,  239.75  L 2481.59,  324.73  L 2422.10,  324.73  L 2422.10,  299.80 " style="stroke:#FF0000;stroke-width: 5.10 ;&st6;" /></a><a ewd:lineID="80" style="cursor:pointer;"><path d=" M 2439.09,  155.33  L 2439.09,  247.68 " style="stroke:#000000;stroke-width: 5.10 ;&st6;" /></a><a ewd:lineID="81" style="cursor:pointer;"><path d=" M 2481.59,  486.77  L 2481.59,  554.19 " style="stroke:#008837;stroke-width: 5.10 ;&st6;" /></a><a ewd:lineID="82" style="cursor:pointer;"><path d=" M 2481.59,  103.77  L 2481.59,  225.01 " style="stroke:#008837;stroke-width: 5.10 ;&st6;" /></a><a ewd:lineID="83" style="cursor:pointer;"><path d=" M 2515.58,  486.77  L 2515.58,  554.19 " style="stroke:#FFE600;stroke-width: 5.10 ;&st6;" /></a><a ewd:lineID="84" style="cursor:pointer;"><path d=" M 2549.57,  681.67  L 2549.57,  588.19 " style="stroke:#992903;stroke-width: 5.10 ;&st6;" /></a><a ewd:lineID="85" style="cursor:pointer;"><path d=" M 2549.57,  486.77  L 2549.57,  554.19 " style="stroke:#7FC97F;stroke-width: 5.10 ;&st6;" /></a><a ewd:lineID="86" style="cursor:pointer;"><path d=" M 2549.57,  103.77  L 2549.57,  434.65 " style="stroke:#000000;stroke-width: 5.10 ;&st6;" /><path d=" M 2549.57,  103.77  L 2549.57,  434.65 " style="stroke:#FFFFFF;stroke-width: 4.53 ;&st6;" /></a><a ewd:code="Ne1" ewd:figID="40" ewd:figtype="w2w" ewd:pinNo="1" style="cursor:pointer;"><path d=" M   50.99,  171.76  L   33.99,  171.76  L   33.99,  180.26  L   50.99,  180.26  L   50.99,  171.76 " style="&st2;" /><text style="&st8;" transform="matrix(&st16;  36.13  178.5 )"><tspan style="&st18;" x="0" y="0">Ne1</tspan></text></a><a ewd:code="ge2" ewd:figID="41" ewd:figtype="w2w" ewd:pinNo="2" style="cursor:pointer;"><path d=" M   50.99,  545.69  L   33.99,  545.69  L   33.99,  554.19  L   50.99,  554.19  L   50.99,  545.69 " style="&st2;" /><text style="&st8;" transform="matrix(&st16;  36.25  552.44 )"><tspan style="&st18;" x="0" y="0">ge2</tspan></text></a><a ewd:code="KI2" ewd:figID="42" ewd:figtype="w2w" ewd:pinNo="21" style="cursor:pointer;"><path d=" M 1461.76,  469.21  L 1444.76,  469.21  L 1444.76,  477.71  L 1461.76,  477.71  L 1461.76,  469.21 " style="&st2;" /><text style="&st8;" transform="matrix(&st16;  1447.68  475.95 )"><tspan style="&st18;" x="0" y="0">KI2</tspan></text></a><a ewd:code="KI2" ewd:figID="43" ewd:figtype="w2w" ewd:pinNo="20" style="cursor:pointer;"><path d=" M 1427.76,  469.21  L 1410.76,  469.21  L 1410.76,  477.71  L 1427.76,  477.71  L 1427.76,  469.21 " style="&st2;" /><text style="&st8;" transform="matrix(&st16;  1413.69  475.95 )"><tspan style="&st18;" x="0" y="0">KI2</tspan></text></a><a ewd:code="NI1" ewd:figID="44" ewd:figtype="w2w" ewd:pinNo="6" style="cursor:pointer;"><path d=" M  790.37,  545.69  L  773.37,  545.69  L  773.37,  554.19  L  790.37,  554.19  L  790.37,  545.69 " style="&st2;" /><text style="&st8;" transform="matrix(&st16;  776.55  552.44 )"><tspan style="&st18;" x="0" y="0">NI1</tspan></text></a><a ewd:code="NI1" ewd:figID="45" ewd:figtype="w2w" ewd:pinNo="1" style="cursor:pointer;"><path d=" M  756.37,  545.69  L  739.38,  545.69  L  739.38,  554.19  L  756.37,  554.19  L  756.37,  545.69 " style="&st2;" /><text style="&st8;" transform="matrix(&st16;  742.56  552.44 )"><tspan style="&st18;" x="0" y="0">NI1</tspan></text></a><a ewd:code="Ne1" ewd:figID="46" ewd:figtype="w2w" ewd:pinNo="17" style="cursor:pointer;"><path d=" M  790.37,  435.21  L  773.37,  435.21  L  773.37,  443.71  L  790.37,  443.71  L  790.37,  435.21 " style="&st2;" /><text style="&st8;" transform="matrix(&st16;  775.51  441.96 )"><tspan style="&st18;" x="0" y="0">Ne1</tspan></text></a><a ewd:code="Ne1" ewd:figID="47" ewd:figtype="w2w" ewd:pinNo="5" style="cursor:pointer;"><path d=" M  696.88,  545.69  L  679.89,  545.69  L  679.89,  554.19  L  696.88,  554.19  L  696.88,  545.69 " style="&st2;" /><text style="&st8;" transform="matrix(&st16;  682.03  552.44 )"><tspan style="&st18;" x="0" y="0">Ne1</tspan></text></a><a ewd:code="ge2" ewd:figID="48" ewd:figtype="w2w" ewd:pinNo="8" style="cursor:pointer;"><path d=" M  985.84,  418.22  L  968.84,  418.22  L  968.84,  426.71  L  985.84,  426.71  L  985.84,  418.22 " style="&st2;" /><text style="&st8;" transform="matrix(&st16;  971.09  424.96 )"><tspan style="&st18;" x="0" y="0">ge2</tspan></text></a><a ewd:code="ge2" ewd:figID="49" ewd:figtype="w2w" ewd:pinNo="4" style="cursor:pointer;"><path d=" M  934.84,  418.22  L  917.85,  418.22  L  917.85,  426.71  L  934.84,  426.71  L  934.84,  418.22 " style="&st2;" /><text style="&st8;" transform="matrix(&st16;  920.1  424.96 )"><tspan style="&st18;" x="0" y="0">ge2</tspan></text></a><a ewd:code="ge2" ewd:figID="50" ewd:figtype="w2w" ewd:pinNo="6" style="cursor:pointer;"><path d=" M   50.99,  375.72  L   33.99,  375.72  L   33.99,  384.22  L   50.99,  384.22  L   50.99,  375.72 " style="&st2;" /><text style="&st8;" transform="matrix(&st16;  36.25  382.47 )"><tspan style="&st18;" x="0" y="0">ge2</tspan></text></a><a ewd:code="ge2" ewd:figID="51" ewd:figtype="w2w" ewd:pinNo="1" style="cursor:pointer;"><path d=" M   84.99,  375.72  L   67.99,  375.72  L   67.99,  384.22  L   84.99,  384.22  L   84.99,  375.72 " style="&st2;" /><text style="&st8;" transform="matrix(&st16;  70.24  382.47 )"><tspan style="&st18;" x="0" y="0">ge2</tspan></text></a><a ewd:code="ge2" ewd:figID="52" ewd:figtype="w2w" ewd:pinNo="5" style="cursor:pointer;"><path d=" M  118.98,  375.72  L  101.98,  375.72  L  101.98,  384.22  L  118.98,  384.22  L  118.98,  375.72 " style="&st2;" /><text style="&st8;" transform="matrix(&st16;  104.24  382.47 )"><tspan style="&st18;" x="0" y="0">ge2</tspan></text></a><a ewd:code="Ne1" ewd:figID="53" ewd:figtype="w2w" ewd:pinNo="3" style="cursor:pointer;"><path d=" M  824.36,  435.21  L  807.37,  435.21  L  807.37,  443.71  L  824.36,  443.71  L  824.36,  435.21 " style="&st2;" /><text style="&st8;" transform="matrix(&st16;  809.51  441.96 )"><tspan style="&st18;" x="0" y="0">Ne1</tspan></text></a><a ewd:code="IA8" ewd:figID="54" ewd:figtype="w2w" ewd:pinNo="14" style="cursor:pointer;"><path d=" M 2371.10,  231.25  L 2354.11,  231.25  L 2354.11,  239.75  L 2371.10,  239.75  L 2371.10,  231.25 " style="&st2;" /><text style="&st8;" transform="matrix(&st16;  2357.03  237.99 )"><tspan style="&st18;" x="0" y="0">IA8</tspan></text></a><a ewd:code="IA8" ewd:figID="55" ewd:figtype="w2w" ewd:pinNo="15" style="cursor:pointer;"><path d=" M 2337.11,  231.25  L 2320.11,  231.25  L 2320.11,  239.75  L 2337.11,  239.75  L 2337.11,  231.25 " style="&st2;" /><text style="&st8;" transform="matrix(&st16;  2323.03  237.99 )"><tspan style="&st18;" x="0" y="0">IA8</tspan></text></a><a ewd:code="EA2" ewd:figID="56" ewd:figtype="w2w" ewd:pinNo="4" style="cursor:pointer;"><path d=" M 2490.08,  231.25  L 2473.09,  231.25  L 2473.09,  239.75  L 2490.08,  239.75  L 2490.08,  231.25 " style="&st2;" /><text style="&st8;" transform="matrix(&st16;  2474.6  237.99 )"><tspan style="&st18;" x="0" y="0">EA2</tspan></text></a><a ewd:code="KI1" ewd:figID="57" ewd:figtype="w2w" ewd:pinNo="13" style="cursor:pointer;"><path d=" M 1172.80,  545.69  L 1155.81,  545.69  L 1155.81,  554.19  L 1172.80,  554.19  L 1172.80,  545.69 " style="&st2;" /><text style="&st8;" transform="matrix(&st16;  1159.14  552.44 )"><tspan style="&st18;" x="0" y="0">KI1</tspan></text></a><a ewd:code="KI1" ewd:figID="58" ewd:figtype="w2w" ewd:pinNo="6" style="cursor:pointer;"><path d=" M 1249.29,  188.75  L 1232.29,  188.75  L 1232.29,  197.25  L 1249.29,  197.25  L 1249.29,  188.75 " style="&st2;" /><text style="&st8;" transform="matrix(&st16;  1235.62  195.5 )"><tspan style="&st18;" x="0" y="0">KI1</tspan></text></a><a ewd:code="KI2" ewd:figID="59" ewd:figtype="w2w" ewd:pinNo="3" style="cursor:pointer;"><path d=" M 1172.80,  188.75  L 1155.81,  188.75  L 1155.81,  197.25  L 1172.80,  197.25  L 1172.80,  188.75 " style="&st2;" /><text style="&st8;" transform="matrix(&st16;  1158.73  195.5 )"><tspan style="&st18;" x="0" y="0">KI2</tspan></text></a><a ewd:code="Ne1" ewd:figID="60" ewd:figtype="w2w" ewd:pinNo="16" style="cursor:pointer;"><path d=" M  756.37,  435.21  L  739.38,  435.21  L  739.38,  443.71  L  756.37,  443.71  L  756.37,  435.21 " style="&st2;" /><text style="&st8;" transform="matrix(&st16;  741.52  441.96 )"><tspan style="&st18;" x="0" y="0">Ne1</tspan></text></a><a ewd:code="I1" ewd:figID="61" ewd:figtype="gp" style="cursor:pointer;"><path d=" M 2037.53,  681.67  L 2058.78,  681.67  L 2048.16,  697.25  L 2037.53,  681.67 " style="&st2;" /><text style="&st8;" transform="matrix(&st16;  2045.44  689.83 )"><tspan style="&st18;" x="0" y="0">I1</tspan></text></a><a ewd:code="I1" ewd:figID="62" ewd:figtype="gp" style="cursor:pointer;"><path d=" M 1153.68,  681.67  L 1174.93,  681.67  L 1164.31,  697.25  L 1153.68,  681.67 " style="&st2;" /><text style="&st8;" transform="matrix(&st16;  1161.59  689.83 )"><tspan style="&st18;" x="0" y="0">I1</tspan></text></a><a ewd:code="N1" ewd:figID="63" ewd:figtype="gp" style="cursor:pointer;"><path d=" M  677.76,  681.67  L  699.01,  681.67  L  688.38,  697.25  L  677.76,  681.67 " style="&st2;" /><text style="&st8;" transform="matrix(&st16;  684.11  689.83 )"><tspan style="&st18;" x="0" y="0">N1</tspan></text></a><a ewd:code="O1" ewd:figID="64" ewd:figtype="gp" style="cursor:pointer;"><path d=" M 2538.95,  681.67  L 2560.20,  681.67  L 2549.57,  697.25  L 2538.95,  681.67 " style="&st2;" /><text style="&st8;" transform="matrix(&st16;  2545.0  689.83 )"><tspan style="&st18;" x="0" y="0">O1</tspan></text></a><a ewd:code="N1" ewd:figID="65" ewd:figtype="gp" style="cursor:pointer;"><path d=" M 2182.01,  681.67  L 2203.26,  681.67  L 2192.63,  697.25  L 2182.01,  681.67 " style="&st2;" /><text style="&st8;" transform="matrix(&st16;  2188.36  689.83 )"><tspan style="&st18;" x="0" y="0">N1</tspan></text></a><a ewd:code="I3" ewd:figID="66" ewd:figtype="gp" style="cursor:pointer;"><path d=" M 2097.02,  681.67  L 2118.27,  681.67  L 2107.65,  697.25  L 2097.02,  681.67 " style="&st2;" /><text style="&st8;" transform="matrix(&st16;  2104.52  689.83 )"><tspan style="&st18;" x="0" y="0">I3</tspan></text></a><a ewd:code="12817" ewd:figID="67" ewd:figtype="sp" style="cursor:pointer;"><path d=" M 1236.54,  265.24  L 1245.04,  265.24  L 1249.29,  269.49  L 1249.29,  277.99  L 1245.04,  282.24  L 1236.54,  282.24  L 1232.29,  277.99  L 1232.29,  269.49  L 1236.54,  265.24 " style="&st2;" /></a><a ewd:code="12889" ewd:figID="68" ewd:figtype="sp" style="cursor:pointer;"><path d=" M 1160.06,  469.21  L 1168.55,  469.21  L 1172.80,  473.46  L 1172.80,  481.95  L 1168.55,  486.20  L 1160.06,  486.20  L 1155.81,  481.95  L 1155.81,  473.46  L 1160.06,  469.21 " style="&st2;" /></a></g></svg>