﻿<?xml version="1.0" encoding="utf-8"?>
<!DOCTYPE svg PUBLIC "-//W3C//DTD SVG 1.0//EN" "http://www.w3.org/TR/2001/REC-SVG-20010904/DTD/svg10.dtd"[
	<!ENTITY ns_flows "http://ns.adobe.com/Flows/1.0/">
	<!ENTITY ns_svg "http://www.w3.org/2000/svg">
	<!ENTITY ns_xlink "http://www.w3.org/1999/xlink">
	<!ENTITY st0 "font-size:7px;font-family:'MS-PGothic';adobe-font-script:japanese;">
	<!ENTITY st1 "font-size:6px;font-family:'ArialMT';">
	<!-- White fill  -->
	<!ENTITY st2 "fill:#FFFFFF;stroke:#000000; stroke-width:1.41;stroke-linecap:round;stroke-linejoin:round;">
	<!-- Yellow fill  -->
	<!ENTITY st3 "fill:#FFFFCC;stroke:#FFFFCC; stroke-width:0.1;stroke-linecap:round;stroke-linejoin:round;">
	<!-- Gray fill  -->
	<!ENTITY st4 "fill:#CCCCCC;stroke:#CCCCCC; stroke-width:0.1;stroke-linecap:round;stroke-linejoin:round;">
	<!-- Light-blue fill -->
	<!ENTITY st5 "fill:#CCECF4;stroke:#000000; stroke-width:1.133;stroke-linecap:round;stroke-linejoin:round;">
	<!ENTITY st6 "fill:none;stroke-linecap:butt; stroke-linejoin:round;">
	<!ENTITY st7 "fill:none;stroke:#000000;stroke-linecap:round;stroke-linejoin:round;">
	<!ENTITY st8 "enable-background:new    ;">
	<!-- Black fill -->
	<!ENTITY st9 "fill:#000000;stroke:#000000; stroke-linecap:round;stroke-linejoin:round;">
	<!-- SRS note   -->
	<!ENTITY st10 "font-size:9px;font-family:'ArialMT';">
	<!ENTITY st11 "font-size:9px;font-family:'Svg Symbol';">
	<!ENTITY st12 "font-size:6px;font-family:'Svg Symbol';">
	<!ENTITY st13 "fill:none;stroke:#ff0000;stroke-linecap:round;stroke-linejoin:round;">
	<!-- Yellow fill  -->
	<!ENTITY st14 "fill:#FFFF00;stroke:#FFFF00; stroke-width:0.1;stroke-linecap:round;stroke-linejoin:round;">
	<!ENTITY st15 "font-size:6px;font-family:'MS-PGothic';adobe-font-script:japanese;">
	<!ENTITY st16 "1.00 0.00 0.00 1.00">
	<!ENTITY st17 "0.00 -1.00 1.00 0.00">
	<!ENTITY st18 "font-size:6px;font-family:'Arial';">
	<!ENTITY st19 "font-size:9px;font-family:'Arial';">
	<!ENTITY st20 "font-size:6px;font-family:'MS-PGothic','MS PGothic';adobe-font-script:japanese;">
	<!ENTITY st21 "font-size:7px;font-family:'MS-PGothic','MS PGothic';adobe-font-script:japanese;">
	<!ATTLIST svg
		xmlns:ewd CDATA #FIXED "http://shcl.co.jp/ewd"
		xmlns:a CDATA #FIXED "http://ns.adobe.com/AdobeSVGViewerExtensions/3.0/"
		ewd:ver CDATA #IMPLIED
	>
	<!ATTLIST a
		ewd:lineID CDATA #IMPLIED
		ewd:groupID CDATA #IMPLIED
		ewd:figtype CDATA #IMPLIED
		ewd:code CDATA #IMPLIED
		ewd:figID CDATA #IMPLIED
		ewd:pinNo CDATA #IMPLIED
		ewd:comment CDATA #IMPLIED >
	<!ATTLIST g
		ewd:lineID CDATA #IMPLIED
		ewd:groupID CDATA #IMPLIED
		ewd:figtype CDATA #IMPLIED
		ewd:code CDATA #IMPLIED
		ewd:figID CDATA #IMPLIED
		ewd:pinNo CDATA #IMPLIED
		ewd:comment CDATA #IMPLIED >
	<!ATTLIST text
		ewd:textID CDATA #IMPLIED
		ewd:horAlign CDATA #IMPLIED >
	<!ATTLIST title
		ewd:textID CDATA #IMPLIED >
]>
<!-- Generator: Shintec Hozumi YS   -->
<svg onload="call_execInitLoadProc_svg('system')" style="overflow:visible;  enable-background:new 0 0 4139.335 710.000" viewBox="0 0 4142.461 710.000" height="710.000" width="4142.461" xml:space="preserve" ewd:ver="L2.1.2.6" xmlns="&ns_svg;" xmlns:ewd="http://shcl.co.jp/ewd" xmlns:a="http://ns.adobe.com/AdobeSVGViewerExtensions/3.0/" xmlns:xlink="&ns_xlink;"><script type="text/javascript" xlink:href="../../../../../system/js/ewd/fig/svgfig.js" xmlns:xlink="http://www.w3.org/1999/xlink" /><defs><font horiz-adv-x="1229"><font-face font-family="Svg Symbol" units-per-em="2048" panose-1="5 5 1 2 1 7 6 2 5 7" ascent="2059" descent="450" alphabetic="0" /><missing-glyph d="M 103,0 l 0,1280 1024,0 0,-1280 -1024,0 z m 32,32 l 960,0 0,1216 -960,0 0,-1216 z" /><glyph unicode="" horiz-adv-x="1573" d="M 1517,0 l -567,0 24,279 q 141,59 207.5,168 66.5,109 66.5,306    0,272 -132.5,417.5 -132.5,145.5 -333.5,145.5 -194,0 -328,-147.5 -134,-147.5 -134,-401.5 0,-200 68.5,-319 68.5,-119     206.5,-169 l 25,-279 -564,0 0,279 35,0 q 3,-61 32,-83 45,-35 137,-35 l 270,0 0,70 q -210,61 -324.5,209 -114.5,148     -114.5,349 0,252 186.5,425 186.5,173 504.5,173 195,0 358.5,-73.5 163.5,-73.5 252,-214.5 88.5,-141 88.5,-310 0,-207     -121.5,-360.5 -121.5,-153.5 -317.5,-197.5 l -8,-70 275,0 q 92,0 128,28 36,28 42,90 l 38,0 0,-279 z" /></font></defs>
<g id="ewd_top"><a ewd:code="FUSE23" ewd:figID="1" ewd:figtype="rb" style="cursor:pointer;"><path d=" M 3854.11,   95.27  L 3854.11,  137.76  L 3879.60,  137.76  L 3879.60,   95.27  L 3854.11,   95.27 " style="&st5;" /></a><a ewd:code="I174" ewd:figID="2" ewd:figtype="conn" style="cursor:pointer;"><path d=" M 3305.95,  154.76  L 3322.94,  154.76  L 3322.94,  171.76  L 3305.95,  171.76  L 3305.95,  154.76 " style="&st5;" /><title ewd:textID="22">Conector de unión</title></a><a ewd:code="I126" ewd:figID="3" ewd:figtype="conn" style="cursor:pointer;"><path d=" M 2507.08,  222.75  L 2524.08,  222.75  L 2524.08,  239.75  L 2507.08,  239.75  L 2507.08,  222.75 " style="&st5;" /><title ewd:textID="22">Conector de unión</title></a><a ewd:code="I125" ewd:figID="4" ewd:figtype="conn" style="cursor:pointer;"><path d=" M 4087.82,  273.74  L 4104.81,  273.74  L 4104.81,  290.74  L 4087.82,  290.74  L 4087.82,  273.74 " style="&st5;" /><title ewd:textID="22">Conector de unión</title></a><a ewd:code="I34" ewd:figID="5" ewd:figtype="conn" style="cursor:pointer;"><path d=" M 2872.52,  316.23  L 2923.51,  316.23  L 2923.51,  375.72  L 2872.52,  375.72  L 2872.52,  316.23 " style="&st5;" /><title ewd:textID="36">Amplificador de la llave transpondedora</title></a><a ewd:code="FUSE6" ewd:figID="6" ewd:figtype="rb" style="cursor:pointer;"><path d=" M 2664.30,  112.27  L 2664.30,  154.76  L 2689.80,  154.76  L 2689.80,  112.27  L 2664.30,  112.27 " style="&st5;" /></a><a ewd:code="c1" ewd:figID="7" ewd:figtype="conn" style="cursor:pointer;"><path d=" M 2711.05,  418.22  L 2668.55,  418.22  L 2668.55,  452.21  L 2711.05,  452.21  L 2711.05,  418.22 " style="&st5;" /><title ewd:textID="23">Relé de apagado de la luz</title></a><a ewd:code="I124" ewd:figID="8" ewd:figtype="conn" style="cursor:pointer;"><path d=" M 2447.59,  222.75  L 2464.59,  222.75  L 2464.59,  239.75  L 2447.59,  239.75  L 2447.59,  222.75 " style="&st5;" /><title ewd:textID="22">Conector de unión</title></a><a ewd:code="S12" ewd:figID="9" ewd:figtype="conn" style="cursor:pointer;"><path d=" M 3008.50,  426.71  L 3025.49,  426.71  L 3025.49,  443.71  L 3008.50,  443.71  L 3008.50,  426.71 " style="&st5;" /><title ewd:textID="22">Conector de unión</title></a><a ewd:code="I198,I94,I95" ewd:figID="10" ewd:figtype="conn" style="cursor:pointer;"><path d=" M 3458.92,  239.75  L 3518.41,  239.75  L 3518.41,  222.75  L 3458.92,  222.75  L 3458.92,  239.75 " style="&st5;" /><title ewd:textID="22">Conector de unión</title></a><a ewd:code="A73" ewd:figID="11" ewd:figtype="conn" style="cursor:pointer;"><path d=" M  977.34,  656.18  L  977.34,  673.17  L  994.33,  673.17  L  994.33,  656.18  L  977.34,  656.18 " style="&st5;" /><title ewd:textID="22">Conector de unión</title></a><a ewd:code="K1" ewd:figID="12" ewd:figtype="conn" style="cursor:pointer;"><path d=" M 1368.27,  596.69  L 1648.72,  596.69  L 1648.72,  511.70  L 1368.27,  511.70  L 1368.27,  596.69 " style="&st5;" /><title ewd:textID="18">Conjunto de bloqueo de la puerta delantera con motor LH</title></a><a ewd:code="M1" ewd:figID="13" ewd:figtype="conn" style="cursor:pointer;"><path d=" M 1087.82,  596.69  L 1198.30,  596.69  L 1198.30,  511.70  L 1087.82,  511.70  L 1087.82,  596.69 " style="&st5;" /><title ewd:textID="32">Conjunto de bloqueo de la puerta trasera con motor LH</title></a><a ewd:code="I12,I13" ewd:figID="14" ewd:figtype="conn" style="cursor:pointer;"><path d=" M  263.46,   78.27  L 4045.32,   78.27  L 4045.32,   35.78  L  263.46,   35.78  L  263.46,   78.27 " style="&st5;" /><title ewd:textID="25">ECU de la carrocería principal</title></a><a ewd:code="I17,I18" ewd:figID="15" ewd:figtype="conn" style="cursor:pointer;"><path d=" M 3764.87,  409.72  L 3951.84,  409.72  L 3951.84,  290.74  L 3764.87,  290.74  L 3764.87,  409.72 " style="&st5;" /><title ewd:textID="11">Conjunto del panel de instrumentos</title></a><a ewd:code="FUSE12" ewd:figID="16" ewd:figtype="rb" style="cursor:pointer;"><path d=" M   29.75,   35.78  L   29.75,   78.27  L   55.24,   78.27  L   55.24,   35.78  L   29.75,   35.78 " style="&st5;" /></a><a ewd:code="J1" ewd:figID="17" ewd:figtype="conn" style="cursor:pointer;"><path d=" M 1767.70,  596.69  L 1912.18,  596.69  L 1912.18,  511.70  L 1767.70,  511.70  L 1767.70,  596.69 " style="&st5;" /><title ewd:textID="19">Conjunto de bloqueo de la puerta delantera con motor RH</title></a><a ewd:code="A15" ewd:figID="18" ewd:figtype="conn" style="cursor:pointer;"><path d=" M  960.34,  452.21  L  960.34,  503.20  L  994.33,  503.20  L  994.33,  452.21  L  960.34,  452.21 " style="&st5;" /><title ewd:textID="39">Zumbador de bloqueo inalámbrico de la puerta</title></a><a ewd:code="I126" ewd:figID="19" ewd:figtype="conn" style="cursor:pointer;"><path d=" M 2668.55,  579.69  L 2719.55,  579.69  L 2719.55,  562.69  L 2668.55,  562.69  L 2668.55,  579.69 " style="&st5;" /><title ewd:textID="22">Conector de unión</title></a><a ewd:code="I101,I94" ewd:figID="20" ewd:figtype="conn" style="cursor:pointer;"><path d=" M 3671.39,  341.73  L 3730.88,  341.73  L 3730.88,  358.73  L 3671.39,  358.73  L 3671.39,  341.73 " style="&st5;" /><title ewd:textID="22">Conector de unión</title></a><a ewd:code="FUSE12" ewd:figID="21" ewd:figtype="rb" style="cursor:pointer;"><path d=" M 4083.57,   35.78  L 4083.57,   78.27  L 4109.06,   78.27  L 4109.06,   35.78  L 4083.57,   35.78 " style="&st5;" /></a><a ewd:code="S7" ewd:figID="22" ewd:figtype="conn" style="cursor:pointer;"><path d=" M 2966.00,  307.73  L 2966.00,  358.73  L 3093.48,  358.73  L 3093.48,  307.73  L 2966.00,  307.73 " style="&st5;" /><title ewd:textID="34">Conjunto de la caja de la consola del techo</title></a><a ewd:code="T3" ewd:figID="23" ewd:figtype="conn" style="cursor:pointer;"><path d=" M 2235.13,  520.20  L 2311.61,  520.20  L 2311.61,  443.71  L 2235.13,  443.71  L 2235.13,  520.20 " style="&st5;" /><title ewd:textID="24">Conjunto de bloqueo de la puerta del compartimento de equipajes</title></a><a ewd:code="N15" ewd:figID="24" ewd:figtype="conn" style="cursor:pointer;"><path d=" M 3220.96,  375.72  L 3220.96,  341.73  L 3203.96,  341.73  L 3203.96,  375.72  L 3220.96,  375.72 " style="&st5;" /><title ewd:textID="30">Conjunto del interruptor de la luz interior de portón trasero LH</title></a><a ewd:code="O10" ewd:figID="25" ewd:figtype="conn" style="cursor:pointer;"><path d=" M 3280.45,  375.72  L 3280.45,  341.73  L 3263.45,  341.73  L 3263.45,  375.72  L 3280.45,  375.72 " style="&st5;" /><title ewd:textID="17">Conjunto del interruptor de la luz interior de la puerta delantera RH</title></a><a ewd:code="N7" ewd:figID="26" ewd:figtype="conn" style="cursor:pointer;"><path d=" M 3373.94,  375.72  L 3373.94,  341.73  L 3356.94,  341.73  L 3356.94,  375.72  L 3373.94,  375.72 " style="&st5;" /><title ewd:textID="16">Conjunto del interruptor de la luz interior de la puerta delantera LH</title></a><a ewd:code="O16" ewd:figID="27" ewd:figtype="conn" style="cursor:pointer;"><path d=" M 3161.47,  375.72  L 3161.47,  341.73  L 3144.47,  341.73  L 3144.47,  375.72  L 3161.47,  375.72 " style="&st5;" /><title ewd:textID="31">Conjunto del interruptor de la luz interior de portón trasero RH</title></a><a ewd:code="I93,I95" ewd:figID="28" ewd:figtype="conn" style="cursor:pointer;"><path d=" M 3671.39,  222.75  L 3730.88,  222.75  L 3730.88,  239.75  L 3671.39,  239.75  L 3671.39,  222.75 " style="&st5;" /><title ewd:textID="22">Conector de unión</title></a><a ewd:code="FUSE26" ewd:figID="29" ewd:figtype="rb" style="cursor:pointer;"><path d=" M  539.66,  103.77  L  539.66,  146.26  L  565.16,  146.26  L  565.16,  103.77  L  539.66,  103.77 " style="&st5;" /></a><a ewd:code="I33" ewd:figID="30" ewd:figtype="conn" style="cursor:pointer;"><path d=" M 2464.59,  409.72  L 2464.59,  375.72  L 2447.59,  375.72  L 2447.59,  409.72  L 2464.59,  409.72 " style="&st5;" /><title ewd:textID="37">Conjunto del interruptor de advertencia de desbloqueo</title></a><a ewd:code="L1" ewd:figID="31" ewd:figtype="conn" style="cursor:pointer;"><path d=" M 1223.80,  596.69  L 1334.28,  596.69  L 1334.28,  511.70  L 1223.80,  511.70  L 1223.80,  596.69 " style="&st5;" /><title ewd:textID="33">Conjunto de bloqueo de la puerta trasera con motor RH</title></a><a ewd:code="O24" ewd:figID="32" ewd:figtype="conn" style="cursor:pointer;"><path d=" M 3977.34,  520.20  L 4113.31,  520.20  L 4113.31,  477.71  L 3977.34,  477.71  L 3977.34,  520.20 " style="&st5;" /><title ewd:textID="14">Receptor de control de puerta</title></a><a ewd:code="3" ewd:figID="33" ewd:figtype="jb" style="cursor:pointer;"><path d=" M  101.98,   35.78  L  101.98,  154.76  L  373.94,  154.76  L  373.94,   78.27  L  246.46,   78.27  L  246.46,   35.78  L  101.98,   35.78 " style="&st4;" /></a><a ewd:code="3" ewd:figID="34" ewd:figtype="jb" style="cursor:pointer;"><path d=" M  407.93,  180.26  L  407.93,  231.25  L  433.43,  231.25  L  433.43,  180.26  L  407.93,  180.26 " style="&st4;" /></a><a ewd:code="3" ewd:figID="35" ewd:figtype="jb" style="cursor:pointer;"><path d=" M 2150.14,   78.27  L 2150.14,  282.24  L 2362.61,  282.24  L 2362.61,  112.27  L 2218.13,  112.27  L 2218.13,   78.27  L 2150.14,   78.27 " style="&st4;" /></a><a ewd:code="3" ewd:figID="36" ewd:figtype="jb" style="cursor:pointer;"><path d=" M 4079.32,  154.76  L 4079.32,  205.75  L 4104.81,  205.75  L 4104.81,  154.76  L 4079.32,  154.76 " style="&st4;" /></a><a ewd:code="3" ewd:figID="37" ewd:figtype="jb" style="cursor:pointer;"><path d=" M 2881.02,   78.27  L 2881.02,  146.26  L 2991.50,  146.26  L 2991.50,   78.27  L 2881.02,   78.27 " style="&st4;" /></a><a ewd:code="3" ewd:figID="38" ewd:figtype="jb" style="cursor:pointer;"><path d=" M 3348.44,   78.27  L 3348.44,  137.76  L 3373.94,  137.76  L 3373.94,   78.27  L 3348.44,   78.27 " style="&st4;" /></a><a ewd:code="3" ewd:figID="39" ewd:figtype="jb" style="cursor:pointer;"><path d=" M  603.40,  103.77  L  603.40,  205.75  L  526.91,  205.75  L  526.91,  341.73  L 1504.25,  341.73  L 1504.25,   78.27  L  637.39,   78.27  L  637.39,  103.77  L  603.40,  103.77 " style="&st4;" /></a><a ewd:code="FUSE6" ewd:figID="40" ewd:figtype="fuse" style="cursor:pointer;"><path d=" M 2664.30,  112.27  L 2664.30,  154.76  L 2689.80,  154.76  L 2689.80,  112.27  L 2664.30,  112.27 " style="&st7;" /></a><a ewd:code="FUSE12" ewd:figID="41" ewd:figtype="fuse" style="cursor:pointer;"><path d=" M 4083.57,   35.78  L 4083.57,   78.27  L 4109.06,   78.27  L 4109.06,   35.78  L 4083.57,   35.78 " style="&st7;" /></a><a ewd:code="FUSE12" ewd:figID="42" ewd:figtype="fuse" style="cursor:pointer;"><path d=" M   29.75,   35.78  L   29.75,   78.27  L   55.24,   78.27  L   55.24,   35.78  L   29.75,   35.78 " style="&st7;" /></a><a ewd:code="FUSE72" ewd:figID="43" ewd:figtype="fuse" style="cursor:pointer;"><path d=" M  607.65,  103.77  L  607.65,  146.26  L  633.14,  146.26  L  633.14,  103.77  L  607.65,  103.77 " style="&st7;" /></a><a ewd:code="FUSE63" ewd:figID="44" ewd:figtype="fuse" style="cursor:pointer;"><path d=" M  106.23,   35.78  L  106.23,   78.27  L  131.73,   78.27  L  131.73,   35.78  L  106.23,   35.78 " style="&st7;" /></a><a ewd:code="FUSE23" ewd:figID="45" ewd:figtype="fuse" style="cursor:pointer;"><path d=" M 3854.11,   95.27  L 3854.11,  137.76  L 3879.60,  137.76  L 3879.60,   95.27  L 3854.11,   95.27 " style="&st7;" /></a><a ewd:code="FUSE72" ewd:figID="46" ewd:figtype="fuse" style="cursor:pointer;"><path d=" M 2281.87,  112.27  L 2281.87,  154.76  L 2307.36,  154.76  L 2307.36,  112.27  L 2281.87,  112.27 " style="&st7;" /></a><a ewd:code="FUSE53" ewd:figID="47" ewd:figtype="fuse" style="cursor:pointer;"><path d=" M  182.72,   35.78  L  182.72,   78.27  L  208.22,   78.27  L  208.22,   35.78  L  182.72,   35.78 " style="&st7;" /></a><a ewd:code="FUSE26" ewd:figID="48" ewd:figtype="fuse" style="cursor:pointer;"><path d=" M  539.66,  103.77  L  539.66,  146.26  L  565.16,  146.26  L  565.16,  103.77  L  539.66,  103.77 " style="&st7;" /></a><a ewd:lineID="1" style="cursor:pointer;"><path d=" M  365.44,  154.76  L  365.44,  180.26  L   42.49,  180.26  L   42.49,  103.77 " style="stroke:#56077D;stroke-width: 5.10 ;&st6;" /></a><a ewd:lineID="2" style="cursor:pointer;"><path d=" M  424.93,  231.25  L  424.93,  681.67 " style="stroke:#000000;stroke-width: 5.10 ;&st6;" /><path d=" M  424.93,  231.25  L  424.93,  681.67 " style="stroke:#FFFFFF;stroke-width: 4.53 ;&st6;" /><path d=" M  424.93,  231.25  L  424.93,  681.67 " style="stroke:#000000;stroke-width: 1.13 ;&st6;" /></a><a ewd:lineID="3" style="cursor:pointer;"><path d=" M  424.93,   87.34  L  424.93,  180.26 " style="stroke:#000000;stroke-width: 5.10 ;&st6;" /><path d=" M  424.93,   87.34  L  424.93,  180.26 " style="stroke:#FFFFFF;stroke-width: 4.53 ;&st6;" /><path d=" M  424.93,   87.34  L  424.93,  180.26 " style="stroke:#000000;stroke-width: 1.13 ;&st6;" /></a><a ewd:lineID="4" style="cursor:pointer;"><path d=" M  552.41,  171.76  L  552.41,  205.75 " style="stroke:#00A0C6;stroke-width: 5.10 ;&st6;" /></a><a ewd:lineID="5" style="cursor:pointer;"><path d=" M  875.35,  341.73  L  875.35,  681.67 " style="stroke:#000000;stroke-width: 5.10 ;&st6;" /><path d=" M  875.35,  341.73  L  875.35,  681.67 " style="stroke:#FFFFFF;stroke-width: 4.53 ;&st6;" /><path d=" M  875.35,  341.73  L  875.35,  681.67 " style="stroke:#000000;stroke-width: 1.13 ;&st6;" /></a><a ewd:lineID="6" style="cursor:pointer;"><path d=" M  934.84,  605.18  L  934.84,  681.67 " style="stroke:#000000;stroke-width: 5.10 ;&st6;" /><path d=" M  934.84,  605.18  L  934.84,  681.67 " style="stroke:#FFFFFF;stroke-width: 4.53 ;&st6;" /><path d=" M  934.84,  605.18  L  934.84,  681.67 " style="stroke:#000000;stroke-width: 1.13 ;&st6;" /></a><a ewd:lineID="7" style="cursor:pointer;"><path d=" M  934.84,  588.19  L  934.84,  520.20  L  977.34,  520.20  L  985.84,  511.70  L  985.84,  503.20 " style="stroke:#000000;stroke-width: 5.10 ;&st6;" /><path d=" M  934.84,  588.19  L  934.84,  520.20  L  977.34,  520.20  L  985.84,  511.70  L  985.84,  503.20 " style="stroke:#FFFFFF;stroke-width: 4.53 ;&st6;" /><path d=" M  934.84,  588.19  L  934.84,  520.20  L  977.34,  520.20  L  985.84,  511.70  L  985.84,  503.20 " style="stroke:#000000;stroke-width: 1.13 ;&st6;" /></a><a ewd:lineID="8" style="cursor:pointer;"><path d=" M  985.84,  605.18  L  985.84,  656.18 " style="stroke:#00A0C6;stroke-width: 5.10 ;&st6;" /></a><a ewd:lineID="9" style="cursor:pointer;"><path d=" M  985.84,  503.20  L  985.84,  588.19 " style="stroke:#00A0C6;stroke-width: 5.10 ;&st6;" /></a><a ewd:lineID="10" style="cursor:pointer;"><path d=" M  985.84,  341.73  L  985.84,  452.21 " style="stroke:#C3AF96;stroke-width: 5.10 ;&st6;" /></a><a ewd:lineID="11" style="cursor:pointer;"><path d=" M 1113.31,  653.91  L 1113.31,  681.67 " style="stroke:#992903;stroke-width: 5.10 ;&st6;" /></a><a ewd:lineID="12" style="cursor:pointer;"><path d=" M 1113.31,  596.69  L 1113.31,  639.18 " style="stroke:#992903;stroke-width: 5.10 ;&st6;" /></a><a ewd:lineID="13" style="cursor:pointer;"><path d=" M 1113.31,  460.71  L 1113.31,  511.70 " style="stroke:#7FC97F;stroke-width: 5.10 ;&st6;" /></a><a ewd:lineID="14" style="cursor:pointer;"><path d=" M 1113.31,  341.73  L 1113.31,  445.98 " style="stroke:#7FC97F;stroke-width: 5.10 ;&st6;" /></a><a ewd:lineID="15" style="cursor:pointer;"><path d=" M 1147.31,  460.71  L 1147.31,  511.70 " style="stroke:#000000;stroke-width: 5.10 ;&st6;" /></a><a ewd:lineID="16" style="cursor:pointer;"><path d=" M 1147.31,  445.98  L 1147.31,  341.73 " style="stroke:#008837;stroke-width: 5.10 ;&st6;" /></a><a ewd:lineID="17" style="cursor:pointer;"><path d=" M 1181.30,  511.70  L 1181.30,  460.71 " style="stroke:#7FC97F;stroke-width: 5.10 ;&st6;" /></a><a ewd:lineID="18" style="cursor:pointer;"><path d=" M 1181.30,  445.98  L 1181.30,  341.73 " style="stroke:#00A0C6;stroke-width: 5.10 ;&st6;" /></a><a ewd:lineID="19" style="cursor:pointer;"><path d=" M 1249.29,  653.91  L 1249.29,  681.67 " style="stroke:#992903;stroke-width: 5.10 ;&st6;" /></a><a ewd:lineID="20" style="cursor:pointer;"><path d=" M 1249.29,  596.69  L 1249.29,  639.18 " style="stroke:#992903;stroke-width: 5.10 ;&st6;" /></a><a ewd:lineID="21" style="cursor:pointer;"><path d=" M 1249.29,  460.71  L 1249.29,  511.70 " style="stroke:#7FC97F;stroke-width: 5.10 ;&st6;" /></a><a ewd:lineID="22" style="cursor:pointer;"><path d=" M 1249.29,  398.95  L 1249.29,  445.98 " style="stroke:#7FC97F;stroke-width: 5.10 ;&st6;" /></a><a ewd:lineID="23" style="cursor:pointer;"><path d=" M 1249.29,  341.73  L 1249.29,  384.22 " style="stroke:#FFE600;stroke-width: 5.10 ;&st6;" /></a><a ewd:lineID="24" style="cursor:pointer;"><path d=" M 1283.29,  511.70  L 1283.29,  460.71 " style="stroke:#000000;stroke-width: 5.10 ;&st6;" /></a><a ewd:lineID="25" style="cursor:pointer;"><path d=" M 1283.29,  445.98  L 1283.29,  398.95 " style="stroke:#000000;stroke-width: 5.10 ;&st6;" /></a><a ewd:lineID="26" style="cursor:pointer;"><path d=" M 1283.29,  384.22  L 1283.29,  341.73 " style="stroke:#000000;stroke-width: 5.10 ;&st6;" /></a><a ewd:lineID="27" style="cursor:pointer;"><path d=" M 1317.28,  511.70  L 1317.28,  460.71 " style="stroke:#7FC97F;stroke-width: 5.10 ;&st6;" /></a><a ewd:lineID="28" style="cursor:pointer;"><path d=" M 1317.28,  445.98  L 1317.28,  398.95 " style="stroke:#00A0C6;stroke-width: 5.10 ;&st6;" /></a><a ewd:lineID="29" style="cursor:pointer;"><path d=" M 1317.28,  384.22  L 1317.28,  341.73 " style="stroke:#00A0C6;stroke-width: 5.10 ;&st6;" /></a><a ewd:lineID="30" style="cursor:pointer;"><path d=" M 1385.27,  511.70  L 1385.27,  460.71 " style="stroke:#FF0000;stroke-width: 5.10 ;&st6;" /></a><a ewd:lineID="31" style="cursor:pointer;"><path d=" M 1385.27,  445.69  L 1385.27,  341.73 " style="stroke:#000000;stroke-width: 5.10 ;&st6;" /><path d=" M 1385.27,  445.69  L 1385.27,  341.73 " style="stroke:#FFFFFF;stroke-width: 4.53 ;&st6;" /></a><a ewd:lineID="32" style="cursor:pointer;"><path d=" M 1419.26,  341.73  L 1419.26,  426.71  L 1444.76,  426.71  L 1461.76,  443.71  L 1461.76,  445.98 " style="stroke:#999999;stroke-width: 5.10 ;&st6;" /></a><a ewd:lineID="33" style="cursor:pointer;"><path d=" M 1852.69,  445.98  L 1852.69,  443.71  L 1835.69,  426.71  L 1835.69,  409.72  L 1436.26,  409.72  L 1436.26,  367.22  L 1419.26,  350.23  L 1419.26,  341.73 " style="stroke:#56077D;stroke-width: 5.10 ;&st6;" /></a><a ewd:lineID="34" style="cursor:pointer;"><path d=" M 1461.76,  511.70  L 1461.76,  460.71 " style="stroke:#999999;stroke-width: 5.10 ;&st6;" /></a><a ewd:lineID="35" style="cursor:pointer;"><path d=" M 1461.76,  445.98  L 1461.76,  341.73 " style="stroke:#999999;stroke-width: 5.10 ;&st6;" /></a><a ewd:lineID="36" style="cursor:pointer;"><path d=" M 1852.69,  445.98  L 1852.69,  392.72  L 1478.75,  392.72  L 1478.75,  367.22  L 1461.76,  350.23  L 1461.76,  341.73 " style="stroke:#56077D;stroke-width: 5.10 ;&st6;" /></a><a ewd:lineID="37" style="cursor:pointer;"><path d=" M 1495.75,  341.73  L 1495.75,  426.71  L 1784.70,  426.71  L 1784.70,  445.98 " style="stroke:#000000;stroke-width: 5.10 ;&st6;" /></a><a ewd:lineID="38" style="cursor:pointer;"><path d=" M 1623.23,  647.68  L 1623.23,  673.17  L 1674.22,  673.17  L 1674.22,  613.68  L 1725.21,  613.68  L 1725.21,  630.68 " style="stroke:#000000;stroke-width: 5.10 ;&st6;" /><path d=" M 1623.23,  647.68  L 1623.23,  673.17  L 1674.22,  673.17  L 1674.22,  613.68  L 1725.21,  613.68  L 1725.21,  630.68 " style="stroke:#FFFFFF;stroke-width: 4.53 ;&st6;" /><path d=" M 1623.23,  647.68  L 1623.23,  673.17  L 1674.22,  673.17  L 1674.22,  613.68  L 1725.21,  613.68  L 1725.21,  630.68 " style="stroke:#000000;stroke-width: 1.13 ;&st6;" /></a><a ewd:lineID="39" style="cursor:pointer;"><path d=" M 1623.23,  596.69  L 1623.23,  630.68 " style="stroke:#000000;stroke-width: 5.10 ;&st6;" /><path d=" M 1623.23,  596.69  L 1623.23,  630.68 " style="stroke:#FFFFFF;stroke-width: 4.53 ;&st6;" /><path d=" M 1623.23,  596.69  L 1623.23,  630.68 " style="stroke:#000000;stroke-width: 1.13 ;&st6;" /></a><a ewd:lineID="40" style="cursor:pointer;"><path d=" M 1623.23,  460.71  L 1623.23,  511.70 " style="stroke:#56077D;stroke-width: 5.10 ;&st6;" /></a><a ewd:lineID="41" style="cursor:pointer;"><path d=" M 1623.23,   87.34  L 1623.23,  445.98 " style="stroke:#56077D;stroke-width: 5.10 ;&st6;" /></a><a ewd:lineID="42" style="cursor:pointer;"><path d=" M 1725.21,  645.41  L 1725.21,  681.67 " style="stroke:#000000;stroke-width: 5.10 ;&st6;" /><path d=" M 1725.21,  645.41  L 1725.21,  681.67 " style="stroke:#FFFFFF;stroke-width: 4.53 ;&st6;" /><path d=" M 1725.21,  645.41  L 1725.21,  681.67 " style="stroke:#000000;stroke-width: 1.13 ;&st6;" /></a><a ewd:lineID="43" style="cursor:pointer;"><path d=" M 1784.70,  681.67  L 1784.70,  613.68  L 1835.69,  613.68  L 1835.69,  641.44 " style="stroke:#000000;stroke-width: 5.10 ;&st6;" /><path d=" M 1784.70,  681.67  L 1784.70,  613.68  L 1835.69,  613.68  L 1835.69,  641.44 " style="stroke:#FFFFFF;stroke-width: 4.53 ;&st6;" /><path d=" M 1784.70,  681.67  L 1784.70,  613.68  L 1835.69,  613.68  L 1835.69,  641.44 " style="stroke:#000000;stroke-width: 1.13 ;&st6;" /></a><a ewd:lineID="44" style="cursor:pointer;"><path d=" M 1784.70,  511.70  L 1784.70,  460.71 " style="stroke:#000000;stroke-width: 5.10 ;&st6;" /></a><a ewd:lineID="45" style="cursor:pointer;"><path d=" M 1886.68,  647.68  L 1886.68,  681.67  L 1835.69,  681.67  L 1835.69,  664.67 " style="stroke:#000000;stroke-width: 5.10 ;&st6;" /><path d=" M 1886.68,  647.68  L 1886.68,  681.67  L 1835.69,  681.67  L 1835.69,  664.67 " style="stroke:#FFFFFF;stroke-width: 4.53 ;&st6;" /><path d=" M 1886.68,  647.68  L 1886.68,  681.67  L 1835.69,  681.67  L 1835.69,  664.67 " style="stroke:#000000;stroke-width: 1.13 ;&st6;" /></a><a ewd:lineID="46" style="cursor:pointer;"><path d=" M 1852.69,  511.70  L 1852.69,  460.71 " style="stroke:#56077D;stroke-width: 5.10 ;&st6;" /></a><a ewd:lineID="47" style="cursor:pointer;"><path d=" M 1886.68,  596.69  L 1886.68,  630.68 " style="stroke:#000000;stroke-width: 5.10 ;&st6;" /><path d=" M 1886.68,  596.69  L 1886.68,  630.68 " style="stroke:#FFFFFF;stroke-width: 4.53 ;&st6;" /><path d=" M 1886.68,  596.69  L 1886.68,  630.68 " style="stroke:#000000;stroke-width: 1.13 ;&st6;" /></a><a ewd:lineID="48" style="cursor:pointer;"><path d=" M 1886.68,  460.71  L 1886.68,  511.70 " style="stroke:#000000;stroke-width: 5.10 ;&st6;" /><path d=" M 1886.68,  460.71  L 1886.68,  511.70 " style="stroke:#FFFFFF;stroke-width: 4.53 ;&st6;" /></a><a ewd:lineID="49" style="cursor:pointer;"><path d=" M 1886.68,   87.34  L 1886.68,  445.69 " style="stroke:#000000;stroke-width: 5.10 ;&st6;" /><path d=" M 1886.68,   87.34  L 1886.68,  445.69 " style="stroke:#FFFFFF;stroke-width: 4.53 ;&st6;" /></a><a ewd:lineID="50" style="cursor:pointer;"><path d=" M 2167.14,  282.24  L 2167.14,  350.23  L 2252.12,  350.23  L 2252.12,  360.71 " style="stroke:#000000;stroke-width: 5.10 ;&st6;" /><path d=" M 2167.14,  282.24  L 2167.14,  350.23  L 2252.12,  350.23  L 2252.12,  360.71 " style="stroke:#FFFFFF;stroke-width: 4.53 ;&st6;" /></a><a ewd:lineID="51" style="cursor:pointer;"><path d=" M 2252.12,  375.72  L 2252.12,  443.71 " style="stroke:#000000;stroke-width: 5.10 ;&st6;" /><path d=" M 2252.12,  375.72  L 2252.12,  443.71 " style="stroke:#FFFFFF;stroke-width: 4.53 ;&st6;" /></a><a ewd:lineID="52" style="cursor:pointer;"><path d=" M 2294.62,  681.67  L 2294.62,  622.18 " style="stroke:#000000;stroke-width: 5.10 ;&st6;" /><path d=" M 2294.62,  681.67  L 2294.62,  622.18 " style="stroke:#FFFFFF;stroke-width: 4.53 ;&st6;" /><path d=" M 2294.62,  681.67  L 2294.62,  622.18 " style="stroke:#000000;stroke-width: 1.13 ;&st6;" /></a><a ewd:lineID="53" style="cursor:pointer;"><path d=" M 2294.62,  605.18  L 2294.62,  520.20 " style="stroke:#000000;stroke-width: 5.10 ;&st6;" /><path d=" M 2294.62,  605.18  L 2294.62,  520.20 " style="stroke:#FFFFFF;stroke-width: 4.53 ;&st6;" /><path d=" M 2294.62,  605.18  L 2294.62,  520.20 " style="stroke:#000000;stroke-width: 1.13 ;&st6;" /></a><a ewd:lineID="54" style="cursor:pointer;"><path d=" M 2294.62,  375.72  L 2294.62,  443.71 " style="stroke:#000000;stroke-width: 5.10 ;&st6;" /></a><a ewd:lineID="55" style="cursor:pointer;"><path d=" M 2294.62,  282.24  L 2294.62,  360.99 " style="stroke:#FF0000;stroke-width: 5.10 ;&st6;" /></a><a ewd:lineID="56" style="cursor:pointer;"><path d=" M 2354.11,  282.24  L 2354.11,  681.67 " style="stroke:#000000;stroke-width: 5.10 ;&st6;" /><path d=" M 2354.11,  282.24  L 2354.11,  681.67 " style="stroke:#FFFFFF;stroke-width: 4.53 ;&st6;" /><path d=" M 2354.11,  282.24  L 2354.11,  681.67 " style="stroke:#000000;stroke-width: 1.13 ;&st6;" /></a><a ewd:lineID="57" style="cursor:pointer;"><path d=" M 2456.09,  545.69  L 2456.09,  681.67 " style="stroke:#000000;stroke-width: 5.10 ;&st6;" /><path d=" M 2456.09,  545.69  L 2456.09,  681.67 " style="stroke:#FFFFFF;stroke-width: 4.53 ;&st6;" /><path d=" M 2456.09,  545.69  L 2456.09,  681.67 " style="stroke:#000000;stroke-width: 1.13 ;&st6;" /></a><a ewd:lineID="58" style="cursor:pointer;"><path d=" M 2456.09,  409.72  L 2456.09,  528.70 " style="stroke:#992903;stroke-width: 5.10 ;&st6;" /></a><a ewd:lineID="59" style="cursor:pointer;"><path d=" M 2456.09,  239.75  L 2456.09,  375.72 " style="stroke:#008837;stroke-width: 5.10 ;&st6;" /></a><a ewd:lineID="60" style="cursor:pointer;"><path d=" M 2456.09,  375.72  L 2456.09,  367.22  L 2464.59,  358.73  L 2515.58,  358.73  L 2515.58,  239.75 " style="stroke:#008837;stroke-width: 5.10 ;&st6;" /></a><a ewd:lineID="61" style="cursor:pointer;"><path d=" M 2456.09,   87.34  L 2456.09,  222.75 " style="stroke:#008837;stroke-width: 5.10 ;&st6;" /></a><a ewd:lineID="62" style="cursor:pointer;"><path d=" M 2456.09,   87.34  L 2456.09,   95.27  L 2464.59,  103.77  L 2515.58,  103.77  L 2515.58,  222.75 " style="stroke:#008837;stroke-width: 5.10 ;&st6;" /></a><a ewd:lineID="63" style="cursor:pointer;"><path d=" M 2464.59,  537.20  L 2515.58,  537.20  L 2515.58,  681.67 " style="stroke:#000000;stroke-width: 5.10 ;&st6;" /><path d=" M 2464.59,  537.20  L 2515.58,  537.20  L 2515.58,  681.67 " style="stroke:#FFFFFF;stroke-width: 4.53 ;&st6;" /><path d=" M 2464.59,  537.20  L 2515.58,  537.20  L 2515.58,  681.67 " style="stroke:#000000;stroke-width: 1.13 ;&st6;" /></a><a ewd:lineID="64" style="cursor:pointer;"><path d=" M 2677.05,  299.24  L 2677.05,  290.74  L 2668.55,  282.24  L 2634.56,  282.24  L 2634.56,  248.24 " style="stroke:#FFE600;stroke-width: 5.10 ;&st6;" /></a><a ewd:lineID="65" style="cursor:pointer;"><path d=" M 2677.05,  180.26  L 2677.05,  188.75  L 2668.55,  197.25  L 2634.56,  197.25  L 2634.56,  233.51 " style="stroke:#999999;stroke-width: 5.10 ;&st6;" /></a><a ewd:lineID="66" style="cursor:pointer;"><path d=" M 2677.05,  579.69  L 2677.05,  681.67  L 2983.00,  681.67  L 2983.00,  520.20 " style="stroke:#99D9E8;stroke-width: 5.10 ;&st6;" /></a><a ewd:lineID="67" style="cursor:pointer;"><path d=" M 2677.05,  562.69  L 2677.05,  494.70 " style="stroke:#99D9E8;stroke-width: 5.10 ;&st6;" /></a><a ewd:lineID="68" style="cursor:pointer;"><path d=" M 2677.05,  479.97  L 2677.05,  452.21 " style="stroke:#008837;stroke-width: 5.10 ;&st6;" /></a><a ewd:lineID="69" style="cursor:pointer;"><path d=" M 2677.05,  418.22  L 2677.05,  313.97 " style="stroke:#7FC97F;stroke-width: 5.10 ;&st6;" /></a><a ewd:lineID="70" style="cursor:pointer;"><path d=" M 2677.05,  418.22  L 2677.05,  409.72  L 2685.55,  401.22  L 2702.55,  401.22  L 2702.55,  418.22 " style="stroke:#FF0000;stroke-width: 5.10 ;&st6;" /></a><a ewd:lineID="71" style="cursor:pointer;"><path d=" M 2677.05,  254.48  L 2677.05,  299.24 " style="stroke:#FFE600;stroke-width: 5.10 ;&st6;" /></a><a ewd:lineID="72" style="cursor:pointer;"><path d=" M 2677.05,  239.75  L 2677.05,  180.26 " style="stroke:#999999;stroke-width: 5.10 ;&st6;" /></a><a ewd:lineID="73" style="cursor:pointer;"><path d=" M 2702.55,  452.21  L 2702.55,  494.70  L 2940.51,  494.70  L 2940.51,  220.48 " style="stroke:#00A0C6;stroke-width: 5.10 ;&st6;" /></a><a ewd:lineID="74" style="cursor:pointer;"><path d=" M 2898.02,  375.72  L 2898.02,  656.18  L 2711.05,  656.18  L 2711.05,  579.69 " style="stroke:#99D9E8;stroke-width: 5.10 ;&st6;" /></a><a ewd:lineID="75" style="cursor:pointer;"><path d=" M 2898.02,  146.26  L 2898.02,  316.23 " style="stroke:#56077D;stroke-width: 5.10 ;&st6;" /></a><a ewd:lineID="76" style="cursor:pointer;"><path d=" M 2940.51,  205.75  L 2940.51,  146.26 " style="stroke:#00A0C6;stroke-width: 5.10 ;&st6;" /></a><a ewd:lineID="77" style="cursor:pointer;"><path d=" M 2983.00,  452.21  L 2983.00,  505.18 " style="stroke:#000000;stroke-width: 5.10 ;&st6;" /><path d=" M 2983.00,  452.21  L 2983.00,  505.18 " style="stroke:#FFFFFF;stroke-width: 4.53 ;&st6;" /></a><a ewd:lineID="78" style="cursor:pointer;"><path d=" M 3017.00,  443.71  L 3017.00,  494.70  L 2991.50,  494.70  L 2983.00,  503.20  L 2983.00,  505.18 " style="stroke:#000000;stroke-width: 5.10 ;&st6;" /><path d=" M 3017.00,  443.71  L 3017.00,  494.70  L 2991.50,  494.70  L 2983.00,  503.20  L 2983.00,  505.18 " style="stroke:#FFFFFF;stroke-width: 4.53 ;&st6;" /></a><a ewd:lineID="79" style="cursor:pointer;"><path d=" M 2983.00,  358.73  L 2983.00,  435.21 " style="stroke:#000000;stroke-width: 5.10 ;&st6;" /><path d=" M 2983.00,  358.73  L 2983.00,  435.21 " style="stroke:#FFFFFF;stroke-width: 4.53 ;&st6;" /></a><a ewd:lineID="80" style="cursor:pointer;"><path d=" M 2983.00,  358.73  L 2983.00,  367.22  L 2991.50,  375.72  L 3017.00,  375.72  L 3017.00,  426.71 " style="stroke:#000000;stroke-width: 5.10 ;&st6;" /><path d=" M 2983.00,  358.73  L 2983.00,  367.22  L 2991.50,  375.72  L 3017.00,  375.72  L 3017.00,  426.71 " style="stroke:#FFFFFF;stroke-width: 4.53 ;&st6;" /></a><a ewd:lineID="81" style="cursor:pointer;"><path d=" M 2983.00,  307.73  L 2983.00,  220.48 " style="stroke:#56077D;stroke-width: 5.10 ;&st6;" /></a><a ewd:lineID="82" style="cursor:pointer;"><path d=" M 2983.00,  205.75  L 2983.00,  146.26 " style="stroke:#7FC97F;stroke-width: 5.10 ;&st6;" /></a><a ewd:lineID="83" style="cursor:pointer;"><path d=" M 3067.99,  520.20  L 3067.99,  681.67 " style="stroke:#000000;stroke-width: 5.10 ;&st6;" /><path d=" M 3067.99,  520.20  L 3067.99,  681.67 " style="stroke:#FFFFFF;stroke-width: 4.53 ;&st6;" /><path d=" M 3067.99,  520.20  L 3067.99,  681.67 " style="stroke:#000000;stroke-width: 1.13 ;&st6;" /></a><a ewd:lineID="84" style="cursor:pointer;"><path d=" M 3067.99,  452.21  L 3067.99,  505.47 " style="stroke:#000000;stroke-width: 5.10 ;&st6;" /><path d=" M 3067.99,  452.21  L 3067.99,  505.47 " style="stroke:#FFFFFF;stroke-width: 4.53 ;&st6;" /><path d=" M 3067.99,  452.21  L 3067.99,  505.47 " style="stroke:#000000;stroke-width: 1.13 ;&st6;" /></a><a ewd:lineID="85" style="cursor:pointer;"><path d=" M 3067.99,  358.73  L 3067.99,  435.21 " style="stroke:#000000;stroke-width: 5.10 ;&st6;" /><path d=" M 3067.99,  358.73  L 3067.99,  435.21 " style="stroke:#FFFFFF;stroke-width: 4.53 ;&st6;" /><path d=" M 3067.99,  358.73  L 3067.99,  435.21 " style="stroke:#000000;stroke-width: 1.13 ;&st6;" /></a><a ewd:lineID="86" style="cursor:pointer;"><path d=" M 3152.97,  254.48  L 3152.97,  341.73 " style="stroke:#000000;stroke-width: 5.10 ;&st6;" /></a><a ewd:lineID="87" style="cursor:pointer;"><path d=" M 3152.97,   87.34  L 3152.97,  239.75 " style="stroke:#000000;stroke-width: 5.10 ;&st6;" /></a><a ewd:lineID="88" style="cursor:pointer;"><path d=" M 3212.46,  254.48  L 3212.46,  341.73 " style="stroke:#7FC97F;stroke-width: 5.10 ;&st6;" /></a><a ewd:lineID="89" style="cursor:pointer;"><path d=" M 3212.46,   87.34  L 3212.46,  239.75 " style="stroke:#F668B2;stroke-width: 5.10 ;&st6;" /></a><a ewd:lineID="90" style="cursor:pointer;"><path d=" M 3271.95,  341.73  L 3271.95,  254.48 " style="stroke:#FFE600;stroke-width: 5.10 ;&st6;" /></a><a ewd:lineID="91" style="cursor:pointer;"><path d=" M 3271.95,  239.75  L 3271.95,  171.76 " style="stroke:#FFE600;stroke-width: 5.10 ;&st6;" /></a><a ewd:lineID="92" style="cursor:pointer;"><path d=" M 3314.45,  171.76  L 3314.45,  222.75  L 3280.45,  222.75  L 3271.95,  231.25  L 3271.95,  239.75 " style="stroke:#99D9E8;stroke-width: 5.10 ;&st6;" /></a><a ewd:lineID="93" style="cursor:pointer;"><path d=" M 3271.95,   87.34  L 3271.95,  154.76 " style="stroke:#FFE600;stroke-width: 5.10 ;&st6;" /></a><a ewd:lineID="94" style="cursor:pointer;"><path d=" M 3271.95,   87.34  L 3271.95,   95.27  L 3280.45,  103.77  L 3314.45,  103.77  L 3314.45,  154.76 " style="stroke:#99D9E8;stroke-width: 5.10 ;&st6;" /></a><a ewd:lineID="95" style="cursor:pointer;"><path d=" M 3365.44,  341.73  L 3365.44,  137.76 " style="stroke:#00A0C6;stroke-width: 5.10 ;&st6;" /></a><a ewd:lineID="96" style="cursor:pointer;"><path d=" M 3467.42,  257.88  L 3467.42,  588.19  L 3832.86,  588.19  L 3832.86,  452.21  L 3815.86,  435.21  L 3815.86,  427.85 " style="stroke:#FF0000;stroke-width: 5.10 ;&st6;" /></a><a ewd:lineID="97" style="cursor:pointer;"><path d=" M 3467.42,  204.62  L 3467.42,   87.34 " style="stroke:#F668B2;stroke-width: 5.10 ;&st6;" /></a><a ewd:lineID="98" style="cursor:pointer;"><path d=" M 3467.42,   87.34  L 3467.42,   95.27  L 3484.42,  112.27  L 3484.42,  129.26  L 3679.89,  129.26  L 3679.89,  213.68 " style="stroke:#F668B2;stroke-width: 5.10 ;&st6;" /></a><a ewd:lineID="99" style="cursor:pointer;"><path d=" M 3509.91,  257.88  L 3509.91,  562.69  L 3798.87,  562.69  L 3798.87,  452.21  L 3781.87,  435.21  L 3781.87,  427.85 " style="stroke:#000000;stroke-width: 5.10 ;&st6;" /><path d=" M 3509.91,  257.88  L 3509.91,  562.69  L 3798.87,  562.69  L 3798.87,  452.21  L 3781.87,  435.21  L 3781.87,  427.85 " style="stroke:#FFFFFF;stroke-width: 4.53 ;&st6;" /></a><a ewd:lineID="100" style="cursor:pointer;"><path d=" M 3509.91,  204.62  L 3509.91,   87.34 " style="stroke:#000000;stroke-width: 5.10 ;&st6;" /><path d=" M 3509.91,  204.62  L 3509.91,   87.34 " style="stroke:#FFFFFF;stroke-width: 4.53 ;&st6;" /></a><a ewd:lineID="101" style="cursor:pointer;"><path d=" M 3509.91,   87.34  L 3509.91,   95.27  L 3518.41,  103.77  L 3722.38,  103.77  L 3722.38,  213.68 " style="stroke:#000000;stroke-width: 5.10 ;&st6;" /><path d=" M 3509.91,   87.34  L 3509.91,   95.27  L 3518.41,  103.77  L 3722.38,  103.77  L 3722.38,  213.68 " style="stroke:#FFFFFF;stroke-width: 4.53 ;&st6;" /></a><a ewd:lineID="102" style="cursor:pointer;"><path d=" M 3815.86,  427.85  L 3815.86,  537.20  L 3679.89,  537.20  L 3679.89,  367.79 " style="stroke:#FF0000;stroke-width: 5.10 ;&st6;" /></a><a ewd:lineID="103" style="cursor:pointer;"><path d=" M 3679.89,  248.81  L 3679.89,  332.66 " style="stroke:#000000;stroke-width: 5.10 ;&st6;" /></a><a ewd:lineID="104" style="cursor:pointer;"><path d=" M 3781.87,  427.85  L 3781.87,  520.20  L 3722.38,  520.20  L 3722.38,  367.79 " style="stroke:#000000;stroke-width: 5.10 ;&st6;" /><path d=" M 3781.87,  427.85  L 3781.87,  520.20  L 3722.38,  520.20  L 3722.38,  367.79 " style="stroke:#FFFFFF;stroke-width: 4.53 ;&st6;" /></a><a ewd:lineID="105" style="cursor:pointer;"><path d=" M 3722.38,  248.81  L 3722.38,  332.66 " style="stroke:#000000;stroke-width: 5.10 ;&st6;" /><path d=" M 3722.38,  248.81  L 3722.38,  332.66 " style="stroke:#FFFFFF;stroke-width: 4.53 ;&st6;" /></a><a ewd:lineID="106" style="cursor:pointer;"><path d=" M 3849.86,  681.67  L 3849.86,  427.85 " style="stroke:#992903;stroke-width: 5.10 ;&st6;" /></a><a ewd:lineID="107" style="cursor:pointer;"><path d=" M 3900.85,  281.67  L 3900.85,  275.16  L 3892.35,  266.66  L 3866.85,  266.66  L 3866.85,  224.16 " style="stroke:#FF0000;stroke-width: 5.10 ;&st6;" /></a><a ewd:lineID="108" style="cursor:pointer;"><path d=" M 3866.85,  163.26  L 3866.85,  209.43 " style="stroke:#FF0000;stroke-width: 5.10 ;&st6;" /></a><a ewd:lineID="109" style="cursor:pointer;"><path d=" M 3866.85,  163.26  L 3866.85,  171.76  L 3875.35,  180.26  L 3900.85,  180.26  L 3900.85,  215.67 " style="stroke:#FF0000;stroke-width: 5.10 ;&st6;" /></a><a ewd:lineID="110" style="cursor:pointer;"><path d=" M 3900.85,  418.78  L 3900.85,  469.21 " style="stroke:#008837;stroke-width: 5.10 ;&st6;" /></a><a ewd:lineID="111" style="cursor:pointer;"><path d=" M 3900.85,  230.40  L 3900.85,  281.67 " style="stroke:#FF0000;stroke-width: 5.10 ;&st6;" /></a><a ewd:lineID="112" style="cursor:pointer;"><path d=" M 3926.34,  418.78  L 3926.34,  469.21 " style="stroke:#FF0000;stroke-width: 5.10 ;&st6;" /></a><a ewd:lineID="113" style="cursor:pointer;"><path d=" M 3994.33,  520.20  L 3994.33,  681.67 " style="stroke:#992903;stroke-width: 5.10 ;&st6;" /></a><a ewd:lineID="114" style="cursor:pointer;"><path d=" M 3994.33,  432.95  L 3994.33,  477.71 " style="stroke:#F668B2;stroke-width: 5.10 ;&st6;" /></a><a ewd:lineID="115" style="cursor:pointer;"><path d=" M 3994.33,   87.34  L 3994.33,  418.22 " style="stroke:#F668B2;stroke-width: 5.10 ;&st6;" /></a><a ewd:lineID="116" style="cursor:pointer;"><path d=" M 4028.33,  477.71  L 4028.33,  432.95 " style="stroke:#00A0C6;stroke-width: 5.10 ;&st6;" /></a><a ewd:lineID="117" style="cursor:pointer;"><path d=" M 4028.33,  418.22  L 4028.33,   87.34 " style="stroke:#00A0C6;stroke-width: 5.10 ;&st6;" /></a><a ewd:lineID="118" style="cursor:pointer;"><path d=" M 4096.32,  477.71  L 4096.32,  433.23 " style="stroke:#000000;stroke-width: 5.10 ;&st6;" /><path d=" M 4096.32,  477.71  L 4096.32,  433.23 " style="stroke:#FFFFFF;stroke-width: 4.53 ;&st6;" /></a><a ewd:lineID="119" style="cursor:pointer;"><path d=" M 4096.32,  418.22  L 4096.32,  290.74 " style="stroke:#000000;stroke-width: 5.10 ;&st6;" /><path d=" M 4096.32,  418.22  L 4096.32,  290.74 " style="stroke:#FFFFFF;stroke-width: 4.53 ;&st6;" /></a><a ewd:lineID="120" style="cursor:pointer;"><path d=" M 4096.32,  273.74  L 4096.32,  205.75 " style="stroke:#000000;stroke-width: 5.10 ;&st6;" /><path d=" M 4096.32,  273.74  L 4096.32,  205.75 " style="stroke:#FFFFFF;stroke-width: 4.53 ;&st6;" /></a><a ewd:lineID="121" style="cursor:pointer;"><path d=" M 4096.32,  154.76  L 4096.32,  103.77 " style="stroke:#56077D;stroke-width: 5.10 ;&st6;" /></a><a ewd:code="IO2" ewd:figID="49" ewd:figtype="w2w" ewd:pinNo="24" style="cursor:pointer;"><path d=" M 4036.83,  418.22  L 4019.83,  418.22  L 4019.83,  426.71  L 4036.83,  426.71  L 4036.83,  418.22 " style="&st2;" /><text style="&st8;" transform="matrix(&st16;  4022.3  424.96 )"><tspan style="&st18;" x="0" y="0">IO2</tspan></text></a><a ewd:code="IO2" ewd:figID="50" ewd:figtype="w2w" ewd:pinNo="25" style="cursor:pointer;"><path d=" M 4002.83,  418.22  L 3985.83,  418.22  L 3985.83,  426.71  L 4002.83,  426.71  L 4002.83,  418.22 " style="&st2;" /><text style="&st8;" transform="matrix(&st16;  3988.31  424.96 )"><tspan style="&st18;" x="0" y="0">IO2</tspan></text></a><a ewd:code="IA3" ewd:figID="51" ewd:figtype="w2w" ewd:pinNo="26" style="cursor:pointer;"><path d=" M 3875.35,  215.67  L 3858.36,  215.67  L 3858.36,  224.16  L 3875.35,  224.16  L 3875.35,  215.67 " style="&st2;" /><text style="&st8;" transform="matrix(&st16;  3861.28  222.41 )"><tspan style="&st18;" x="0" y="0">IA3</tspan></text></a><a ewd:code="AI1" ewd:figID="52" ewd:figtype="w2w" ewd:pinNo="15" style="cursor:pointer;"><path d=" M 3909.35,  215.67  L 3892.35,  215.67  L 3892.35,  224.16  L 3909.35,  224.16  L 3909.35,  215.67 " style="&st2;" /><text style="&st8;" transform="matrix(&st16;  3895.68  222.41 )"><tspan style="&st18;" x="0" y="0">AI1</tspan></text></a><a ewd:code="KI1" ewd:figID="53" ewd:figtype="w2w" ewd:pinNo="13" style="cursor:pointer;"><path d=" M 1733.71,  630.68  L 1716.71,  630.68  L 1716.71,  639.18  L 1733.71,  639.18  L 1733.71,  630.68 " style="&st2;" /><text style="&st8;" transform="matrix(&st16;  1720.04  637.42 )"><tspan style="&st18;" x="0" y="0">KI1</tspan></text></a><a ewd:code="IS1" ewd:figID="54" ewd:figtype="w2w" ewd:pinNo="18" style="cursor:pointer;"><path d=" M 3076.49,  511.70  L 3059.49,  511.70  L 3059.49,  520.20  L 3076.49,  520.20  L 3076.49,  511.70 " style="&st2;" /><text style="&st8;" transform="matrix(&st16;  3062.82  518.44 )"><tspan style="&st18;" x="0" y="0">IS1</tspan></text></a><a ewd:code="TN1" ewd:figID="55" ewd:figtype="w2w" ewd:pinNo="5" style="cursor:pointer;"><path d=" M 2260.62,  367.22  L 2243.63,  367.22  L 2243.63,  375.72  L 2260.62,  375.72  L 2260.62,  367.22 " style="&st2;" /><text style="&st8;" transform="matrix(&st16;  2245.62  373.97 )"><tspan style="&st18;" x="0" y="0">TN1</tspan></text></a><a ewd:code="TN1" ewd:figID="56" ewd:figtype="w2w" ewd:pinNo="4" style="cursor:pointer;"><path d=" M 2303.12,  367.22  L 2286.12,  367.22  L 2286.12,  375.72  L 2303.12,  375.72  L 2303.12,  367.22 " style="&st2;" /><text style="&st8;" transform="matrix(&st16;  2288.11  373.97 )"><tspan style="&st18;" x="0" y="0">TN1</tspan></text></a><a ewd:code="IS1" ewd:figID="57" ewd:figtype="w2w" ewd:pinNo="9" style="cursor:pointer;"><path d=" M 2991.50,  511.70  L 2974.50,  511.70  L 2974.50,  520.20  L 2991.50,  520.20  L 2991.50,  511.70 " style="&st2;" /><text style="&st8;" transform="matrix(&st16;  2977.83  518.44 )"><tspan style="&st18;" x="0" y="0">IS1</tspan></text></a><a ewd:code="Ic1" ewd:figID="58" ewd:figtype="w2w" ewd:pinNo="2" style="cursor:pointer;"><path d=" M 2949.01,  205.75  L 2932.01,  205.75  L 2932.01,  214.25  L 2949.01,  214.25  L 2949.01,  205.75 " style="&st2;" /><text style="&st8;" transform="matrix(&st16;  2935.9  212.49 )"><tspan style="&st18;" x="0" y="0">Ic1</tspan></text></a><a ewd:code="AI1" ewd:figID="59" ewd:figtype="w2w" ewd:pinNo="25" style="cursor:pointer;"><path d=" M 2685.55,  239.75  L 2668.55,  239.75  L 2668.55,  248.24  L 2685.55,  248.24  L 2685.55,  239.75 " style="&st2;" /><text style="&st8;" transform="matrix(&st16;  2671.88  246.49 )"><tspan style="&st18;" x="0" y="0">AI1</tspan></text></a><a ewd:code="Ic1" ewd:figID="60" ewd:figtype="w2w" ewd:pinNo="4" style="cursor:pointer;"><path d=" M 2685.55,  299.24  L 2668.55,  299.24  L 2668.55,  307.73  L 2685.55,  307.73  L 2685.55,  299.24 " style="&st2;" /><text style="&st8;" transform="matrix(&st16;  2672.44  305.98 )"><tspan style="&st18;" x="0" y="0">Ic1</tspan></text></a><a ewd:code="IA8" ewd:figID="61" ewd:figtype="w2w" ewd:pinNo="2" style="cursor:pointer;"><path d=" M 2643.06,  239.75  L 2626.06,  239.75  L 2626.06,  248.24  L 2643.06,  248.24  L 2643.06,  239.75 " style="&st2;" /><text style="&st8;" transform="matrix(&st16;  2628.98  246.49 )"><tspan style="&st18;" x="0" y="0">IA8</tspan></text></a><a ewd:code="Ic1" ewd:figID="62" ewd:figtype="w2w" ewd:pinNo="1" style="cursor:pointer;"><path d=" M 2685.55,  486.20  L 2668.55,  486.20  L 2668.55,  494.70  L 2685.55,  494.70  L 2685.55,  486.20 " style="&st2;" /><text style="&st8;" transform="matrix(&st16;  2672.44  492.95 )"><tspan style="&st18;" x="0" y="0">Ic1</tspan></text></a><a ewd:code="IS1" ewd:figID="63" ewd:figtype="w2w" ewd:pinNo="14" style="cursor:pointer;"><path d=" M 2991.50,  205.75  L 2974.50,  205.75  L 2974.50,  214.25  L 2991.50,  214.25  L 2991.50,  205.75 " style="&st2;" /><text style="&st8;" transform="matrix(&st16;  2977.83  212.49 )"><tspan style="&st18;" x="0" y="0">IS1</tspan></text></a><a ewd:code="IO1" ewd:figID="64" ewd:figtype="w2w" ewd:pinNo="11" style="cursor:pointer;"><path d=" M 3280.45,  239.75  L 3263.45,  239.75  L 3263.45,  248.24  L 3280.45,  248.24  L 3280.45,  239.75 " style="&st2;" /><text style="&st8;" transform="matrix(&st16;  3266.34  246.49 )"><tspan style="&st18;" x="0" y="0">IO1</tspan></text></a><a ewd:code="MN1" ewd:figID="65" ewd:figtype="w2w" ewd:pinNo="8" style="cursor:pointer;"><path d=" M 1121.81,  639.18  L 1104.82,  639.18  L 1104.82,  647.68  L 1121.81,  647.68  L 1121.81,  639.18 " style="&st2;" /><text style="&st8;" transform="matrix(&st16;  1105.99  645.92 )"><tspan style="&st18;" x="0" y="0">MN1</tspan></text></a><a ewd:code="LO1" ewd:figID="66" ewd:figtype="w2w" ewd:pinNo="8" style="cursor:pointer;"><path d=" M 1257.79,  639.18  L 1240.79,  639.18  L 1240.79,  647.68  L 1257.79,  647.68  L 1257.79,  639.18 " style="&st2;" /><text style="&st8;" transform="matrix(&st16;  1242.64  645.92 )"><tspan style="&st18;" x="0" y="0">LO1</tspan></text></a><a ewd:code="LO1" ewd:figID="67" ewd:figtype="w2w" ewd:pinNo="15" style="cursor:pointer;"><path d=" M 1291.78,  452.21  L 1274.79,  452.21  L 1274.79,  460.71  L 1291.78,  460.71  L 1291.78,  452.21 " style="&st2;" /><text style="&st8;" transform="matrix(&st16;  1276.63  458.95 )"><tspan style="&st18;" x="0" y="0">LO1</tspan></text></a><a ewd:code="MN1" ewd:figID="68" ewd:figtype="w2w" ewd:pinNo="2" style="cursor:pointer;"><path d=" M 1189.80,  452.21  L 1172.80,  452.21  L 1172.80,  460.71  L 1189.80,  460.71  L 1189.80,  452.21 " style="&st2;" /><text style="&st8;" transform="matrix(&st16;  1173.98  458.95 )"><tspan style="&st18;" x="0" y="0">MN1</tspan></text></a><a ewd:code="LO1" ewd:figID="69" ewd:figtype="w2w" ewd:pinNo="9" style="cursor:pointer;"><path d=" M 1257.79,  452.21  L 1240.79,  452.21  L 1240.79,  460.71  L 1257.79,  460.71  L 1257.79,  452.21 " style="&st2;" /><text style="&st8;" transform="matrix(&st16;  1242.64  458.95 )"><tspan style="&st18;" x="0" y="0">LO1</tspan></text></a><a ewd:code="IO2" ewd:figID="70" ewd:figtype="w2w" ewd:pinNo="20" style="cursor:pointer;"><path d=" M 1257.79,  384.22  L 1240.79,  384.22  L 1240.79,  392.72  L 1257.79,  392.72  L 1257.79,  384.22 " style="&st2;" /><text style="&st8;" transform="matrix(&st16;  1243.27  390.96 )"><tspan style="&st18;" x="0" y="0">IO2</tspan></text></a><a ewd:code="IO2" ewd:figID="71" ewd:figtype="w2w" ewd:pinNo="15" style="cursor:pointer;"><path d=" M 1291.78,  384.22  L 1274.79,  384.22  L 1274.79,  392.72  L 1291.78,  392.72  L 1291.78,  384.22 " style="&st2;" /><text style="&st8;" transform="matrix(&st16;  1277.26  390.96 )"><tspan style="&st18;" x="0" y="0">IO2</tspan></text></a><a ewd:code="IO2" ewd:figID="72" ewd:figtype="w2w" ewd:pinNo="1" style="cursor:pointer;"><path d=" M 1325.78,  384.22  L 1308.78,  384.22  L 1308.78,  392.72  L 1325.78,  392.72  L 1325.78,  384.22 " style="&st2;" /><text style="&st8;" transform="matrix(&st16;  1311.26  390.96 )"><tspan style="&st18;" x="0" y="0">IO2</tspan></text></a><a ewd:code="KI1" ewd:figID="73" ewd:figtype="w2w" ewd:pinNo="16" style="cursor:pointer;"><path d=" M 1631.73,  452.21  L 1614.73,  452.21  L 1614.73,  460.71  L 1631.73,  460.71  L 1631.73,  452.21 " style="&st2;" /><text style="&st8;" transform="matrix(&st16;  1618.06  458.95 )"><tspan style="&st18;" x="0" y="0">KI1</tspan></text></a><a ewd:code="IO1" ewd:figID="74" ewd:figtype="w2w" ewd:pinNo="4" style="cursor:pointer;"><path d=" M 4104.81,  418.22  L 4087.82,  418.22  L 4087.82,  426.71  L 4104.81,  426.71  L 4104.81,  418.22 " style="&st2;" /><text style="&st8;" transform="matrix(&st16;  4090.7  424.96 )"><tspan style="&st18;" x="0" y="0">IO1</tspan></text></a><a ewd:code="LO1" ewd:figID="75" ewd:figtype="w2w" ewd:pinNo="2" style="cursor:pointer;"><path d=" M 1325.78,  452.21  L 1308.78,  452.21  L 1308.78,  460.71  L 1325.78,  460.71  L 1325.78,  452.21 " style="&st2;" /><text style="&st8;" transform="matrix(&st16;  1310.62  458.95 )"><tspan style="&st18;" x="0" y="0">LO1</tspan></text></a><a ewd:code="KI1" ewd:figID="76" ewd:figtype="w2w" ewd:pinNo="18" style="cursor:pointer;"><path d=" M 1393.77,  452.21  L 1376.77,  452.21  L 1376.77,  460.71  L 1393.77,  460.71  L 1393.77,  452.21 " style="&st2;" /><text style="&st8;" transform="matrix(&st16;  1380.1  458.95 )"><tspan style="&st18;" x="0" y="0">KI1</tspan></text></a><a ewd:code="MN1" ewd:figID="77" ewd:figtype="w2w" ewd:pinNo="15" style="cursor:pointer;"><path d=" M 1155.81,  452.21  L 1138.81,  452.21  L 1138.81,  460.71  L 1155.81,  460.71  L 1155.81,  452.21 " style="&st2;" /><text style="&st8;" transform="matrix(&st16;  1139.98  458.95 )"><tspan style="&st18;" x="0" y="0">MN1</tspan></text></a><a ewd:code="KI1" ewd:figID="78" ewd:figtype="w2w" ewd:pinNo="12" style="cursor:pointer;"><path d=" M 1470.25,  452.21  L 1453.26,  452.21  L 1453.26,  460.71  L 1470.25,  460.71  L 1470.25,  452.21 " style="&st2;" /><text style="&st8;" transform="matrix(&st16;  1456.59  458.95 )"><tspan style="&st18;" x="0" y="0">KI1</tspan></text></a><a ewd:code="MN1" ewd:figID="79" ewd:figtype="w2w" ewd:pinNo="9" style="cursor:pointer;"><path d=" M 1121.81,  452.21  L 1104.82,  452.21  L 1104.82,  460.71  L 1121.81,  460.71  L 1121.81,  452.21 " style="&st2;" /><text style="&st8;" transform="matrix(&st16;  1105.99  458.95 )"><tspan style="&st18;" x="0" y="0">MN1</tspan></text></a><a ewd:code="JI1" ewd:figID="80" ewd:figtype="w2w" ewd:pinNo="4" style="cursor:pointer;"><path d=" M 1793.20,  452.21  L 1776.20,  452.21  L 1776.20,  460.71  L 1793.20,  460.71  L 1793.20,  452.21 " style="&st2;" /><text style="&st8;" transform="matrix(&st16;  1780.13  458.95 )"><tspan style="&st18;" x="0" y="0">JI1</tspan></text></a><a ewd:code="JI1" ewd:figID="81" ewd:figtype="w2w" ewd:pinNo="3" style="cursor:pointer;"><path d=" M 1861.19,  452.21  L 1844.19,  452.21  L 1844.19,  460.71  L 1861.19,  460.71  L 1861.19,  452.21 " style="&st2;" /><text style="&st8;" transform="matrix(&st16;  1848.12  458.95 )"><tspan style="&st18;" x="0" y="0">JI1</tspan></text></a><a ewd:code="JI1" ewd:figID="82" ewd:figtype="w2w" ewd:pinNo="15" style="cursor:pointer;"><path d=" M 1895.18,  452.21  L 1878.19,  452.21  L 1878.19,  460.71  L 1895.18,  460.71  L 1895.18,  452.21 " style="&st2;" /><text style="&st8;" transform="matrix(&st16;  1882.11  458.95 )"><tspan style="&st18;" x="0" y="0">JI1</tspan></text></a><a ewd:code="JI1" ewd:figID="83" ewd:figtype="w2w" ewd:pinNo="13" style="cursor:pointer;"><path d=" M 1844.19,  656.18  L 1827.19,  656.18  L 1827.19,  664.67  L 1844.19,  664.67  L 1844.19,  656.18 " style="&st2;" /><text style="&st8;" transform="matrix(&st16;  1831.12  662.92 )"><tspan style="&st18;" x="0" y="0">JI1</tspan></text></a><a ewd:code="JI1" ewd:figID="84" ewd:figtype="w2w" ewd:pinNo="7" style="cursor:pointer;"><path d=" M 1844.19,  647.68  L 1827.19,  647.68  L 1827.19,  656.18  L 1844.19,  656.18  L 1844.19,  647.68 " style="&st2;" /><text style="&st8;" transform="matrix(&st16;  1831.12  654.42 )"><tspan style="&st18;" x="0" y="0">JI1</tspan></text></a><a ewd:code="IO1" ewd:figID="85" ewd:figtype="w2w" ewd:pinNo="10" style="cursor:pointer;"><path d=" M 3161.47,  239.75  L 3144.47,  239.75  L 3144.47,  248.24  L 3161.47,  248.24  L 3161.47,  239.75 " style="&st2;" /><text style="&st8;" transform="matrix(&st16;  3147.36  246.49 )"><tspan style="&st18;" x="0" y="0">IO1</tspan></text></a><a ewd:code="IN1" ewd:figID="86" ewd:figtype="w2w" ewd:pinNo="15" style="cursor:pointer;"><path d=" M 3220.96,  239.75  L 3203.96,  239.75  L 3203.96,  248.24  L 3220.96,  248.24  L 3220.96,  239.75 " style="&st2;" /><text style="&st8;" transform="matrix(&st16;  3207.15  246.49 )"><tspan style="&st18;" x="0" y="0">IN1</tspan></text></a><a ewd:code="I1" ewd:figID="87" ewd:figtype="gp" style="cursor:pointer;"><path d=" M 3057.36,  681.67  L 3078.61,  681.67  L 3067.99,  697.25  L 3057.36,  681.67 " style="&st2;" /><text style="&st8;" transform="matrix(&st16;  3065.27  689.83 )"><tspan style="&st18;" x="0" y="0">I1</tspan></text></a><a ewd:code="A3" ewd:figID="88" ewd:figtype="gp" style="cursor:pointer;"><path d=" M  924.22,  681.67  L  945.47,  681.67  L  934.84,  697.25  L  924.22,  681.67 " style="&st2;" /><text style="&st8;" transform="matrix(&st16;  930.31  689.83 )"><tspan style="&st18;" x="0" y="0">A3</tspan></text></a><a ewd:code="A2" ewd:figID="89" ewd:figtype="gp" style="cursor:pointer;"><path d=" M  975.21,  681.67  L  996.46,  681.67  L  985.84,  697.25  L  975.21,  681.67 " style="&st2;" /><text style="&st8;" transform="matrix(&st16;  981.3  689.83 )"><tspan style="&st18;" x="0" y="0">A2</tspan></text></a><a ewd:code="I1" ewd:figID="90" ewd:figtype="gp" style="cursor:pointer;"><path d=" M 1714.59,  681.67  L 1735.83,  681.67  L 1725.21,  697.25  L 1714.59,  681.67 " style="&st2;" /><text style="&st8;" transform="matrix(&st16;  1722.5  689.83 )"><tspan style="&st18;" x="0" y="0">I1</tspan></text></a><a ewd:code="I3" ewd:figID="91" ewd:figtype="gp" style="cursor:pointer;"><path d=" M 2343.48,  681.67  L 2364.73,  681.67  L 2354.11,  697.25  L 2343.48,  681.67 " style="&st2;" /><text style="&st8;" transform="matrix(&st16;  2350.98  689.83 )"><tspan style="&st18;" x="0" y="0">I3</tspan></text></a><a ewd:code="O1" ewd:figID="92" ewd:figtype="gp" style="cursor:pointer;"><path d=" M 3983.71,  681.67  L 4004.96,  681.67  L 3994.33,  697.25  L 3983.71,  681.67 " style="&st2;" /><text style="&st8;" transform="matrix(&st16;  3989.76  689.83 )"><tspan style="&st18;" x="0" y="0">O1</tspan></text></a><a ewd:code="I1" ewd:figID="93" ewd:figtype="gp" style="cursor:pointer;"><path d=" M 3839.23,  681.67  L 3860.48,  681.67  L 3849.86,  697.25  L 3839.23,  681.67 " style="&st2;" /><text style="&st8;" transform="matrix(&st16;  3847.14  689.83 )"><tspan style="&st18;" x="0" y="0">I1</tspan></text></a><a ewd:code="I3" ewd:figID="94" ewd:figtype="gp" style="cursor:pointer;"><path d=" M 2504.96,  681.67  L 2526.20,  681.67  L 2515.58,  697.25  L 2504.96,  681.67 " style="&st2;" /><text style="&st8;" transform="matrix(&st16;  2512.46  689.83 )"><tspan style="&st18;" x="0" y="0">I3</tspan></text></a><a ewd:code="I3" ewd:figID="95" ewd:figtype="gp" style="cursor:pointer;"><path d=" M  864.73,  681.67  L  885.98,  681.67  L  875.35,  697.25  L  864.73,  681.67 " style="&st2;" /><text style="&st8;" transform="matrix(&st16;  872.23  689.83 )"><tspan style="&st18;" x="0" y="0">I3</tspan></text></a><a ewd:code="I5" ewd:figID="96" ewd:figtype="gp" style="cursor:pointer;"><path d=" M 2445.47,  681.67  L 2466.71,  681.67  L 2456.09,  697.25  L 2445.47,  681.67 " style="&st2;" /><text style="&st8;" transform="matrix(&st16;  2452.97  689.83 )"><tspan style="&st18;" x="0" y="0">I5</tspan></text></a><a ewd:code="N1" ewd:figID="97" ewd:figtype="gp" style="cursor:pointer;"><path d=" M 1102.69,  681.67  L 1123.94,  681.67  L 1113.31,  697.25  L 1102.69,  681.67 " style="&st2;" /><text style="&st8;" transform="matrix(&st16;  1109.04  689.83 )"><tspan style="&st18;" x="0" y="0">N1</tspan></text></a><a ewd:code="I1" ewd:figID="98" ewd:figtype="gp" style="cursor:pointer;"><path d=" M  414.31,  681.67  L  435.55,  681.67  L  424.93,  697.25  L  414.31,  681.67 " style="&st2;" /><text style="&st8;" transform="matrix(&st16;  422.21  689.83 )"><tspan style="&st18;" x="0" y="0">I1</tspan></text></a><a ewd:code="I3" ewd:figID="99" ewd:figtype="gp" style="cursor:pointer;"><path d=" M 1774.08,  681.67  L 1795.33,  681.67  L 1784.70,  697.25  L 1774.08,  681.67 " style="&st2;" /><text style="&st8;" transform="matrix(&st16;  1781.58  689.83 )"><tspan style="&st18;" x="0" y="0">I3</tspan></text></a><a ewd:code="O1" ewd:figID="100" ewd:figtype="gp" style="cursor:pointer;"><path d=" M 1238.67,  681.67  L 1259.91,  681.67  L 1249.29,  697.25  L 1238.67,  681.67 " style="&st2;" /><text style="&st8;" transform="matrix(&st16;  1244.72  689.83 )"><tspan style="&st18;" x="0" y="0">O1</tspan></text></a><a ewd:code="T1" ewd:figID="101" ewd:figtype="gp" style="cursor:pointer;"><path d=" M 2283.99,  681.67  L 2305.24,  681.67  L 2294.62,  697.25  L 2283.99,  681.67 " style="&st2;" /><text style="&st8;" transform="matrix(&st16;  2290.71  689.83 )"><tspan style="&st18;" x="0" y="0">T1</tspan></text></a><a ewd:code="13369" ewd:figID="102" ewd:figtype="sp" style="cursor:pointer;"><path d=" M 3267.70,  154.76  L 3276.20,  154.76  L 3280.45,  159.01  L 3280.45,  167.51  L 3276.20,  171.76  L 3267.70,  171.76  L 3263.45,  167.51  L 3263.45,  159.01  L 3267.70,  154.76 " style="&st2;" /></a><a ewd:code="17077" ewd:figID="103" ewd:figtype="sp" style="cursor:pointer;"><path d=" M 2290.37,  605.18  L 2298.87,  605.18  L 2303.12,  609.43  L 2303.12,  617.93  L 2298.87,  622.18  L 2290.37,  622.18  L 2286.12,  617.93  L 2286.12,  609.43  L 2290.37,  605.18 " style="&st2;" /></a><a ewd:code="7357" ewd:figID="104" ewd:figtype="sp" style="cursor:pointer;"><path d=" M 1618.98,  630.68  L 1627.48,  630.68  L 1631.73,  634.93  L 1631.73,  643.43  L 1627.48,  647.68  L 1618.98,  647.68  L 1614.73,  643.43  L 1614.73,  634.93  L 1618.98,  630.68 " style="&st2;" /></a><a ewd:code="7285" ewd:figID="105" ewd:figtype="sp" style="cursor:pointer;"><path d=" M 1882.44,  630.68  L 1890.93,  630.68  L 1895.18,  634.93  L 1895.18,  643.43  L 1890.93,  647.68  L 1882.44,  647.68  L 1878.19,  643.43  L 1878.19,  634.93  L 1882.44,  630.68 " style="&st2;" /></a><a ewd:code="17977" ewd:figID="106" ewd:figtype="sp" style="cursor:pointer;"><path d=" M 3063.74,  435.21  L 3072.24,  435.21  L 3076.49,  439.46  L 3076.49,  447.96  L 3072.24,  452.21  L 3063.74,  452.21  L 3059.49,  447.96  L 3059.49,  439.46  L 3063.74,  435.21 " style="&st2;" /></a><a ewd:code="6925" ewd:figID="107" ewd:figtype="sp" style="cursor:pointer;"><path d=" M  981.59,  588.19  L  990.08,  588.19  L  994.33,  592.44  L  994.33,  600.93  L  990.08,  605.18  L  981.59,  605.18  L  977.34,  600.93  L  977.34,  592.44  L  981.59,  588.19 " style="&st2;" /></a><a ewd:code="15445" ewd:figID="108" ewd:figtype="sp" style="cursor:pointer;"><path d=" M 2978.75,  435.21  L 2987.25,  435.21  L 2991.50,  439.46  L 2991.50,  447.96  L 2987.25,  452.21  L 2978.75,  452.21  L 2974.50,  447.96  L 2974.50,  439.46  L 2978.75,  435.21 " style="&st2;" /></a><a ewd:code="6949" ewd:figID="109" ewd:figtype="sp" style="cursor:pointer;"><path d=" M  930.59,  588.19  L  939.09,  588.19  L  943.34,  592.44  L  943.34,  600.93  L  939.09,  605.18  L  930.59,  605.18  L  926.35,  600.93  L  926.35,  592.44  L  930.59,  588.19 " style="&st2;" /></a><a ewd:code="12121" ewd:figID="110" ewd:figtype="sp" style="cursor:pointer;"><path d=" M 2451.84,  528.70  L 2460.34,  528.70  L 2464.59,  532.95  L 2464.59,  541.44  L 2460.34,  545.69  L 2451.84,  545.69  L 2447.59,  541.44  L 2447.59,  532.95  L 2451.84,  528.70 " style="&st2;" /></a></g></svg>