﻿<?xml version="1.0" encoding="utf-8"?>
<!DOCTYPE svg PUBLIC "-//W3C//DTD SVG 1.0//EN" "http://www.w3.org/TR/2001/REC-SVG-20010904/DTD/svg10.dtd"[
	<!ENTITY ns_flows "http://ns.adobe.com/Flows/1.0/">
	<!ENTITY ns_svg "http://www.w3.org/2000/svg">
	<!ENTITY ns_xlink "http://www.w3.org/1999/xlink">
	<!ENTITY st0 "font-size:7px;font-family:'MS-PGothic';adobe-font-script:japanese;">
	<!ENTITY st1 "font-size:6px;font-family:'ArialMT';">
	<!-- White fill  -->
	<!ENTITY st2 "fill:#FFFFFF;stroke:#000000; stroke-width:1.41;stroke-linecap:round;stroke-linejoin:round;">
	<!-- Yellow fill  -->
	<!ENTITY st3 "fill:#FFFFCC;stroke:#FFFFCC; stroke-width:0.1;stroke-linecap:round;stroke-linejoin:round;">
	<!-- Gray fill  -->
	<!ENTITY st4 "fill:#CCCCCC;stroke:#CCCCCC; stroke-width:0.1;stroke-linecap:round;stroke-linejoin:round;">
	<!-- Light-blue fill -->
	<!ENTITY st5 "fill:#CCECF4;stroke:#000000; stroke-width:1.133;stroke-linecap:round;stroke-linejoin:round;">
	<!ENTITY st6 "fill:none;stroke-linecap:butt; stroke-linejoin:round;">
	<!ENTITY st7 "fill:none;stroke:#000000;stroke-linecap:round;stroke-linejoin:round;">
	<!ENTITY st8 "enable-background:new    ;">
	<!-- Black fill -->
	<!ENTITY st9 "fill:#000000;stroke:#000000; stroke-linecap:round;stroke-linejoin:round;">
	<!-- SRS note   -->
	<!ENTITY st10 "font-size:9px;font-family:'ArialMT';">
	<!ENTITY st11 "font-size:9px;font-family:'Svg Symbol';">
	<!ENTITY st12 "font-size:6px;font-family:'Svg Symbol';">
	<!ENTITY st13 "fill:none;stroke:#ff0000;stroke-linecap:round;stroke-linejoin:round;">
	<!-- Yellow fill  -->
	<!ENTITY st14 "fill:#FFFF00;stroke:#FFFF00; stroke-width:0.1;stroke-linecap:round;stroke-linejoin:round;">
	<!ENTITY st15 "font-size:6px;font-family:'MS-PGothic';adobe-font-script:japanese;">
	<!ENTITY st16 "1.00 0.00 0.00 1.00">
	<!ENTITY st17 "0.00 -1.00 1.00 0.00">
	<!ENTITY st18 "font-size:6px;font-family:'Arial';">
	<!ENTITY st19 "font-size:9px;font-family:'Arial';">
	<!ENTITY st20 "font-size:6px;font-family:'MS-PGothic','MS PGothic';adobe-font-script:japanese;">
	<!ENTITY st21 "font-size:7px;font-family:'MS-PGothic','MS PGothic';adobe-font-script:japanese;">
	<!ATTLIST svg
		xmlns:ewd CDATA #FIXED "http://shcl.co.jp/ewd"
		xmlns:a CDATA #FIXED "http://ns.adobe.com/AdobeSVGViewerExtensions/3.0/"
		ewd:ver CDATA #IMPLIED
	>
	<!ATTLIST a
		ewd:lineID CDATA #IMPLIED
		ewd:groupID CDATA #IMPLIED
		ewd:figtype CDATA #IMPLIED
		ewd:code CDATA #IMPLIED
		ewd:figID CDATA #IMPLIED
		ewd:pinNo CDATA #IMPLIED
		ewd:comment CDATA #IMPLIED >
	<!ATTLIST g
		ewd:lineID CDATA #IMPLIED
		ewd:groupID CDATA #IMPLIED
		ewd:figtype CDATA #IMPLIED
		ewd:code CDATA #IMPLIED
		ewd:figID CDATA #IMPLIED
		ewd:pinNo CDATA #IMPLIED
		ewd:comment CDATA #IMPLIED >
	<!ATTLIST text
		ewd:textID CDATA #IMPLIED
		ewd:horAlign CDATA #IMPLIED >
	<!ATTLIST title
		ewd:textID CDATA #IMPLIED >
]>
<!-- Generator: Shintec Hozumi YS   -->
<svg onload="call_execInitLoadProc_svg('system')" style="overflow:visible;  enable-background:new 0 0 2532.637 710.000" viewBox="0 0 2531.674 710.000" height="710.000" width="2531.674" xml:space="preserve" ewd:ver="L2.1.2.6" xmlns="&ns_svg;" xmlns:ewd="http://shcl.co.jp/ewd" xmlns:a="http://ns.adobe.com/AdobeSVGViewerExtensions/3.0/" xmlns:xlink="&ns_xlink;"><script type="text/javascript" xlink:href="../../../../../system/js/ewd/fig/svgfig.js" xmlns:xlink="http://www.w3.org/1999/xlink" /><defs><font horiz-adv-x="1229"><font-face font-family="Svg Symbol" units-per-em="2048" panose-1="5 5 1 2 1 7 6 2 5 7" ascent="2059" descent="450" alphabetic="0" /><missing-glyph d="M 103,0 l 0,1280 1024,0 0,-1280 -1024,0 z m 32,32 l 960,0 0,1216 -960,0 0,-1216 z" /><glyph unicode="" horiz-adv-x="1573" d="M 1517,0 l -567,0 24,279 q 141,59 207.5,168 66.5,109 66.5,306    0,272 -132.5,417.5 -132.5,145.5 -333.5,145.5 -194,0 -328,-147.5 -134,-147.5 -134,-401.5 0,-200 68.5,-319 68.5,-119     206.5,-169 l 25,-279 -564,0 0,279 35,0 q 3,-61 32,-83 45,-35 137,-35 l 270,0 0,70 q -210,61 -324.5,209 -114.5,148     -114.5,349 0,252 186.5,425 186.5,173 504.5,173 195,0 358.5,-73.5 163.5,-73.5 252,-214.5 88.5,-141 88.5,-310 0,-207     -121.5,-360.5 -121.5,-153.5 -317.5,-197.5 l -8,-70 275,0 q 92,0 128,28 36,28 42,90 l 38,0 0,-279 z" /></font></defs>
<g id="ewd_top"><a ewd:code="A71,I92" ewd:figID="1" ewd:figtype="conn" style="cursor:pointer;"><path d=" M  671.39,  290.74  L  671.39,  324.73  L  747.88,  324.73  L  747.88,  290.74  L  671.39,  290.74 " style="&st5;" /><title ewd:textID="11">Conector de unión</title></a><a ewd:code="B1" ewd:figID="2" ewd:figtype="conn" style="cursor:pointer;"><path d=" M  679.89,  605.18  L  679.89,  469.21  L  985.84,  469.21  L  985.84,  605.18  L  679.89,  605.18 " style="&st5;" /><title ewd:textID="19">Conjunto del motor del limpiaparabrisas</title></a><a ewd:code="I125" ewd:figID="3" ewd:figtype="conn" style="cursor:pointer;"><path d=" M 2269.12,  146.26  L 2286.12,  146.26  L 2286.12,  163.26  L 2269.12,  163.26  L 2269.12,  146.26 " style="&st5;" /><title ewd:textID="11">Conector de unión</title></a><a ewd:code="S1" ewd:figID="4" ewd:figtype="conn" style="cursor:pointer;"><path d=" M   59.49,  460.71  L  144.48,  460.71  L  144.48,  418.22  L   59.49,  418.22  L   59.49,  460.71 " style="&st5;" /><title ewd:textID="15">Sensor de lluvia</title></a><a ewd:code="I174" ewd:figID="5" ewd:figtype="conn" style="cursor:pointer;"><path d=" M 1818.70,  350.23  L 1835.69,  350.23  L 1835.69,  367.22  L 1818.70,  367.22  L 1818.70,  350.23 " style="&st5;" /><title ewd:textID="11">Conector de unión</title></a><a ewd:code="I72" ewd:figID="6" ewd:figtype="conn" style="cursor:pointer;"><path d=" M  297.45,   35.78  L  297.45,   78.27  L 2048.16,   78.27  L 2048.16,   35.78  L  297.45,   35.78 " style="&st5;" /><title ewd:textID="20">Conjunto del relé del limpiaparabrisas</title></a><a ewd:code="FUSE2" ewd:figID="7" ewd:figtype="rb" style="cursor:pointer;"><path d=" M 2460.34,   35.78  L 2460.34,   78.27  L 2485.83,   78.27  L 2485.83,   35.78  L 2460.34,   35.78 " style="&st5;" /></a><a ewd:code="A73" ewd:figID="8" ewd:figtype="conn" style="cursor:pointer;"><path d=" M  594.90,  656.18  L  594.90,  673.17  L  611.90,  673.17  L  611.90,  656.18  L  594.90,  656.18 " style="&st5;" /><title ewd:textID="11">Conector de unión</title></a><a ewd:code="A54" ewd:figID="9" ewd:figtype="conn" style="cursor:pointer;"><path d=" M 1933.43,  223.89  L 1933.43,  223.89  L 1933.43,  219.92  L 1941.93,  219.92  L 1941.93,  223.89  C 1943.28   224.67  1944.25   225.64  1945.04   226.99  L 1945.04,  226.99  C 1947.38   231.06  1945.99   236.26  1941.93   238.61  L 1941.93,  238.61  L 1941.93,  242.58  L 1933.43,  242.58  L 1933.43,  238.61  C 1932.07   237.82  1931.10   236.85  1930.32   235.49  L 1930.32,  235.49  C 1927.97   231.43  1929.36   226.23  1933.43   223.88 " style="&st5;" /><title ewd:textID="18">Conjunto de la bomba y motor del lavaparabrisas</title></a><a ewd:code="FUSE12" ewd:figID="10" ewd:figtype="rb" style="cursor:pointer;"><path d=" M 2366.85,   35.78  L 2366.85,   78.27  L 2392.35,   78.27  L 2392.35,   35.78  L 2366.85,   35.78 " style="&st5;" /></a><a ewd:code="A49" ewd:figID="11" ewd:figtype="conn" style="cursor:pointer;"><path d=" M 2184.14,  639.18  L 2184.14,  673.17  L 2456.09,  673.17  L 2456.09,  639.18  L 2184.14,  639.18 " style="&st5;" /><title ewd:textID="6">Conjunto del actuador del freno</title></a><a ewd:code="I18" ewd:figID="12" ewd:figtype="conn" style="cursor:pointer;"><path d=" M 2124.65,  503.20  L 2507.08,  503.20  L 2507.08,  239.75  L 2124.65,  239.75  L 2124.65,  503.20 " style="&st5;" /><title ewd:textID="7">Conjunto del panel de instrumentos</title></a><a ewd:code="I31,I32" ewd:figID="13" ewd:figtype="conn" style="cursor:pointer;"><path d=" M 1937.68,  469.21  L 1937.68,  622.18  L 1079.32,  622.18  L 1079.32,  469.21  L 1937.68,  469.21 " style="&st5;" /><title ewd:textID="21">Conjunto del interruptor del limpiaparabrisas</title></a><a ewd:code="S11" ewd:figID="14" ewd:figtype="conn" style="cursor:pointer;"><path d=" M   17.00,  324.73  L   33.99,  324.73  L   33.99,  341.73  L   17.00,  341.73  L   17.00,  324.73 " style="&st5;" /><title ewd:textID="11">Conector de unión</title></a><a ewd:code="I124" ewd:figID="15" ewd:figtype="conn" style="cursor:pointer;"><path d=" M 2209.63,  146.26  L 2226.63,  146.26  L 2226.63,  163.26  L 2209.63,  163.26  L 2209.63,  146.26 " style="&st5;" /><title ewd:textID="11">Conector de unión</title></a><a ewd:code="3" ewd:figID="16" ewd:figtype="jb" style="cursor:pointer;"><path d=" M 2320.11,  171.76  L 2345.61,  171.76  L 2345.61,  120.77  L 2320.11,  120.77  L 2320.11,  171.76 " style="&st4;" /></a><a ewd:code="3" ewd:figID="17" ewd:figtype="jb" style="cursor:pointer;"><path d=" M 1920.68,  103.77  L 1920.68,  180.26  L 1988.67,  180.26  L 1988.67,  103.77  L 1920.68,  103.77 " style="&st4;" /></a><a ewd:code="3" ewd:figID="18" ewd:figtype="jb" style="cursor:pointer;"><path d=" M   59.49,   35.78  L   59.49,  120.77  L  246.46,  120.77  L  246.46,   35.78  L   59.49,   35.78 " style="&st4;" /></a><a ewd:code="FUSE63" ewd:figID="19" ewd:figtype="fuse" style="cursor:pointer;"><path d=" M   63.74,   35.78  L   63.74,   78.27  L   89.24,   78.27  L   89.24,   35.78  L   63.74,   35.78 " style="&st7;" /></a><a ewd:code="FUSE69" ewd:figID="20" ewd:figtype="fuse" style="cursor:pointer;"><path d=" M 1924.93,  103.77  L 1924.93,  146.26  L 1950.42,  146.26  L 1950.42,  103.77  L 1924.93,  103.77 " style="&st7;" /></a><a ewd:code="FUSE2" ewd:figID="21" ewd:figtype="fuse" style="cursor:pointer;"><path d=" M 2460.34,   35.78  L 2460.34,   78.27  L 2485.83,   78.27  L 2485.83,   35.78  L 2460.34,   35.78 " style="&st7;" /></a><a ewd:code="FUSE12" ewd:figID="22" ewd:figtype="fuse" style="cursor:pointer;"><path d=" M 2366.85,   35.78  L 2366.85,   78.27  L 2392.35,   78.27  L 2392.35,   35.78  L 2366.85,   35.78 " style="&st7;" /></a><a ewd:code="FUSE80" ewd:figID="23" ewd:figtype="fuse" style="cursor:pointer;"><path d=" M  140.23,   35.78  L  140.23,   78.27  L  165.72,   78.27  L  165.72,   35.78  L  140.23,   35.78 " style="&st7;" /></a><a ewd:lineID="1" style="cursor:pointer;"><path d=" M   25.50,  341.73  L   25.50,  401.22  L   67.99,  401.22  L   76.49,  409.72  L   76.49,  418.22 " style="stroke:#999999;stroke-width: 5.10 ;&st6;" /></a><a ewd:lineID="2" style="cursor:pointer;"><path d=" M   76.49,  271.47  L   76.49,  273.74  L   67.99,  282.24  L   25.50,  282.24  L   25.50,  324.73 " style="stroke:#999999;stroke-width: 5.10 ;&st6;" /></a><a ewd:lineID="3" style="cursor:pointer;"><path d=" M   76.49,  588.19  L   76.49,  681.67 " style="stroke:#000000;stroke-width: 5.10 ;&st6;" /><path d=" M   76.49,  588.19  L   76.49,  681.67 " style="stroke:#FFFFFF;stroke-width: 4.53 ;&st6;" /><path d=" M   76.49,  588.19  L   76.49,  681.67 " style="stroke:#000000;stroke-width: 1.13 ;&st6;" /></a><a ewd:lineID="4" style="cursor:pointer;"><path d=" M   76.49,  573.46  L   76.49,  528.70 " style="stroke:#000000;stroke-width: 5.10 ;&st6;" /><path d=" M   76.49,  573.46  L   76.49,  528.70 " style="stroke:#FFFFFF;stroke-width: 4.53 ;&st6;" /><path d=" M   76.49,  573.46  L   76.49,  528.70 " style="stroke:#000000;stroke-width: 1.13 ;&st6;" /></a><a ewd:lineID="5" style="cursor:pointer;"><path d=" M   76.49,  460.71  L   76.49,  511.70 " style="stroke:#000000;stroke-width: 5.10 ;&st6;" /><path d=" M   76.49,  460.71  L   76.49,  511.70 " style="stroke:#FFFFFF;stroke-width: 4.53 ;&st6;" /><path d=" M   76.49,  460.71  L   76.49,  511.70 " style="stroke:#000000;stroke-width: 1.13 ;&st6;" /></a><a ewd:lineID="6" style="cursor:pointer;"><path d=" M   76.49,  418.22  L   76.49,  350.23 " style="stroke:#999999;stroke-width: 5.10 ;&st6;" /></a><a ewd:lineID="7" style="cursor:pointer;"><path d=" M   76.49,  271.47  L   76.49,  333.23 " style="stroke:#999999;stroke-width: 5.10 ;&st6;" /></a><a ewd:lineID="8" style="cursor:pointer;"><path d=" M   76.49,  120.77  L   76.49,  256.74 " style="stroke:#999999;stroke-width: 5.10 ;&st6;" /></a><a ewd:lineID="9" style="cursor:pointer;"><path d=" M  110.48,  273.74  L  110.48,  392.72  L  356.94,  392.72  L  356.94,   78.27 " style="stroke:#FFE600;stroke-width: 5.10 ;&st6;" /></a><a ewd:lineID="10" style="cursor:pointer;"><path d=" M  110.48,  120.77  L  110.48,  256.74 " style="stroke:#FFE600;stroke-width: 5.10 ;&st6;" /></a><a ewd:lineID="11" style="cursor:pointer;"><path d=" M  127.48,  528.70  L  127.48,  588.19  L  399.43,  588.19  L  399.43,   78.27 " style="stroke:#008837;stroke-width: 5.10 ;&st6;" /></a><a ewd:lineID="12" style="cursor:pointer;"><path d=" M  127.48,  460.71  L  127.48,  513.97 " style="stroke:#008837;stroke-width: 5.10 ;&st6;" /></a><a ewd:lineID="13" style="cursor:pointer;"><path d=" M  968.84,  358.73  L  968.84,  248.24  L  152.97,  248.24  L  152.97,  120.77 " style="stroke:#7FC97F;stroke-width: 5.10 ;&st6;" /></a><a ewd:lineID="14" style="cursor:pointer;"><path d=" M  195.47,  120.77  L  195.47,  214.25  L 1164.31,  214.25  L 1164.31,  460.14 " style="stroke:#F668B2;stroke-width: 5.10 ;&st6;" /></a><a ewd:lineID="15" style="cursor:pointer;"><path d=" M  314.45,   78.27  L  314.45,  197.25  L  237.96,  197.25  L  237.96,  120.77 " style="stroke:#00A0C6;stroke-width: 5.10 ;&st6;" /></a><a ewd:lineID="16" style="cursor:pointer;"><path d=" M  458.92,  681.67  L  458.92,  350.23 " style="stroke:#000000;stroke-width: 5.10 ;&st6;" /><path d=" M  458.92,  681.67  L  458.92,  350.23 " style="stroke:#FFFFFF;stroke-width: 4.53 ;&st6;" /><path d=" M  458.92,  681.67  L  458.92,  350.23 " style="stroke:#000000;stroke-width: 1.13 ;&st6;" /></a><a ewd:lineID="17" style="cursor:pointer;"><path d=" M  458.92,   78.27  L  458.92,  333.23 " style="stroke:#000000;stroke-width: 5.10 ;&st6;" /><path d=" M  458.92,   78.27  L  458.92,  333.23 " style="stroke:#FFFFFF;stroke-width: 4.53 ;&st6;" /><path d=" M  458.92,   78.27  L  458.92,  333.23 " style="stroke:#000000;stroke-width: 1.13 ;&st6;" /></a><a ewd:lineID="18" style="cursor:pointer;"><path d=" M  603.40,  537.20  L  603.40,  656.18 " style="stroke:#000000;stroke-width: 5.10 ;&st6;" /><path d=" M  603.40,  537.20  L  603.40,  656.18 " style="stroke:#FFFFFF;stroke-width: 4.53 ;&st6;" /><path d=" M  603.40,  537.20  L  603.40,  656.18 " style="stroke:#000000;stroke-width: 1.13 ;&st6;" /></a><a ewd:lineID="19" style="cursor:pointer;"><path d=" M  603.40,  522.46  L  603.40,  418.22  L  688.38,  418.22  L  688.38,  469.21 " style="stroke:#000000;stroke-width: 5.10 ;&st6;" /><path d=" M  603.40,  522.46  L  603.40,  418.22  L  688.38,  418.22  L  688.38,  469.21 " style="stroke:#FFFFFF;stroke-width: 4.53 ;&st6;" /><path d=" M  603.40,  522.46  L  603.40,  418.22  L  688.38,  418.22  L  688.38,  469.21 " style="stroke:#000000;stroke-width: 1.13 ;&st6;" /></a><a ewd:lineID="20" style="cursor:pointer;"><path d=" M  679.89,  281.67  L  679.89,  265.24  L  679.89,  265.24  L  679.89,   78.27 " style="stroke:#56077D;stroke-width: 5.10 ;&st6;" /></a><a ewd:lineID="21" style="cursor:pointer;"><path d=" M  739.38,  398.95  L  739.38,  469.21 " style="stroke:#999999;stroke-width: 5.10 ;&st6;" /></a><a ewd:lineID="22" style="cursor:pointer;"><path d=" M  739.38,  384.22  L  739.38,  333.80 " style="stroke:#999999;stroke-width: 5.10 ;&st6;" /></a><a ewd:lineID="23" style="cursor:pointer;"><path d=" M  739.38,  281.67  L  739.38,  180.26  L 1198.30,  180.26  L 1198.30,  460.14 " style="stroke:#008837;stroke-width: 5.10 ;&st6;" /></a><a ewd:lineID="24" style="cursor:pointer;"><path d=" M  824.36,  398.95  L  824.36,  469.21 " style="stroke:#00A0C6;stroke-width: 5.10 ;&st6;" /></a><a ewd:lineID="25" style="cursor:pointer;"><path d=" M  824.36,  384.22  L  824.36,  341.73 " style="stroke:#00A0C6;stroke-width: 5.10 ;&st6;" /></a><a ewd:lineID="26" style="cursor:pointer;"><path d=" M 1232.29,  460.14  L 1232.29,  197.25  L  824.36,  197.25  L  824.36,  327.00 " style="stroke:#00A0C6;stroke-width: 5.10 ;&st6;" /></a><a ewd:lineID="27" style="cursor:pointer;"><path d=" M  909.35,  373.46  L  909.35,  469.21 " style="stroke:#000000;stroke-width: 5.10 ;&st6;" /></a><a ewd:lineID="28" style="cursor:pointer;"><path d=" M  909.35,  137.76  L  909.35,  358.73 " style="stroke:#000000;stroke-width: 5.10 ;&st6;" /></a><a ewd:lineID="29" style="cursor:pointer;"><path d=" M  909.35,   78.27  L  909.35,  123.03 " style="stroke:#000000;stroke-width: 5.10 ;&st6;" /></a><a ewd:lineID="30" style="cursor:pointer;"><path d=" M  968.84,  373.46  L  968.84,  469.21 " style="stroke:#7FC97F;stroke-width: 5.10 ;&st6;" /></a><a ewd:lineID="31" style="cursor:pointer;"><path d=" M 1266.29,  460.14  L 1266.29,   78.27 " style="stroke:#000000;stroke-width: 5.10 ;&st6;" /></a><a ewd:lineID="32" style="cursor:pointer;"><path d=" M 1300.28,   78.27  L 1300.28,  460.14 " style="stroke:#F668B2;stroke-width: 5.10 ;&st6;" /></a><a ewd:lineID="33" style="cursor:pointer;"><path d=" M 1334.28,  460.14  L 1334.28,   78.27 " style="stroke:#FF0000;stroke-width: 5.10 ;&st6;" /></a><a ewd:lineID="34" style="cursor:pointer;"><path d=" M 1750.71,   78.27  L 1750.71,  460.14 " style="stroke:#000000;stroke-width: 5.10 ;&st6;" /></a><a ewd:lineID="35" style="cursor:pointer;"><path d=" M 1784.70,   78.27  L 1784.70,  460.14 " style="stroke:#000000;stroke-width: 5.10 ;&st6;" /><path d=" M 1784.70,   78.27  L 1784.70,  460.14 " style="stroke:#FFFFFF;stroke-width: 4.53 ;&st6;" /></a><a ewd:lineID="36" style="cursor:pointer;"><path d=" M 1827.19,  367.22  L 1827.19,  443.71  L 1861.19,  443.71  L 1869.69,  452.21  L 1869.69,  460.14 " style="stroke:#000000;stroke-width: 5.10 ;&st6;" /></a><a ewd:lineID="37" style="cursor:pointer;"><path d=" M 1869.69,   78.27  L 1869.69,   86.77  L 1861.19,   95.27  L 1827.19,   95.27  L 1827.19,  350.23 " style="stroke:#999999;stroke-width: 5.10 ;&st6;" /></a><a ewd:lineID="38" style="cursor:pointer;"><path d=" M 1835.69,  358.73  L 1929.18,  358.73  L 1937.68,  350.23  L 1937.68,  347.96 " style="stroke:#999999;stroke-width: 5.10 ;&st6;" /></a><a ewd:lineID="39" style="cursor:pointer;"><path d=" M 1869.69,  460.14  L 1869.69,  418.22 " style="stroke:#000000;stroke-width: 5.10 ;&st6;" /></a><a ewd:lineID="40" style="cursor:pointer;"><path d=" M 1869.69,   78.27  L 1869.69,  401.22 " style="stroke:#999999;stroke-width: 5.10 ;&st6;" /></a><a ewd:lineID="41" style="cursor:pointer;"><path d=" M 1937.68,  347.96  L 1937.68,  409.72  L 1878.19,  409.72 " style="stroke:#999999;stroke-width: 5.10 ;&st6;" /></a><a ewd:lineID="42" style="cursor:pointer;"><path d=" M 1903.68,  631.25  L 1903.68,  681.67 " style="stroke:#000000;stroke-width: 5.10 ;&st6;" /><path d=" M 1903.68,  631.25  L 1903.68,  681.67 " style="stroke:#FFFFFF;stroke-width: 4.53 ;&st6;" /><path d=" M 1903.68,  631.25  L 1903.68,  681.67 " style="stroke:#000000;stroke-width: 1.13 ;&st6;" /></a><a ewd:lineID="43" style="cursor:pointer;"><path d=" M 1937.68,  333.23  L 1937.68,  299.24 " style="stroke:#008837;stroke-width: 5.10 ;&st6;" /></a><a ewd:lineID="44" style="cursor:pointer;"><path d=" M 1937.68,  282.24  L 1937.68,  242.58 " style="stroke:#008837;stroke-width: 5.10 ;&st6;" /></a><a ewd:lineID="45" style="cursor:pointer;"><path d=" M 1937.68,  180.26  L 1937.68,  219.92 " style="stroke:#FF0000;stroke-width: 5.10 ;&st6;" /></a><a ewd:lineID="46" style="cursor:pointer;"><path d=" M 2031.16,   78.27  L 2031.16,  154.76  L 2209.63,  154.76 " style="stroke:#56077D;stroke-width: 5.10 ;&st6;" /></a><a ewd:lineID="47" style="cursor:pointer;"><path d=" M 2209.63,  639.18  L 2209.63,  568.92 " style="stroke:#7FC97F;stroke-width: 5.10 ;&st6;" /></a><a ewd:lineID="48" style="cursor:pointer;"><path d=" M 2209.63,  521.33  L 2209.63,  554.19 " style="stroke:#F668B2;stroke-width: 5.10 ;&st6;" /></a><a ewd:lineID="49" style="cursor:pointer;"><path d=" M 2218.13,  221.61  L 2218.13,  163.26 " style="stroke:#56077D;stroke-width: 5.10 ;&st6;" /></a><a ewd:lineID="50" style="cursor:pointer;"><path d=" M 2260.62,  639.18  L 2260.62,  571.19 " style="stroke:#008837;stroke-width: 5.10 ;&st6;" /></a><a ewd:lineID="51" style="cursor:pointer;"><path d=" M 2277.62,  230.68  L 2277.62,  163.26 " style="stroke:#000000;stroke-width: 5.10 ;&st6;" /><path d=" M 2277.62,  230.68  L 2277.62,  163.26 " style="stroke:#FFFFFF;stroke-width: 4.53 ;&st6;" /></a><a ewd:lineID="52" style="cursor:pointer;"><path d=" M 2277.62,  146.26  L 2277.62,   95.27  L 2337.11,   95.27  L 2337.11,  120.77 " style="stroke:#000000;stroke-width: 5.10 ;&st6;" /><path d=" M 2277.62,  146.26  L 2277.62,   95.27  L 2337.11,   95.27  L 2337.11,  120.77 " style="stroke:#FFFFFF;stroke-width: 4.53 ;&st6;" /></a><a ewd:lineID="53" style="cursor:pointer;"><path d=" M 2286.12,  639.18  L 2286.12,  571.19 " style="stroke:#FF0000;stroke-width: 5.10 ;&st6;" /></a><a ewd:lineID="54" style="cursor:pointer;"><path d=" M 2311.61,  639.18  L 2311.61,  571.19 " style="stroke:#000000;stroke-width: 5.10 ;&st6;" /><path d=" M 2311.61,  639.18  L 2311.61,  571.19 " style="stroke:#FFFFFF;stroke-width: 4.53 ;&st6;" /></a><a ewd:lineID="55" style="cursor:pointer;"><path d=" M 2337.11,  639.18  L 2337.11,  571.19 " style="stroke:#000000;stroke-width: 5.10 ;&st6;" /></a><a ewd:lineID="56" style="cursor:pointer;"><path d=" M 2337.11,  171.76  L 2337.11,  197.25  L 2379.60,  197.25  L 2379.60,  103.77 " style="stroke:#56077D;stroke-width: 5.10 ;&st6;" /></a><a ewd:lineID="57" style="cursor:pointer;"><path d=" M 2362.61,  639.18  L 2362.61,  571.19 " style="stroke:#000000;stroke-width: 5.10 ;&st6;" /><path d=" M 2362.61,  639.18  L 2362.61,  571.19 " style="stroke:#FFFFFF;stroke-width: 4.53 ;&st6;" /></a><a ewd:lineID="58" style="cursor:pointer;"><path d=" M 2388.10,  639.18  L 2388.10,  571.19 " style="stroke:#000000;stroke-width: 5.10 ;&st6;" /></a><a ewd:lineID="59" style="cursor:pointer;"><path d=" M 2413.60,  639.18  L 2413.60,  571.19 " style="stroke:#00A0C6;stroke-width: 5.10 ;&st6;" /></a><a ewd:lineID="60" style="cursor:pointer;"><path d=" M 2439.09,  639.18  L 2439.09,  571.19 " style="stroke:#008837;stroke-width: 5.10 ;&st6;" /></a><a ewd:lineID="61" style="cursor:pointer;"><path d=" M 2473.09,  681.67  L 2473.09,  521.33 " style="stroke:#992903;stroke-width: 5.10 ;&st6;" /></a><a ewd:lineID="62" style="cursor:pointer;"><path d=" M 2473.09,  230.68  L 2473.09,  177.99 " style="stroke:#00A0C6;stroke-width: 5.10 ;&st6;" /></a><a ewd:lineID="63" style="cursor:pointer;"><path d=" M 2473.09,  163.26  L 2473.09,  103.77 " style="stroke:#F668B2;stroke-width: 5.10 ;&st6;" /></a><a ewd:code="AI2" ewd:figID="24" ewd:figtype="w2w" ewd:pinNo="12" style="cursor:pointer;"><path d=" M 1946.17,  333.23  L 1929.18,  333.23  L 1929.18,  341.73  L 1946.17,  341.73  L 1946.17,  333.23 " style="&st2;" /><text style="&st8;" transform="matrix(&st16;  1932.1  339.97 )"><tspan style="&st18;" x="0" y="0">AI2</tspan></text></a><a ewd:code="AI1" ewd:figID="25" ewd:figtype="w2w" ewd:pinNo="14" style="cursor:pointer;"><path d=" M  917.85,  129.26  L  900.85,  129.26  L  900.85,  137.76  L  917.85,  137.76  L  917.85,  129.26 " style="&st2;" /><text style="&st8;" transform="matrix(&st16;  904.18  136.01 )"><tspan style="&st18;" x="0" y="0">AI1</tspan></text></a><a ewd:code="IA7" ewd:figID="26" ewd:figtype="w2w" ewd:pinNo="9" style="cursor:pointer;"><path d=" M 2218.13,  554.19  L 2201.13,  554.19  L 2201.13,  562.69  L 2218.13,  562.69  L 2218.13,  554.19 " style="&st2;" /><text style="&st8;" transform="matrix(&st16;  2204.05  560.94 )"><tspan style="&st18;" x="0" y="0">IA7</tspan></text></a><a ewd:code="AI1" ewd:figID="27" ewd:figtype="w2w" ewd:pinNo="2" style="cursor:pointer;"><path d=" M 2481.59,  163.26  L 2464.59,  163.26  L 2464.59,  171.76  L 2481.59,  171.76  L 2481.59,  163.26 " style="&st2;" /><text style="&st8;" transform="matrix(&st16;  2467.92  170.0 )"><tspan style="&st18;" x="0" y="0">AI1</tspan></text></a><a ewd:code="AB1" ewd:figID="28" ewd:figtype="w2w" ewd:pinNo="4" style="cursor:pointer;"><path d=" M  611.90,  528.70  L  594.90,  528.70  L  594.90,  537.20  L  611.90,  537.20  L  611.90,  528.70 " style="&st2;" /><text style="&st8;" transform="matrix(&st16;  596.82  535.44 )"><tspan style="&st18;" x="0" y="0">AB1</tspan></text></a><a ewd:code="IS1" ewd:figID="29" ewd:figtype="w2w" ewd:pinNo="18" style="cursor:pointer;"><path d=" M   84.99,  579.69  L   67.99,  579.69  L   67.99,  588.19  L   84.99,  588.19  L   84.99,  579.69 " style="&st2;" /><text style="&st8;" transform="matrix(&st16;  71.32  586.43 )"><tspan style="&st18;" x="0" y="0">IS1</tspan></text></a><a ewd:code="AI1" ewd:figID="30" ewd:figtype="w2w" ewd:pinNo="26" style="cursor:pointer;"><path d=" M  832.86,  333.23  L  815.86,  333.23  L  815.86,  341.73  L  832.86,  341.73  L  832.86,  333.23 " style="&st2;" /><text style="&st8;" transform="matrix(&st16;  819.19  339.97 )"><tspan style="&st18;" x="0" y="0">AI1</tspan></text></a><a ewd:code="AB1" ewd:figID="31" ewd:figtype="w2w" ewd:pinNo="2" style="cursor:pointer;"><path d=" M  977.34,  358.73  L  960.34,  358.73  L  960.34,  367.22  L  977.34,  367.22  L  977.34,  358.73 " style="&st2;" /><text style="&st8;" transform="matrix(&st16;  962.26  365.47 )"><tspan style="&st18;" x="0" y="0">AB1</tspan></text></a><a ewd:code="AB1" ewd:figID="32" ewd:figtype="w2w" ewd:pinNo="3" style="cursor:pointer;"><path d=" M  747.88,  384.22  L  730.88,  384.22  L  730.88,  392.72  L  747.88,  392.72  L  747.88,  384.22 " style="&st2;" /><text style="&st8;" transform="matrix(&st16;  732.8  390.96 )"><tspan style="&st18;" x="0" y="0">AB1</tspan></text></a><a ewd:code="AB1" ewd:figID="33" ewd:figtype="w2w" ewd:pinNo="1" style="cursor:pointer;"><path d=" M  917.85,  358.73  L  900.85,  358.73  L  900.85,  367.22  L  917.85,  367.22  L  917.85,  358.73 " style="&st2;" /><text style="&st8;" transform="matrix(&st16;  902.77  365.47 )"><tspan style="&st18;" x="0" y="0">AB1</tspan></text></a><a ewd:code="IS1" ewd:figID="34" ewd:figtype="w2w" ewd:pinNo="12" style="cursor:pointer;"><path d=" M  135.98,  520.20  L  118.98,  520.20  L  118.98,  528.70  L  135.98,  528.70  L  135.98,  520.20 " style="&st2;" /><text style="&st8;" transform="matrix(&st16;  122.31  526.94 )"><tspan style="&st18;" x="0" y="0">IS1</tspan></text></a><a ewd:code="AB1" ewd:figID="35" ewd:figtype="w2w" ewd:pinNo="5" style="cursor:pointer;"><path d=" M  832.86,  384.22  L  815.86,  384.22  L  815.86,  392.72  L  832.86,  392.72  L  832.86,  384.22 " style="&st2;" /><text style="&st8;" transform="matrix(&st16;  817.78  390.96 )"><tspan style="&st18;" x="0" y="0">AB1</tspan></text></a><a ewd:code="IS1" ewd:figID="36" ewd:figtype="w2w" ewd:pinNo="8" style="cursor:pointer;"><path d=" M   84.99,  256.74  L   67.99,  256.74  L   67.99,  265.24  L   84.99,  265.24  L   84.99,  256.74 " style="&st2;" /><text style="&st8;" transform="matrix(&st16;  71.32  263.49 )"><tspan style="&st18;" x="0" y="0">IS1</tspan></text></a><a ewd:code="I3" ewd:figID="37" ewd:figtype="gp" style="cursor:pointer;"><path d=" M 1893.06,  681.67  L 1914.31,  681.67  L 1903.68,  697.25  L 1893.06,  681.67 " style="&st2;" /><text style="&st8;" transform="matrix(&st16;  1900.56  689.83 )"><tspan style="&st18;" x="0" y="0">I3</tspan></text></a><a ewd:code="I1" ewd:figID="38" ewd:figtype="gp" style="cursor:pointer;"><path d=" M   65.86,  681.67  L   87.11,  681.67  L   76.49,  697.25  L   65.86,  681.67 " style="&st2;" /><text style="&st8;" transform="matrix(&st16;  73.77  689.83 )"><tspan style="&st18;" x="0" y="0">I1</tspan></text></a><a ewd:code="I5" ewd:figID="39" ewd:figtype="gp" style="cursor:pointer;"><path d=" M  448.30,  681.67  L  469.55,  681.67  L  458.92,  697.25  L  448.30,  681.67 " style="&st2;" /><text style="&st8;" transform="matrix(&st16;  455.8  689.83 )"><tspan style="&st18;" x="0" y="0">I5</tspan></text></a><a ewd:code="I1" ewd:figID="40" ewd:figtype="gp" style="cursor:pointer;"><path d=" M 2462.46,  681.67  L 2483.71,  681.67  L 2473.09,  697.25  L 2462.46,  681.67 " style="&st2;" /><text style="&st8;" transform="matrix(&st16;  2470.37  689.83 )"><tspan style="&st18;" x="0" y="0">I1</tspan></text></a><a ewd:code="A2" ewd:figID="41" ewd:figtype="gp" style="cursor:pointer;"><path d=" M  592.78,  681.67  L  614.02,  681.67  L  603.40,  697.25  L  592.78,  681.67 " style="&st2;" /><text style="&st8;" transform="matrix(&st16;  598.86  689.83 )"><tspan style="&st18;" x="0" y="0">A2</tspan></text></a><a ewd:code="853" ewd:figID="42" ewd:figtype="sp" style="cursor:pointer;"><path d=" M 1865.44,  401.22  L 1873.94,  401.22  L 1878.19,  405.47  L 1878.19,  413.97  L 1873.94,  418.22  L 1865.44,  418.22  L 1861.19,  413.97  L 1861.19,  405.47  L 1865.44,  401.22 " style="&st2;" /></a><a ewd:code="937" ewd:figID="43" ewd:figtype="sp" style="cursor:pointer;"><path d=" M  454.67,  333.23  L  463.17,  333.23  L  467.42,  337.48  L  467.42,  345.98  L  463.17,  350.23  L  454.67,  350.23  L  450.42,  345.98  L  450.42,  337.48  L  454.67,  333.23 " style="&st2;" /></a><a ewd:code="1057" ewd:figID="44" ewd:figtype="sp" style="cursor:pointer;"><path d=" M   72.24,  333.23  L   80.74,  333.23  L   84.99,  337.48  L   84.99,  345.98  L   80.74,  350.23  L   72.24,  350.23  L   67.99,  345.98  L   67.99,  337.48  L   72.24,  333.23 " style="&st2;" /></a><a ewd:code="9865" ewd:figID="45" ewd:figtype="sp" style="cursor:pointer;"><path d=" M 1933.43,  282.24  L 1941.93,  282.24  L 1946.17,  286.49  L 1946.17,  294.99  L 1941.93,  299.24  L 1933.43,  299.24  L 1929.18,  294.99  L 1929.18,  286.49  L 1933.43,  282.24 " style="&st2;" /></a><a ewd:code="1117" ewd:figID="46" ewd:figtype="sp" style="cursor:pointer;"><path d=" M  106.23,  256.74  L  114.73,  256.74  L  118.98,  260.99  L  118.98,  269.49  L  114.73,  273.74  L  106.23,  273.74  L  101.98,  269.49  L  101.98,  260.99  L  106.23,  256.74 " style="&st2;" /></a><a ewd:code="997" ewd:figID="47" ewd:figtype="sp" style="cursor:pointer;"><path d=" M   72.24,  511.70  L   80.74,  511.70  L   84.99,  515.95  L   84.99,  524.45  L   80.74,  528.70  L   72.24,  528.70  L   67.99,  524.45  L   67.99,  515.95  L   72.24,  511.70 " style="&st2;" /></a></g></svg>